<?xml version="1.0" encoding="UTF-8"?>
<svg width="240px" height="240px" viewBox="0 0 240 240" version="1.1" xmlns="http://www.w3.org/2000/svg" xmlns:xlink="http://www.w3.org/1999/xlink">
    <title>com.android.BBKClock_clock_minute_b_s6_1x1_1_mc</title>
    <g id="com.android.BBKClock_clock_minute" stroke="none" stroke-width="1" fill="none" fill-rule="evenodd">
        <g id="编组-3" transform="translate(42.576923, 42.576923)"></g>
        <g id="编组-8" transform="translate(66.000000, 39.000000)">
            <path d="M54,27 C83.8233765,27 108,51.1766235 108,81 C108,110.823376 83.8233765,135 54,135 C24.1766235,135 0,110.823376 0,81 C0,51.1766235 24.1766235,27 54,27 Z M54,58 C41.2974508,58 31,68.2974508 31,81 C31,93.7025492 41.2974508,104 54,104 C66.7025492,104 77,93.7025492 77,81 C77,68.2974508 66.7025492,58 54,58 Z" id="形状结合" fill-opacity="0.04" fill="#000000"></path>
            <g id="编组-22" transform="translate(51.000000, 0.000000)" fill="#565656">
                <path d="M3.0091487,0 C4.6603459,-3.03320004e-16 5.9989057,1.3385598 5.9989057,2.989757 C5.9989057,2.9901217 5.99890564,2.9904864 5.9989055,2.99085109 L5.98279709,47.0091489 C5.98219255,48.6611274 4.64282987,50 2.9908513,50 C1.3396541,50 0.00109429637,48.6614402 0.00109429637,47.010243 C0.00109429637,47.0098783 0.0010943631,47.0095136 0.00109449656,47.0091489 L0.0172029133,2.99085109 C0.0178074518,1.33887263 1.35717013,3.03463541e-16 3.0091487,0 Z" id="分针" transform="translate(3.000000, 25.000000) rotate(-180.000000) translate(-3.000000, -25.000000) "></path>
            </g>
        </g>
    </g>
</svg>