<?xml version="1.0" encoding="UTF-8"?>
<svg width="240px" height="240px" viewBox="0 0 240 240" version="1.1" xmlns="http://www.w3.org/2000/svg" xmlns:xlink="http://www.w3.org/1999/xlink">
    <title>com.android.BBKClock_clock_hour_b_s6_1x1_0_sc</title>
    <g id="com.android.BBKClock_clock_hour" stroke="none" stroke-width="1" fill="none" fill-rule="evenodd" transform="translate(0.000000, 0.000000)">
        <path d="M118.588961,46 L121.411039,46 C124.06979,46 125.278219,46.3248896 126.41896,46.9349645 C127.559701,47.5450393 128.454961,48.4402993 129.065036,49.58104 C129.67511,50.7217808 130,51.93021 130,54.588961 L130,81.411039 C130,84.06979 129.67511,85.2782192 129.065036,86.41896 C128.454961,87.5597007 127.559701,88.4549607 126.41896,89.0650355 C125.278219,89.6751104 124.06979,90 121.411039,90 L118.588961,90 C115.93021,90 114.721781,89.6751104 113.58104,89.0650355 C112.440299,88.4549607 111.545039,87.5597007 110.934964,86.41896 C110.32489,85.2782192 110,84.06979 110,81.411039 L110,54.588961 C110,51.93021 110.32489,50.7217808 110.934964,49.58104 C111.545039,48.4402993 112.440299,47.5450393 113.58104,46.9349645 C114.721781,46.3248896 115.93021,46 118.588961,46 Z" id="时针" fill="#EE3A57" transform="translate(120.000000, 68.000000) rotate(-180.000000) translate(-120.000000, -68.000000) "></path>
    </g>
</svg>