<?xml version="1.0" encoding="UTF-8"?>
<svg width="240px" height="240px" viewBox="0 0 240 240" version="1.1" xmlns="http://www.w3.org/2000/svg" xmlns:xlink="http://www.w3.org/1999/xlink">
    <title>com.android.bbkmusic_b_s6_1x1_mc</title>
    <g id="com.android.bbkmusic" stroke="none" stroke-width="1" fill="none" fill-rule="evenodd">
        <path d="M195.639713,30.7990122 C195.731508,31.1654467 195.777924,31.5416994 195.777924,31.9193728 L195.777924,59.9276072 C195.777924,63.1133844 193.600857,65.8900593 190.49821,66.6614611 L179.100529,70.3819922 C177.476014,70.9122806 176.37688,72.4272809 176.37688,74.1361563 L176.37688,120 C176.273177,110.117902 173.725212,100.882087 169.339296,92.8613834 C173.815753,101.049699 176.37688,110.50409 176.37688,120.619526 C176.37688,151.136091 151.136091,176.37688 120.619526,176.37688 C88.8639091,176.37688 63.6231203,151.136091 63.6231203,120.619526 C63.6231203,88.8639091 88.8639091,63.6231203 120.619526,63.6231203 C127.00877,63.6231203 133.166747,64.7295672 138.91022,66.7705967 L138.793247,66.7291779 L138.793247,66.7291779 L138.792293,46.913066 L138.815773,46.9118838 C139.081479,43.3990938 141.577828,40.4127504 145.053704,39.548554 L190.008931,27.4301368 C192.497631,26.8113788 195.018618,28.3196757 195.639713,30.7990122 Z M120,101.207707 C109.621303,101.207707 101.207707,109.621303 101.207707,120 C101.207707,130.378697 109.621303,138.792293 120,138.792293 C130.378697,138.792293 138.792293,130.378697 138.792293,120 C138.792293,109.621303 130.378697,101.207707 120,101.207707 Z" id="形状结合" fill="#FFFFFF"></path>
    </g>
</svg>