<?xml version="1.0" encoding="UTF-8"?>
<svg width="240px" height="240px" viewBox="0 0 240 240" version="1.1" xmlns="http://www.w3.org/2000/svg" xmlns:xlink="http://www.w3.org/1999/xlink">
    <title>com.vivo.symmetry_b_s6_1x1_mc</title>
    <g id="com.vivo.symmetry" stroke="none" stroke-width="1" fill="none" fill-rule="evenodd" opacity="0.949999988">
        <g id="编组" transform="translate(60.909091, 60.909091)" fill="#07EC56" fill-rule="nonzero">
            <g id="编组-42">
                <path d="M59.0909091,0 C91.725917,0 118.181818,26.4559011 118.181818,59.0909091 C118.181818,91.725917 91.725917,118.181818 59.0909091,118.181818 C26.4559011,118.181818 0,91.725917 0,59.0909091 C0,26.4559011 26.4559011,0 59.0909091,0 Z M59.0909091,18.1818182 C36.4974421,18.1818182 18.1818182,36.4974421 18.1818182,59.0909091 C18.1818182,81.6843761 36.4974421,100 59.0909091,100 C81.6843761,100 100,81.6843761 100,59.0909091 C100,36.4974421 81.6843761,18.1818182 59.0909091,18.1818182 Z" id="形状结合"></path>
            </g>
        </g>
    </g>
</svg>