<?xml version="1.0" encoding="UTF-8"?>
<svg width="240px" height="240px" viewBox="0 0 240 240" version="1.1" xmlns="http://www.w3.org/2000/svg" xmlns:xlink="http://www.w3.org/1999/xlink">
    <title>com.android.bbk.lockscreen_b_s6_1x1_bg</title>
    <g id="com.android.bbk.lockscreen" stroke="none" stroke-width="1" fill="none" fill-rule="evenodd">
        <g id="天气备份-4" transform="translate(27.000000, 27.000000)" fill="#FFFFFF">
            <circle id="椭圆形" cx="93" cy="93" r="93"></circle>
        </g>
    </g>
</svg>