<?xml version="1.0" encoding="UTF-8"?>
<svg width="240px" height="240px" viewBox="0 0 240 240" version="1.1" xmlns="http://www.w3.org/2000/svg" xmlns:xlink="http://www.w3.org/1999/xlink">
    <title>com.vivo.browser_b_s6_1x1_bg</title>
    <g id="com.vivo.browser" stroke="none" stroke-width="1" fill="none" fill-rule="evenodd">
        <g id="编组" transform="translate(4.093386, 24.886896)">
            <path d="M117.106398,9.33860488 L116.228572,9.33222645 C163.507536,9.33222645 201.834709,47.6593993 201.834709,94.9383631 C201.834709,142.217327 163.507536,180.5445 116.228572,180.5445 L115.867955,180.5445 C73.6306827,180.5445 38.5378105,149.955688 31.533706,109.722432 C32.0310599,112.561834 32.6663095,115.353669 33.4341938,118.090186 C38.8613749,110.860779 45.7059664,103.255719 53.7337197,95.5689542 L53.7337197,95.5689542 L55.5370456,93.8595588 C66.4727138,83.5965504 79.480933,73.226998 94.0064469,63.4476664 C95.6321155,62.3531819 97.2575305,61.2790563 98.881493,60.2256441 L98.881493,60.2256441 L101.316198,58.6611052 C125.649355,43.1719531 149.520854,32.3832056 168.884698,27.4914201 C154.578744,16.3157642 136.62709,9.57405943 117.106398,9.33860488 Z M116.228572,9.33222645 L116.403491,9.33322645 L116.048263,9.33222645 C71.2425745,9.33222645 34.4596968,43.6097673 30.5968932,87.3199159 C34.4508736,43.6097673 71.1564399,9.33222645 115.867955,9.33222645 L116.228572,9.33222645 Z" id="形状结合" fill="#3D7BD8"></path>
            <ellipse id="椭圆形" fill="#FAFAFA" opacity="0.801618304" transform="translate(115.407301, 95.112641) rotate(-34.000000) translate(-115.407301, -95.112641) " cx="115.407301" cy="95.1126409" rx="113.427462" ry="38.2187857"></ellipse>
            <path d="M198.45794,71.0522783 L197.913648,71.7754862 C184.759714,89.1289194 163.308921,108.935998 136.806955,126.778577 C110.539488,144.463123 84.337907,156.832656 63.3822443,162.573919 C49.1107791,151.48151 38.4424158,135.971904 33.4312345,118.097302 C46.4934627,100.691774 67.7757923,81.1074323 94.0063763,63.4475617 C120.851912,45.373832 147.628628,32.851625 168.93806,27.4768611 C182.903671,38.4060078 193.39057,53.5772814 198.45794,71.0522783 Z" id="形状结合" fill="#66D1F2"></path>
        </g>
    </g>
</svg>