<?xml version="1.0" encoding="UTF-8"?>
<svg width="240px" height="240px" viewBox="0 0 240 240" version="1.1" xmlns="http://www.w3.org/2000/svg" xmlns:xlink="http://www.w3.org/1999/xlink">
    <title>com.android.notes_b_s6_1x1_bg</title>
    <defs>
        <path d="M55.9393135,-5.88735177e-15 L124.060687,2.26001522e-15 C143.512005,-1.31313392e-15 150.565522,2.02528606 157.676634,5.8283499 C164.787745,9.63141374 170.368586,15.2122554 174.17165,22.3233665 C177.974714,29.4344776 180,36.4879955 180,55.9393135 L180,124.060687 C180,143.512005 177.974714,150.565522 174.17165,157.676634 C170.368586,164.787745 164.787745,170.368586 157.676634,174.17165 C150.565522,177.974714 143.512005,180 124.060687,180 L55.9393135,180 C36.4879955,180 29.4344776,177.974714 22.3233665,174.17165 C15.2122554,170.368586 9.63141374,164.787745 5.8283499,157.676634 C2.02528606,150.565522 2.98300962e-15,143.512005 -5.13401337e-15,124.060687 L1.50667681e-15,55.9393135 C-8.75422616e-16,36.4879955 2.02528606,29.4344776 5.8283499,22.3233665 C9.63141374,15.2122554 15.2122554,9.63141374 22.3233665,5.8283499 C29.4344776,2.02528606 36.4879955,3.42072092e-15 55.9393135,-5.88735177e-15 Z" id="path-1"></path>
    </defs>
    <g id="com.android.notes" stroke="none" stroke-width="1" fill="none" fill-rule="evenodd">
        <g id="编组-7备份-20" transform="translate(30.000000, 30.000000)">
            <mask id="mask-2" fill="white">
                <use xlink:href="#path-1"></use>
            </mask>
            <use id="mask" fill="#FFFFFF" xlink:href="#path-1"></use>
        </g>
    </g>
</svg>