<?xml version="1.0" encoding="UTF-8"?>
<svg width="240px" height="240px" viewBox="0 0 240 240" version="1.1" xmlns="http://www.w3.org/2000/svg" xmlns:xlink="http://www.w3.org/1999/xlink">
    <title>com.bbk.iqoo.feedback_b_s6_1x1_mc</title>
    <g id="com.bbk.iqoo.feedback" stroke="none" stroke-width="1" fill="none" fill-rule="evenodd">
        <g id="意见反馈备份" transform="translate(61.056338, 68.915493)" fill="#FFFFFF" fill-rule="nonzero">
            <g id="编组-6">
                <path d="M58.943662,0 C82.2832588,0 102.022496,15.3760438 108.535727,36.5267913 C113.80152,37.1480321 117.887324,41.6281927 117.887324,47.062644 L117.887324,56.4162292 C117.887324,62.1798325 113.291596,66.8700461 107.564734,67.0222746 L107.277465,67.0260883 L99.3487511,67.0260883 C97.8679954,67.0260883 96.6676056,65.8256986 96.6676056,64.3449429 L96.6676056,51.7394366 C96.6676056,30.9576899 79.7780208,14.1107554 58.943662,14.1107554 C38.1093032,14.1107554 21.2197183,30.9576899 21.2197183,51.7394366 C21.2197183,72.3133659 37.7732004,89.0307856 58.3198276,89.3630766 L58.943662,89.3681178 L64.8558899,89.3681178 C68.6729454,89.3681178 71.7820297,92.399303 71.9073413,96.185872 L71.9112676,96.4234955 L71.9112676,100.797728 C71.9112676,102.221531 70.8014398,103.386121 69.399682,103.473598 L69.2301221,103.478873 L58.943662,103.478873 C35.6040651,103.478873 15.8648276,88.1028294 9.35159673,66.9520819 C4.08580442,66.3308411 -2.62937927e-15,61.8506805 0,56.4162292 L0,47.062644 C-2.31298215e-15,41.6281927 4.08580442,37.1480321 9.35314088,36.5264347 C15.8648276,15.3760438 35.6040651,0 58.943662,0 Z" id="形状结合"></path>
            </g>
        </g>
    </g>
</svg>