<?xml version="1.0" encoding="UTF-8"?>
<svg width="240px" height="240px" viewBox="0 0 240 240" version="1.1" xmlns="http://www.w3.org/2000/svg" xmlns:xlink="http://www.w3.org/1999/xlink">
    <title>com.android.filemanager_b_s6_1x1_bg</title>
    <g id="com.android.filemanager" stroke="none" stroke-width="1" fill="none" fill-rule="evenodd">
        <g id="编组" transform="translate(41.000000, 54.000000)" fill="#FEDA6E">
            <path d="M15.3833112,-6.21504185e-16 L142.616689,6.21504185e-16 C147.965801,-3.61111829e-16 149.905519,0.556953667 151.861074,1.60279622 C153.81663,2.64863878 155.351361,4.18337022 156.397204,6.13892578 C157.443046,8.09448133 158,10.0341988 158,15.3833112 L158,134.616689 C158,139.965801 157.443046,141.905519 156.397204,143.861074 C155.351361,145.81663 153.81663,147.351361 151.861074,148.397204 C149.905519,149.443046 147.965801,150 142.616689,150 L15.3833112,150 C10.0341988,150 8.09448133,149.443046 6.13892578,148.397204 C4.18337022,147.351361 2.64863878,145.81663 1.60279622,143.861074 C0.556953667,141.905519 2.4074122e-16,139.965801 -4.14336123e-16,134.616689 L4.14336123e-16,15.3833112 C-2.4074122e-16,10.0341988 0.556953667,8.09448133 1.60279622,6.13892578 C2.64863878,4.18337022 4.18337022,2.64863878 6.13892578,1.60279622 C8.09448133,0.556953667 10.0341988,3.61111829e-16 15.3833112,-6.21504185e-16 Z" id="蒙版备份-2"></path>
        </g>
    </g>
</svg>