<?xml version="1.0" encoding="UTF-8"?>
<svg width="240px" height="240px" viewBox="0 0 240 240" version="1.1" xmlns="http://www.w3.org/2000/svg" xmlns:xlink="http://www.w3.org/1999/xlink">
    <title>com.android.dialer_b_s6_1x1_mc</title>
    <g id="com.android.dialer" stroke="none" stroke-width="1" fill="none" fill-rule="evenodd">
        <g id="编组-40备份" transform="translate(55.325125, 61.986899)" fill="#FFFFFF" fill-rule="nonzero">
            <path d="M81.6039343,99.137933 C81.6039343,99.137933 81.6039343,99.137933 81.6039343,99.137933 C81.8983661,103.56638 82.3072675,108.723699 82.8306383,116.595537 C82.8599385,117.036232 82.8943465,117.55375 82.9338621,118.148091 C83.1162161,120.890905 81.0405581,123.262227 78.2977441,123.444587 C78.0233532,123.462831 77.7479222,123.458302 77.4742792,123.431049 C77.19194,123.402929 76.9260312,123.373589 76.6765528,123.343028 C47.7849171,119.803817 25.4080152,95.1226515 25.4080152,65.2018511 C25.4080152,35.7356202 47.1101631,11.3510281 75.3643175,7.23656567 C75.4994737,7.21688379 75.7103946,7.19321931 75.9970804,7.16557223 L75.9970834,7.16560299 C79.4235133,6.8351688 82.4690534,9.34496922 82.7994876,12.7713991 C82.8323615,13.1122847 82.8370845,13.4552997 82.8136088,13.7969612 C82.8136088,13.7969612 82.8136088,13.7969612 82.8136088,13.7969612 C82.6545227,16.1122655 82.2438627,21.9581045 81.5816289,31.3344782 L81.5816572,31.3344802 C81.3787474,34.2074215 79.2881652,36.5940238 76.4669478,37.1734172 C76.4669478,37.1734172 76.4669478,37.1734172 76.4669478,37.1734172 L75.6664655,37.3468393 C64.1891612,39.9635135 50.661106,49.2202109 50.661106,65.2018511 C50.661106,81.153421 64.1457478,90.4090635 75.6016792,93.0420327 C75.7172792,93.0686016 75.9136243,93.1052132 76.1907147,93.1518675 C79.163855,93.6524729 81.4039198,96.1295841 81.6039343,99.137933 Z" id="路径备份-4" transform="translate(54.357960, 65.200804) rotate(-30.000000) translate(-54.357960, -65.200804) "></path>
        </g>
    </g>
</svg>