<?xml version="1.0" encoding="UTF-8"?>
<svg width="240px" height="240px" viewBox="0 0 240 240" version="1.1" xmlns="http://www.w3.org/2000/svg" xmlns:xlink="http://www.w3.org/1999/xlink">
    <title>com.android.settings_b_s6_1x1_bg</title>
    <defs>
        <linearGradient x1="88.1332172%" y1="77.9104567%" x2="16.7358938%" y2="11.9077825%" id="linearGradient-1">
            <stop stop-color="#BABABA" offset="0%"></stop>
            <stop stop-color="#7E7E7E" offset="100%"></stop>
        </linearGradient>
        <radialGradient cx="85.6251541%" cy="12.5578155%" fx="85.6251541%" fy="12.5578155%" r="125.666169%" gradientTransform="translate(0.856252,0.125578),scale(0.957900,1.000000),rotate(130.113894),translate(-0.856252,-0.125578)" id="radialGradient-2">
            <stop stop-color="#B6B6BA" offset="0%"></stop>
            <stop stop-color="#C5C6CA" offset="100%"></stop>
        </radialGradient>
        <linearGradient x1="17.0740812%" y1="11.9990008%" x2="85.803604%" y2="95.878613%" id="linearGradient-3">
            <stop stop-color="#FFFFFF" stop-opacity="0.747869318" offset="0%"></stop>
            <stop stop-color="#FFFFFF" stop-opacity="0.497459572" offset="100%"></stop>
        </linearGradient>
        <linearGradient x1="20.2298119%" y1="92.4084274%" x2="82.034458%" y2="18.5763318%" id="linearGradient-4">
            <stop stop-color="#FFFFFF" offset="0%"></stop>
            <stop stop-color="#FFFFFF" stop-opacity="0.511800699" offset="48.2099419%"></stop>
            <stop stop-color="#FFFFFF" offset="100%"></stop>
        </linearGradient>
        <linearGradient x1="82.348025%" y1="89.3149802%" x2="30.5942619%" y2="16.3599735%" id="linearGradient-5">
            <stop stop-color="#FFFFFF" offset="0%"></stop>
            <stop stop-color="#FFFFFF" stop-opacity="0.155321241" offset="51.2648412%"></stop>
            <stop stop-color="#FFFFFF" offset="100%"></stop>
        </linearGradient>
    </defs>
    <g id="com.android.settings" stroke="none" stroke-width="1" fill="none" fill-rule="evenodd">
        <g id="设置" transform="translate(24.000000, 16.500000)">
            <path d="M109.080098,13.6269014 C109.312877,13.8482062 109.539928,14.07546 109.761024,14.3084373 L122.908492,28.162415 L123.300722,28.5724356 L137.882536,26.3419147 C137.908749,26.3379041 137.934971,26.3339492 137.961201,26.3300499 L138.039916,26.3185192 C148.281859,24.8404119 157.782836,31.9449041 159.260943,42.1868466 L159.260943,42.1868466 L161.227722,55.8214356 L175.684797,63.4500568 C184.836951,68.2791617 188.341475,79.613212 183.51237,88.7653665 C183.493383,88.8013509 183.474279,88.8372733 183.455058,88.8731331 L175.606722,103.514436 L175.744499,103.772466 L183.840514,118.876867 L183.840514,118.876867 L183.897826,118.984633 C188.726931,128.136788 185.222407,139.470838 176.070252,144.299943 L176.070252,144.299943 L160.779722,152.367436 L158.875488,165.563153 C157.397381,175.805096 147.896403,182.909588 137.65446,181.431481 C137.601967,181.423905 137.549507,181.416107 137.49708,181.408085 L123.588722,179.279436 L123.293947,179.587585 L110.146479,193.441563 C109.925383,193.67454 109.698333,193.901794 109.465554,194.123099 C101.96587,201.253101 90.1061666,200.953416 82.976164,193.453732 L82.976164,193.453732 L69.7176559,179.507789 C69.6145983,179.399388 69.5113537,179.29118 69.4079225,179.183166 L54.8703797,181.407639 C44.6413581,182.972665 35.0803935,175.949109 33.5153675,165.720088 L33.4915545,165.559813 L33.4915545,165.559813 L31.5297217,151.953436 L17.0536955,144.305555 C17.0368151,144.296636 17.0199483,144.287692 17.0030952,144.278721 L16.952577,144.251733 C7.83279585,139.361766 4.40385412,128.004621 9.29382131,118.88484 L9.29382131,118.88484 L17.1488435,104.234448 C17.1003804,104.143525 17.0518023,104.052657 17.0031092,103.961844 L8.90836568,88.8651602 C4.01839849,79.745379 7.44734022,68.388234 16.5671214,63.4982668 C16.6007726,63.4802232 16.634479,63.4622826 16.6682399,63.4444451 L31.9787217,55.3544356 L33.8770101,42.1901868 L33.8770101,42.1901868 L33.9008231,42.0299123 C35.4658491,31.8008908 45.0268138,24.7773347 55.2558353,26.3423608 L55.2558353,26.3423608 L69.1200964,28.464763 C69.1908854,28.3906697 69.2615867,28.3164857 69.3322002,28.242211 L82.5907084,14.2962676 C89.720711,6.7965842 101.580415,6.49689874 109.080098,13.6269014 Z" id="形状结合" fill="url(#linearGradient-1)"></path>
            <path d="M110.146479,37.7924553 L123.293947,51.646433 C132.659562,61.5153308 143.574588,69.7878423 155.607744,76.1370981 L176.070252,86.9340748 C185.222407,91.7631797 188.726931,103.09723 183.897826,112.249385 C183.878839,112.285369 183.859735,112.321291 183.840514,112.357151 L175.744499,127.461552 C168.867946,140.290853 164.286684,154.223348 162.207513,168.630116 L159.260943,189.047171 C157.782836,199.289114 148.281859,206.393606 138.039916,204.915499 C137.987423,204.907923 137.934963,204.900125 137.882536,204.892103 L115.459263,201.461374 C102.93776,199.545601 90.1976956,199.545601 77.6761923,201.461374 L55.2558353,204.891657 C45.0268138,206.456683 35.4658491,199.433127 33.9008231,189.204106 C33.8926545,189.150715 33.8847167,189.09729 33.8770101,189.043831 L30.9370335,168.649949 C28.8582942,154.230254 24.2730253,140.28537 17.3885648,127.445862 L9.29382131,112.349178 C4.40385412,103.229397 7.83279585,91.872252 16.952577,86.9822848 C16.9862283,86.9642412 17.0199346,86.9463006 17.0536955,86.9284631 L37.5414715,76.1037927 C49.5176326,69.776215 60.3849051,61.5428699 69.7176559,51.726229 L82.976164,37.7802856 C90.1061666,30.2806022 101.96587,29.9809167 109.465554,37.1109194 C109.698333,37.3322242 109.925383,37.559478 110.146479,37.7924553 Z" id="多边形" fill="url(#radialGradient-2)" transform="translate(96.567728, 115.617009) scale(1, -1) translate(-96.567728, -115.617009) "></path>
            <path d="M96.0981081,32.5878854 C100.730919,32.4708179 105.40839,34.1211083 109.032426,37.5665045 C109.257395,37.7803847 109.476828,38.0000141 109.690506,38.2251751 L109.690506,38.2251751 L122.837974,52.0791528 C132.250721,61.9977155 143.220677,70.3118581 155.314389,76.6930664 L155.314389,76.6930664 L175.776897,87.4900431 C180.199448,89.8235878 183.257461,93.728809 184.626449,98.1562818 C185.995438,102.583755 185.675402,107.533479 183.343774,111.952427 L183.343774,111.952427 L175.190453,127.164582 C168.279295,140.058446 163.674978,154.061055 161.585343,168.540326 L161.585343,168.540326 L158.638774,188.95738 C157.924515,193.906544 155.27183,198.097661 151.560419,200.872921 C147.849008,203.648182 143.078871,205.007587 138.134969,204.294111 L138.134969,204.294111 L115.554334,200.839989 C102.969817,198.914575 90.1656386,198.914575 77.5811213,200.839989 L77.5811213,200.839989 L55.1607642,204.270272 C50.2178442,205.026532 45.4363351,203.707683 41.7014911,200.964038 C37.966647,198.220394 35.278468,194.051955 34.523004,189.114391 L34.523004,189.114391 L31.5592175,168.560255 C29.470017,154.067993 24.8616728,140.052933 17.9425665,127.14881 L17.9425665,127.14881 L9.847823,112.052126 C7.48486807,107.645219 7.13186598,102.697736 8.47132943,98.2612421 C9.81079288,93.8247477 12.8427219,89.8992414 17.246245,87.5380878 L17.246245,87.5380878 L37.8351311,76.6596001 C49.8715618,70.300179 60.7935236,62.0253999 70.173241,52.1593571 L70.173241,52.1593571 L83.4317492,38.2134137 C86.8771455,34.5893784 91.4652969,32.7049529 96.0981081,32.5878854 Z" id="多边形" stroke="url(#linearGradient-4)" stroke-width="1.25723159" fill="url(#linearGradient-3)" transform="translate(96.567728, 115.617009) scale(1, -1) translate(-96.567728, -115.617009) "></path>
            <path d="M95.7126525,9.10386742 C100.345464,8.98679989 105.022935,10.6370903 108.64697,14.0824865 C108.871939,14.2963667 109.091372,14.5159961 109.305051,14.7411571 L109.305051,14.7411571 L122.452519,28.5951348 C131.865266,38.5136975 142.835221,46.8278401 154.928933,53.2090484 L154.928933,53.2090484 L175.391442,64.0060251 C179.813993,66.3395698 182.872005,70.244791 184.240994,74.6722638 C185.609982,79.0997365 185.289947,84.0494608 182.958318,88.4684089 L182.958318,88.4684089 L174.804998,103.680564 C167.893839,116.574428 163.289522,130.577037 161.199888,145.056308 L161.199888,145.056308 L158.253318,165.473362 C157.539059,170.422526 154.886375,174.613643 151.174964,177.388903 C147.463553,180.164164 142.693415,181.523569 137.749513,180.810093 L137.749513,180.810093 L115.168879,177.355971 C102.584361,175.430557 89.780183,175.430557 77.1956657,177.355971 L77.1956657,177.355971 L54.7753086,180.786254 C49.8323886,181.542514 45.0508795,180.223665 41.3160354,177.48002 C37.5811914,174.736376 34.8930123,170.567937 34.1375484,165.630373 L34.1375484,165.630373 L31.1737618,145.076237 C29.0845613,130.583975 24.4762171,116.568914 17.5571109,103.664792 L17.5571109,103.664792 L9.46236737,88.5681081 C7.09941244,84.1612009 6.74641035,79.2137184 8.0858738,74.7772241 C9.42533725,70.3407297 12.4572662,66.4152234 16.8607893,64.0540698 L16.8607893,64.0540698 L37.4496755,53.1755821 C49.4861062,46.816161 60.4080679,38.5413819 69.7877854,28.6753391 L69.7877854,28.6753391 L83.0462936,14.7293957 C86.4916898,11.1053604 91.0798413,9.22093494 95.7126525,9.10386742 Z" id="多边形" stroke="url(#linearGradient-5)" stroke-width="1.25723159" fill="url(#linearGradient-3)"></path>
            <path d="M109.080098,13.6269014 C109.312877,13.8482062 109.539928,14.07546 109.761024,14.3084373 L122.908492,28.162415 L123.300722,28.5724356 L137.882536,26.3419147 C137.908749,26.3379041 137.934971,26.3339492 137.961201,26.3300499 L138.039916,26.3185192 C148.281859,24.8404119 157.782836,31.9449041 159.260943,42.1868466 L159.260943,42.1868466 L161.227722,55.8214356 L175.684797,63.4500568 C184.836951,68.2791617 188.341475,79.613212 183.51237,88.7653665 C183.493383,88.8013509 183.474279,88.8372733 183.455058,88.8731331 L175.606722,103.514436 L175.744499,103.772466 L183.840514,118.876867 L183.840514,118.876867 L183.897826,118.984633 C188.726931,128.136788 185.222407,139.470838 176.070252,144.299943 L176.070252,144.299943 L160.779722,152.367436 L158.875488,165.563153 C157.397381,175.805096 147.896403,182.909588 137.65446,181.431481 C137.601967,181.423905 137.549507,181.416107 137.49708,181.408085 L123.588722,179.279436 L123.293947,179.587585 L110.146479,193.441563 C109.925383,193.67454 109.698333,193.901794 109.465554,194.123099 C101.96587,201.253101 90.1061666,200.953416 82.976164,193.453732 L82.976164,193.453732 L69.7176559,179.507789 C69.6145983,179.399388 69.5113537,179.29118 69.4079225,179.183166 L54.8703797,181.407639 C44.6413581,182.972665 35.0803935,175.949109 33.5153675,165.720088 L33.4915545,165.559813 L33.4915545,165.559813 L31.5297217,151.953436 L17.0536955,144.305555 C17.0368151,144.296636 17.0199483,144.287692 17.0030952,144.278721 L16.952577,144.251733 C7.83279585,139.361766 4.40385412,128.004621 9.29382131,118.88484 L9.29382131,118.88484 L17.1488435,104.234448 C17.1003804,104.143525 17.0518023,104.052657 17.0031092,103.961844 L8.90836568,88.8651602 C4.01839849,79.745379 7.44734022,68.388234 16.5671214,63.4982668 C16.6007726,63.4802232 16.634479,63.4622826 16.6682399,63.4444451 L31.9787217,55.3544356 L33.8770101,42.1901868 L33.8770101,42.1901868 L33.9008231,42.0299123 C35.4658491,31.8008908 45.0268138,24.7773347 55.2558353,26.3423608 L55.2558353,26.3423608 L69.1200964,28.464763 C69.1908854,28.3906697 69.2615867,28.3164857 69.3322002,28.242211 L82.5907084,14.2962676 C89.720711,6.7965842 101.580415,6.49689874 109.080098,13.6269014 Z" id="形状结合" fill-opacity="0.7" fill="#FFFFFF" opacity="0.798944382"></path>
        </g>
    </g>
</svg>