<?xml version="1.0" encoding="UTF-8"?>
<svg width="240px" height="240px" viewBox="0 0 240 240" version="1.1" xmlns="http://www.w3.org/2000/svg" xmlns:xlink="http://www.w3.org/1999/xlink">
    <title>com.vivo.email_b_s6_1x1_sc</title>
    <defs>
        <path d="M107.726654,5.65003804e-16 C112.589483,-3.28283481e-16 114.352863,0.506321515 116.130641,1.45708748 C116.816772,1.82403456 117.445917,2.25718455 118.01452,2.75298017 L70.569966,48.4393052 C63.9581533,54.8062359 53.5476108,54.8922755 46.8331298,48.697424 L46.5592922,48.4393052 L0.000894396208,3.60423834 C0.77311337,2.7408598 1.69273826,2.02084293 2.74686931,1.45708748 C4.52464709,0.506321515 6.28802657,3.28283481e-16 11.1508561,-5.65003804e-16 L107.726654,5.65003804e-16 Z" id="path-1"></path>
    </defs>
    <g id="com.vivo.email" stroke="none" stroke-width="1" fill="none" fill-rule="evenodd">
        <g id="编组" transform="translate(61.015790, 71.818182)">
            <mask id="mask-2" fill="white">
                <use xlink:href="#path-1"></use>
            </mask>
            <use id="形状结合" fill="#FFFFFF" xlink:href="#path-1"></use>
        </g>
    </g>
</svg>