<?xml version="1.0" encoding="UTF-8"?>
<svg width="240px" height="240px" viewBox="0 0 240 240" version="1.1" xmlns="http://www.w3.org/2000/svg" xmlns:xlink="http://www.w3.org/1999/xlink">
    <title>com.vivo.vivoconsole_b_s6_1x1_mc</title>
    <defs>
        <path d="M61.7592512,0.90287667 L113.424836,30.7646365 C115.504707,31.9667639 116.785714,34.1867472 116.785714,36.5890325 L116.785714,96.3252928 C116.785714,98.7275781 115.504707,100.947561 113.424836,102.149689 L61.7592512,132.011449 C59.6764246,133.215284 57.1092897,133.215284 55.0264631,132.011449 L3.36087868,102.149689 C1.28100744,100.947561 6.51144404e-15,98.7275781 0,96.3252928 L0,36.5890325 C2.72764128e-15,34.1867472 1.28100744,31.9667639 3.36087868,30.7646365 L55.0264631,0.90287667 C57.1092897,-0.30095889 59.6764246,-0.30095889 61.7592512,0.90287667 Z" id="path-1"></path>
    </defs>
    <g id="com.vivo.vivoconsole" stroke="none" stroke-width="1" fill="none" fill-rule="evenodd">
        <g id="均衡备份-7" transform="translate(62.220404, 53.564953)">
            <mask id="mask-2" fill="white">
                <use xlink:href="#path-1"></use>
            </mask>
            <use id="形状结合" fill="#FAFAFA" fill-rule="nonzero" opacity="0" xlink:href="#path-1"></use>
            <g id="编组-4" mask="url(#mask-2)">
                <g transform="translate(-1.233766, 32.366254)" id="形状结合">
                    <path d="M59.0909091,-34.0909091 L59.0909091,-21.4965054 L10.9090909,6.30069736 L10.9090909,61.8811208 L10.914,61.8840909 L-2.72848411e-12,68.1818182 L-2.72848411e-12,-1.66977543e-12 L59.0909091,-34.0909091 Z" fill="#D4D4D4" opacity="0.8"></path>
                    <path d="M107.266,61.8847446 L118.181818,68.1818182 L59.0909091,102.272727 L0,68.1818182 L10.915,61.8847446 L59.0909091,89.6783236 L107.266,61.8847446 Z" fill="#EFEFEF" opacity="0.7"></path>
                </g>
            </g>
            <polygon id="路径-131" fill="#A1A1A1" opacity="0.80351237" mask="url(#mask-2)" points="57.8571429 134.638981 57.8571429 66.4571627 116.948052 32.3662536 116.948052 100.548072"></polygon>
            <polygon id="路径-129" fill="#D3D3D3" opacity="0.4" mask="url(#mask-2)" points="57.8571429 66.4571627 -1.23376623 32.3662536 57.8571429 -1.72465551 116.948052 32.3662536"></polygon>
        </g>
    </g>
</svg>