<?xml version="1.0" encoding="UTF-8"?>
<svg width="240px" height="240px" viewBox="0 0 240 240" version="1.1" xmlns="http://www.w3.org/2000/svg" xmlns:xlink="http://www.w3.org/1999/xlink">
    <title>com.vivo.agent_b_s6_1x1_mc</title>
    <g id="com.vivo.agent" stroke="none" stroke-width="1" fill="none" fill-rule="evenodd">
        <g id="编组-19" transform="translate(82.287013, 97.693896)" fill="#FFFFFF">
            <path d="M23.3978669,0 C25.6258471,-4.0927332e-16 27.4319819,1.8061348 27.4319819,4.03411498 L27.4319819,38.0031707 C27.4319819,40.2311509 25.6258471,42.0372857 23.3978669,42.0372857 C21.1698867,42.0372857 19.3637519,40.2311509 19.3637519,38.0031707 L19.3637519,4.03411498 C19.3637519,1.8061348 21.1698867,4.0927332e-16 23.3978669,0 Z" id="Rectangle-Copy-10"></path>
            <path d="M62.1253707,0 C64.3533509,-4.0927332e-16 66.1594857,1.8061348 66.1594857,4.03411498 L66.1594857,38.0031707 C66.1594857,40.2311509 64.3533509,42.0372857 62.1253707,42.0372857 C59.8973905,42.0372857 58.0912557,40.2311509 58.0912557,38.0031707 L58.0912557,4.03411498 C58.0912557,1.8061348 59.8973905,4.0927332e-16 62.1253707,0 Z" id="Rectangle-Copy-14"></path>
            <path d="M4.03411498,9.70091208 C6.26209516,9.70091208 8.06822996,11.5070469 8.06822996,13.7350271 L8.06822996,29.9190773 C8.06822996,32.1470575 6.26209516,33.9531923 4.03411498,33.9531923 C1.8061348,33.9531923 4.75335958e-16,32.1470575 0,29.9190773 L0,13.7350271 C-2.7284888e-16,11.5070469 1.8061348,9.70091208 4.03411498,9.70091208 Z" id="Rectangle-Copy-11"></path>
            <path d="M42.7616188,9.70091208 C44.989599,9.70091208 46.7957338,11.5070469 46.7957338,13.7350271 L46.7957338,29.9190773 C46.7957338,32.1470575 44.989599,33.9531923 42.7616188,33.9531923 C40.5336386,33.9531923 38.7275038,32.1470575 38.7275038,29.9190773 L38.7275038,13.7350271 C38.7275038,11.5070469 40.5336386,9.70091208 42.7616188,9.70091208 Z" id="Rectangle-Copy-15"></path>
        </g>
    </g>
</svg>