<?xml version="1.0" encoding="UTF-8"?>
<svg width="240px" height="240px" viewBox="0 0 240 240" version="1.1" xmlns="http://www.w3.org/2000/svg" xmlns:xlink="http://www.w3.org/1999/xlink">
    <title>com.android.bbkmusic_b_s6_1x1_sc</title>
    <g id="com.android.bbkmusic" stroke="none" stroke-width="1" fill="none" fill-rule="evenodd"></g>
</svg>