<?xml version="1.0" encoding="UTF-8"?>
<svg width="240px" height="240px" viewBox="0 0 240 240" version="1.1" xmlns="http://www.w3.org/2000/svg" xmlns:xlink="http://www.w3.org/1999/xlink">
    <title>com.vivo.gallery_b_s6_1x1_mc</title>
    <defs>
        <path d="M10.2555408,-4.14336123e-16 L153.129075,4.14336123e-16 C156.69515,-2.4074122e-16 157.988294,0.371302445 159.291998,1.06853082 C160.595702,1.76575919 161.618856,2.78891348 162.316085,4.09261719 C163.013313,5.39632089 163.384615,6.68946584 163.384615,10.2555408 L163.384615,136.51369 C163.384615,140.079765 163.013313,141.37291 162.316085,142.676614 C161.618856,143.980317 160.595702,145.003472 159.291998,145.7007 C157.988294,146.397928 156.69515,146.769231 153.129075,146.769231 L10.2555408,146.769231 C6.68946584,146.769231 5.39632089,146.397928 4.09261719,145.7007 C2.78891348,145.003472 1.76575919,143.980317 1.06853082,142.676614 C0.371302445,141.37291 1.60494146e-16,140.079765 -2.76224082e-16,136.51369 L2.76224082e-16,10.2555408 C-1.60494146e-16,6.68946584 0.371302445,5.39632089 1.06853082,4.09261719 C1.76575919,2.78891348 2.78891348,1.76575919 4.09261719,1.06853082 C5.39632089,0.371302445 6.68946584,2.4074122e-16 10.2555408,-4.14336123e-16 Z" id="path-1"></path>
    </defs>
    <g id="com.vivo.gallery" stroke="none" stroke-width="1" fill="none" fill-rule="evenodd">
        <g id="相册备份-19" transform="translate(38.000000, 38.000000)">
            <mask id="mask-2" fill="white">
                <use xlink:href="#path-1"></use>
            </mask>
            <use id="蒙版" fill="#6EC2F9" xlink:href="#path-1"></use>
            <g id="编组-9" mask="url(#mask-2)">
                <g transform="translate(1.756410, 76.981699)"></g>
            </g>
        </g>
    </g>
</svg>