<?xml version="1.0" encoding="UTF-8"?>
<svg width="240px" height="480px" viewBox="0 0 240 480" version="1.1" xmlns="http://www.w3.org/2000/svg" xmlns:xlink="http://www.w3.org/1999/xlink">
    <title>com.android.mms_b_s5_1x2_0_mc</title>
    <defs>
        <path d="M48,0 L48,39 C48,47.2842712 54.7157288,54 63,54 L101.999,54 L102,64.770861 C102,71.4572515 101.303808,73.8818983 99.9965047,76.3263428 C98.6892015,78.7707872 96.7707872,80.6892015 94.3263428,81.9965047 C91.8818983,83.3038079 89.4572515,84 82.770861,84 L25.097448,83.9998127 C20.7456156,84.764908 16.7610094,86.5959021 13.4227927,89.2136317 L5.37859441,95.7381151 C4.79073757,96.2148501 4.05686978,96.4750222 3.3,96.4750222 C1.54030652,96.4750222 0.102304136,95.0976989 0.00522393978,93.3622834 L0,93.1750222 L5.17920154e-16,19.229139 C-3.00926524e-16,12.5427485 0.696192084,10.1181017 2.00349528,7.67365722 C3.31079847,5.22921278 5.22921278,3.31079847 7.67365722,2.00349528 C10.1181017,0.696192084 12.5427485,1.36469344e-12 19.229139,1.36346517e-12 L48,0 Z" id="path-1"></path>
    </defs>
    <g id="com.android.mms" stroke="none" stroke-width="1" fill="none" fill-rule="evenodd">
        <g id="矩形备份" transform="translate(45.000000, 207.000000)">
            <mask id="mask-2" fill="white">
                <use xlink:href="#path-1"></use>
            </mask>
            <use id="形状结合" fill="#4194FD" xlink:href="#path-1"></use>
        </g>
        <path d="M108,207 L147,207 L147,207 L147,246 C147,254.284271 140.284271,261 132,261 L93,261 L93,261 L93,222 C93,213.715729 99.7157288,207 108,207 Z" id="矩形备份-19" fill="#053777" opacity="0.5" transform="translate(120.000000, 234.000000) scale(1, -1) translate(-120.000000, -234.000000) "></path>
    </g>
</svg>