<?xml version="1.0" encoding="UTF-8"?>
<svg width="240px" height="480px" viewBox="0 0 240 480" version="1.1" xmlns="http://www.w3.org/2000/svg" xmlns:xlink="http://www.w3.org/1999/xlink">
    <title>com.android.mms_b_s5_1x2_1_sc</title>
    <defs>
        <path d="M123.35,207 L118.198232,219.031938 C117.111453,221.570515 118.288368,224.509447 120.826945,225.596226 C121.448787,225.86244 122.11818,225.999709 122.794609,225.999726 L131,226 L131,241.770861 C131,246.730037 131.38297,249.34486 132.114197,251.362173 C133.676662,255.232688 136.767312,258.323338 140.638597,259.886076 C142.65514,260.61703 145.269963,261 150.229139,261 L194.999,260.999 L195,271.770861 C195,278.457252 194.303808,280.881898 192.996505,283.326343 C191.689202,285.770787 189.770787,287.689202 187.326343,288.996505 C184.881898,290.303808 182.457252,291 175.770861,291 L118.097448,290.999813 C113.745616,291.764908 109.761009,293.595902 106.422793,296.213632 L98.3785944,302.738115 C97.7907376,303.21485 97.0568698,303.475022 96.3,303.475022 C94.5403065,303.475022 93.1023041,302.097699 93.0052239,300.362283 L93,300.175022 L93,226.229139 C93,219.542748 93.6961921,217.118102 95.0034953,214.673657 C96.3107985,212.229213 98.2292128,210.310798 100.673657,209.003495 C103.118102,207.696192 105.542748,207 112.229139,207 L123.35,207 Z M187.326343,209.003495 C189.770787,210.310798 191.689202,212.229213 192.996505,214.673657 C193.334205,215.305101 193.631126,215.935224 193.885803,216.637827 C192.323338,212.767312 189.232688,209.676662 185.361403,208.113924 C186.064776,208.368874 186.694899,208.665795 187.326343,209.003495 Z" id="path-1"></path>
    </defs>
    <g id="com.android.mms" stroke="none" stroke-width="1" fill="none" fill-rule="evenodd">
        <mask id="mask-2" fill="white">
            <use xlink:href="#path-1"></use>
        </mask>
        <use id="形状结合" fill="#4BDCE2" transform="translate(144.000000, 255.237511) scale(-1, 1) translate(-144.000000, -255.237511) " xlink:href="#path-1"></use>
    </g>
</svg>