<?xml version="1.0" encoding="UTF-8"?>
<svg width="240px" height="480px" viewBox="0 0 240 480" version="1.1" xmlns="http://www.w3.org/2000/svg" xmlns:xlink="http://www.w3.org/1999/xlink">
    <title>com.android.filemanager_b_s5_1x2_2_mc</title>
    <g id="com.android.filemanager" stroke="none" stroke-width="1" fill="none" fill-rule="evenodd">
        <path d="M219,131 L219,248.892 L200.349132,248.892795 C195.629408,248.892795 191.566143,245.595807 190.575089,241.006791 L190.520353,240.735374 L189.440124,234.973163 C188.48249,229.864901 184.085975,226.137576 178.916442,226.003725 L178.628467,226 L86,226 L86,146.383311 C86,141.034199 86.5569537,139.094481 87.6027962,137.138926 C88.6486388,135.18337 90.1833702,133.648639 92.1389258,132.602796 C94.0944813,131.556954 96.0341988,131 101.383311,131 L219,131 Z M218.915152,191 L110.197094,191 C109.751335,191 109.589692,191.046413 109.426729,191.133566 C109.263766,191.22072 109.135871,191.348614 109.048718,191.511577 C108.961564,191.67454 108.915152,191.836183 108.915152,192.281943 L108.915152,192.281943 L108.915152,194.718057 C108.915152,195.163817 108.961564,195.32546 109.048718,195.488423 C109.135871,195.651386 109.263766,195.77928 109.426729,195.866434 C109.589692,195.953587 109.751335,196 110.197094,196 L110.197094,196 L218.915152,196 L218.915152,191 Z M188.011155,176 L110.197094,176 C109.751335,176 109.589692,176.046413 109.426729,176.133566 C109.263766,176.22072 109.135871,176.348614 109.048718,176.511577 C108.961564,176.67454 108.915152,176.836183 108.915152,177.281943 L108.915152,177.281943 L108.915152,179.718057 C108.915152,180.163817 108.961564,180.32546 109.048718,180.488423 C109.135871,180.651386 109.263766,180.77928 109.426729,180.866434 C109.589692,180.953587 109.751335,181 110.197094,181 L110.197094,181 L188.011155,181 C188.456914,181 188.618558,180.953587 188.78152,180.866434 C188.944483,180.77928 189.072378,180.651386 189.159531,180.488423 C189.246685,180.32546 189.293098,180.163817 189.293098,179.718057 L189.293098,179.718057 L189.293098,177.281943 C189.293098,176.836183 189.246685,176.67454 189.159531,176.511577 C189.072378,176.348614 188.944483,176.22072 188.78152,176.133566 C188.618558,176.046413 188.456914,176 188.011155,176 L188.011155,176 Z M132.806397,164 L130.915152,164 L130.915152,166 L132.806397,166 L132.806397,164 Z M124.3061,158.412 C123.673392,158.412 123.136966,158.57 122.696822,158.886 C122.256677,159.202 121.926569,159.63 121.706496,160.17 C121.486424,160.71 121.376388,161.316 121.376388,161.988 C121.376388,162.684 121.489863,163.306 121.716812,163.854 C121.943762,164.402 122.284186,164.834 122.738085,165.15 C123.191984,165.466 123.742165,165.624 124.388627,165.624 C125.090107,165.624 125.667797,165.456 126.121696,165.12 C126.530205,164.8176 126.841229,164.33052 127.054768,163.65876 L127.054768,163.65876 L127.122337,163.428 L125.688429,163.428 L125.623438,163.56528 C125.527157,163.73936 125.392363,163.8776 125.219056,163.98 C125.002422,164.108 124.725612,164.172 124.388627,164.172 C124.092905,164.172 123.835008,164.104 123.614935,163.968 C123.394863,163.832 123.22637,163.648 123.109457,163.416 C123.015926,163.2304 122.962009,163.032 122.947704,162.8208 L122.947704,162.8208 L122.944403,162.66 L127.194548,162.66 L127.194548,161.916 L127.188127,161.641837 C127.162442,161.100612 127.059705,160.602 126.879913,160.146 C126.670157,159.614 126.348645,159.192 125.915378,158.88 C125.482111,158.568 124.945685,158.412 124.3061,158.412 Z M114.743627,156.156 L108.915152,156.156 L108.915152,165.42 L110.493482,165.42 L110.493482,161.784 L114.269096,161.784 L114.269096,160.164 L110.493482,160.164 L110.493482,157.788 L114.743627,157.788 L114.743627,156.156 Z M117.477182,158.688 L115.929799,158.688 L115.929799,165.42 L117.477182,165.42 L117.477182,158.688 Z M120.303661,156.156 L118.756278,156.156 L118.756278,165.42 L120.303661,165.42 L120.303661,156.156 Z M124.3061,159.864 C124.594945,159.864 124.840807,159.938 125.043686,160.086 C125.246565,160.234 125.396145,160.418 125.492427,160.638 C125.588708,160.858 125.636849,161.08 125.636849,161.304 L125.636849,161.304 L122.944403,161.304 L122.953752,161.136375 C122.972449,160.969125 123.019193,160.803 123.093983,160.638 C123.193703,160.418 123.345003,160.234 123.547882,160.086 C123.750761,159.938 124.0035,159.864 124.3061,159.864 Z M116.703491,156 C116.449032,156 116.242714,156.088 116.084537,156.264 C115.926361,156.44 115.847272,156.676 115.847272,156.972 C115.847272,157.244 115.92808,157.474 116.089695,157.662 C116.251311,157.85 116.455909,157.944 116.703491,157.944 C116.937317,157.944 117.136758,157.85 117.301812,157.662 C117.466866,157.474 117.549393,157.244 117.549393,156.972 C117.549393,156.684 117.468586,156.45 117.30697,156.27 C117.145354,156.09 116.944195,156 116.703491,156 Z" id="形状结合" fill="#FFFFFF"></path>
        <path d="M124.383311,111 L219,111 L219,111 L219,131 L109,131 L109,126.383311 C109,121.034199 109.556954,119.094481 110.602796,117.138926 C111.648639,115.18337 113.18337,113.648639 115.138926,112.602796 C117.094481,111.556954 119.034199,111 124.383311,111 Z" id="矩形" fill="#FFFFFF" opacity="0.5"></path>
        <path d="M145.383311,91 L219,91 L219,91 L219,111 L130,111 L130,106.383311 C130,101.034199 130.556954,99.0944813 131.602796,97.1389258 C132.648639,95.1833702 134.18337,93.6486388 136.138926,92.6027962 C138.094481,91.5569537 140.034199,91 145.383311,91 Z" id="矩形备份-2" fill="#FFFFFF" opacity="0.300000012"></path>
        <g id="编组-8备份-2" transform="translate(108.915152, 156.000000)"></g>
    </g>
</svg>