<?xml version="1.0" encoding="UTF-8"?>
<svg width="240px" height="240px" viewBox="0 0 240 240" version="1.1" xmlns="http://www.w3.org/2000/svg" xmlns:xlink="http://www.w3.org/1999/xlink">
    <title>com.android.filemanager_b_s5_1x1_2_mc</title>
    <defs>
        <path d="M68.6284672,24 C73.9219622,24 78.4647562,27.7703038 79.4401245,32.9731631 L80.5203531,38.7353741 C81.4070515,43.4652463 85.5368643,46.8927951 90.3491324,46.8927951 L150,46.892 L150,104.616689 C150,109.965801 149.443046,111.905519 148.397204,113.861074 C147.351361,115.81663 145.81663,117.351361 143.861074,118.397204 C141.905519,119.443046 139.965801,120 134.616689,120 L15.3833112,120 C10.0341988,120 8.09448133,119.443046 6.13892578,118.397204 C4.18337022,117.351361 2.64863878,115.81663 1.60279622,113.861074 C0.556953667,111.905519 2.4074122e-16,109.965801 -4.14336123e-16,104.616689 L0,24 L68.6284672,24 Z" id="path-1"></path>
    </defs>
    <g id="com.android.filemanager" stroke="none" stroke-width="1" fill="none" fill-rule="evenodd">
        <g id="编组" transform="translate(45.000000, 70.000000)">
            <path d="M143.861074,1.60279622 C145.81663,2.64863878 147.351361,4.18337022 148.397204,6.13892578 C149.443046,8.09448133 150,10.0341988 150,15.3833112 L150,46.892 L90.3491324,46.8927951 C85.6294079,46.8927951 81.5661428,43.5958075 80.5750887,39.0067913 L80.5203531,38.7353741 L79.4401245,32.9731631 C78.4647562,27.7703038 73.9219622,24 68.6284672,24 L68.6284672,24 L0,24 L4.14336123e-16,15.3833112 C-2.4074122e-16,10.0341988 0.556953667,8.09448133 1.60279622,6.13892578 C2.64863878,4.18337022 4.18337022,2.64863878 6.13892578,1.60279622 C8.09448133,0.556953667 10.0341988,3.61111829e-16 15.3833112,-6.21504185e-16 L134.616689,6.21504185e-16 C139.965801,-3.61111829e-16 141.905519,0.556953667 143.861074,1.60279622 Z" id="形状结合" fill="#FFFFFF"></path>
            <mask id="mask-2" fill="white">
                <use xlink:href="#path-1"></use>
            </mask>
            <use id="形状结合" fill="#FFFFFF" opacity="0.1" xlink:href="#path-1"></use>
        </g>
        <path d="M72.7494136,54 L167.250586,54 C171.082626,54 173.438529,54.5890856 175.506905,55.6952652 C177.575281,56.8014449 179.198555,58.4247185 180.304735,60.4930946 C181.410914,62.5614706 182,64.9173741 182,68.7494136 L182,70 L182,70 L58,70 L58,68.7494136 C58,64.9173741 58.5890856,62.5614706 59.6952652,60.4930946 C60.8014449,58.4247185 62.4247185,56.8014449 64.4930946,55.6952652 C66.5614706,54.5890856 68.9173741,54 72.7494136,54 Z" id="矩形备份-3" fill="#FFFFFF" opacity="0.400000006"></path>
        <path d="M85.976404,40 L154.023596,40 C156.928024,40 159.438529,40.5890856 161.506905,41.6952652 C163.575281,42.8014449 165.198555,44.4247185 166.304735,46.4930946 C167.410914,48.5614706 168,51.071976 168,53.976404 L168,54 L168,54 L72,54 L72,53.976404 C72,51.071976 72.5890856,48.5614706 73.6952652,46.4930946 C74.8014449,44.4247185 76.4247185,42.8014449 78.4930946,41.6952652 C80.5614706,40.5890856 83.071976,40 85.976404,40 Z" id="矩形备份-4" fill="#FFFFFF" opacity="0.200000003"></path>
    </g>
</svg>