<?xml version="1.0" encoding="UTF-8"?>
<svg width="480px" height="240px" viewBox="0 0 480 240" version="1.1" xmlns="http://www.w3.org/2000/svg" xmlns:xlink="http://www.w3.org/1999/xlink">
    <title>com.android.filemanager_b_s5_2x1_2_sc</title>
    <g id="com.android.filemanager" stroke="none" stroke-width="1" fill="none" fill-rule="evenodd">
        <path d="M337.628467,144 L337.916442,144.003725 C342.990243,144.135097 347.319391,147.728084 348.383402,152.690806 L348.440124,152.973163 L349.520353,158.735374 L349.575089,159.006791 C350.546322,163.504027 354.468106,166.760399 359.066756,166.888855 L359.349132,166.892795 L397,166.893 L397,167 L458.818,167 L458.787542,167.721666 L458.706321,169.294836 L458.612114,170.803666 L458.542119,171.775086 L458.466391,172.719828 L458.342081,174.088598 L458.252085,174.97 L458.156408,175.82741 L458.055066,176.661593 L457.948074,177.473316 L457.835447,178.263347 L457.7172,179.032453 L457.59335,179.781401 C457.572242,179.904589 457.550901,180.026968 457.529327,180.148556 L457.397099,180.868704 L457.259304,181.570612 L457.115958,182.255047 L456.967077,182.922775 L456.812675,183.574564 L456.652768,184.21118 L456.487371,184.833391 L456.316499,185.441963 C456.287565,185.542298 456.258404,185.642096 456.229015,185.741375 L455.958393,186.621261 L455.771188,187.193521 L455.57857,187.755211 L455.380553,188.307097 L455.177153,188.849947 L454.968385,189.384529 L454.754264,189.911608 L454.423079,190.689839 L454.195643,191.20152 L453.844557,191.960247 L453.481599,192.710725 L453.233056,193.207738 L452.979275,193.703002 L452.588815,194.444297 C448.405445,202.266519 442.266519,208.405445 434.444297,212.588815 L433.695024,212.98341 L432.943465,213.365998 L432.439836,213.61436 L431.933211,213.857346 L431.165922,214.211712 L430.648342,214.44119 L430.124992,214.665237 L429.595083,214.883837 L429.327421,214.99109 L429.327421,214.99109 L428.786185,215.201491 L428.23641,215.406406 L427.677302,215.60582 C427.583295,215.638596 427.488867,215.671142 427.394,215.703459 L426.819408,215.89459 L426.233504,216.08018 L425.635494,216.260214 L425.024588,216.434675 L424.399993,216.603548 L423.760917,216.766817 C423.653153,216.793561 423.544753,216.82007 423.435701,216.846345 L422.773418,217.001178 L422.094675,217.150369 L421.398678,217.2939 L420.684636,217.431756 C420.564082,217.454258 420.442742,217.476523 420.320601,217.498551 L419.578007,217.627865 L418.815387,217.751466 C418.686571,217.771589 418.556887,217.791473 418.42632,217.811118 L417.632177,217.926118 L416.816029,218.035364 L415.977083,218.138841 L415.114547,218.236532 L414.227631,218.328424 L413.31554,218.414498 L412.377484,218.494741 L411.41267,218.569135 L410.420306,218.637666 L409.3996,218.700317 L408.349761,218.757073 L406.718643,218.83112 L405.592503,218.873069 L404.434457,218.909068 L403.243713,218.939102 L402.019479,218.963153 L400.760963,218.981207 L398.807177,218.997008 C398.585606,218.998011 398.362524,218.99926 398.137915,218.99926 L99,218.99926 L99,144 L337.628467,144 Z" id="形状结合" fill="#FFFFFF"></path>
        <path d="M137.998668,89.6053426 L138,144 L99,143.999241 L99.0007548,142.207948 L99.0068926,140.953773 L99.0068926,140.953773 L99.0276377,139.140752 L99.0276377,139.140752 L99.0491347,137.976291 L99.0491347,137.976291 L99.0767449,136.846184 L99.0767449,136.846184 L99.110451,135.749559 L99.110451,135.749559 L99.1502356,134.685541 L99.1502356,134.685541 L99.1960814,133.653255 L99.1960814,133.653255 L99.247971,132.651828 L99.247971,132.651828 L99.3058869,131.680386 L99.3058869,131.680386 L99.3698119,130.738053 L99.3698119,130.738053 L99.4397286,129.823956 L99.4397286,129.823956 L99.5156195,128.937221 L99.5156195,128.937221 L99.5974673,128.076973 L99.5974673,128.076973 L99.6852547,127.242339 L99.6852547,127.242339 L99.7789643,126.432443 L99.7789643,126.432443 L99.8785786,125.646413 L99.8785786,125.646413 L99.9840804,124.883373 L99.9840804,124.883373 L100.095452,124.14245 L100.095452,124.14245 L100.212677,123.422768 L100.212677,123.422768 L100.335737,122.723455 L100.335737,122.723455 L100.464614,122.043636 L100.464614,122.043636 L100.599293,121.382436 L100.599293,121.382436 L100.739754,120.738982 L100.739754,120.738982 L100.885982,120.112399 L100.885982,120.112399 L101.037958,119.501813 L101.037958,119.501813 L101.195664,118.906349 L101.195664,118.906349 L101.359085,118.325134 C101.386797,118.229404 101.414746,118.134231 101.442933,118.039597 L101.614891,117.478116 C101.644024,117.385565 101.673393,117.293517 101.702998,117.201954 L101.883455,116.65824 C101.914002,116.568541 101.944785,116.47929 101.975802,116.390469 L102.164719,115.862555 L102.164719,115.862555 L102.359255,115.344081 L102.359255,115.344081 L102.559391,114.834173 L102.559391,114.834173 L102.765111,114.331957 L102.765111,114.331957 L102.976396,113.836559 L102.976396,113.836559 L103.303723,113.104334 L103.303723,113.104334 L103.528848,112.622156 L103.528848,112.622156 L103.876852,111.905662 L103.876852,111.905662 L104.115708,111.43124 L104.115708,111.43124 L104.484226,110.722283 C104.525854,110.643597 104.567707,110.564922 104.609787,110.48624 C108.270236,103.641796 113.641796,98.2702357 120.48624,94.6097868 L121.163712,94.2531969 L121.163712,94.2531969 L121.843402,93.9078263 L121.843402,93.9078263 L122.527891,93.5737262 C122.986391,93.354761 123.449811,93.1433436 123.921591,92.9395425 L124.635963,92.6395616 C128.123225,91.217345 132.140385,90.1972534 137.998668,89.6053426 Z M420.00033,89.6052414 C425.050959,90.1154878 428.733167,90.9439691 431.887103,92.0739903 L432.634335,92.3509765 C433.618268,92.7279879 434.554988,93.1357403 435.472026,93.5736865 L436.156543,93.9077989 L436.836261,94.2531828 L437.51376,94.6097868 C444.358204,98.2702357 449.729764,103.641796 453.390213,110.48624 L453.762815,111.194674 L454.123148,111.905662 L454.471152,112.622156 L454.696277,113.104334 L455.023604,113.836559 L455.234889,114.331957 L455.440609,114.834173 L455.640745,115.344081 L455.835281,115.862555 L456.024198,116.390469 L456.20748,116.928698 C456.237556,117.019311 456.267397,117.11039 456.297002,117.201954 L456.471798,117.757294 C456.500458,117.850868 456.528881,117.944963 456.557067,118.039597 L456.723338,118.614015 C456.750575,118.710878 456.777574,118.808317 456.804336,118.906349 L456.962042,119.501813 L457.114018,120.112399 L457.260246,120.738982 L457.400707,121.382436 L457.535386,122.043636 L457.664263,122.723455 L457.787323,123.422768 L457.904548,124.14245 L458.01592,124.883373 L458.121421,125.646413 L458.221036,126.432443 L458.314745,127.242339 L458.402533,128.076973 L458.484381,128.937221 L458.560271,129.823956 L458.630188,130.738053 L458.694113,131.680386 L458.752029,132.651828 L458.827598,134.165486 L458.870415,135.213529 L458.907163,136.293741 L458.937823,137.406998 L458.962379,138.554173 L458.980813,139.73614 L458.993107,140.953773 L458.999245,142.207948 L458.999245,167 L419.999,167 L420.00033,89.6052414 Z" id="形状" fill="#FFFFFF" opacity="0.600000024"></path>
    </g>
</svg>