<?xml version="1.0" encoding="UTF-8"?>
<svg width="240px" height="240px" viewBox="0 0 240 240" version="1.1" xmlns="http://www.w3.org/2000/svg" xmlns:xlink="http://www.w3.org/1999/xlink">
    <title>com.android.notes_b_s5_1x1_1_sc</title>
    <g id="com.android.notes" stroke="none" stroke-width="1" fill="none" fill-rule="evenodd">
        <g id="编组-18" transform="translate(102.840000, 64.832081)" fill="#FFD062">
            <path d="M0.130567767,-6.82121026e-13 L34.1861402,45.7056 L34.186,44.882 L34.19,44.8862113 L34.189,110.562 C34.0008015,110.484649 33.8347294,110.372537 33.6958641,110.226917 L33.5970104,110.111482 L0.130567767,66.5273877 L0.13,67.644 L0,67.4762458 L0.127,0.001 L0.130567767,-6.82121026e-13 Z" id="形状结合"></path>
        </g>
    </g>
</svg>