<?xml version="1.0" encoding="UTF-8"?>
<svg width="240px" height="480px" viewBox="0 0 240 480" version="1.1" xmlns="http://www.w3.org/2000/svg" xmlns:xlink="http://www.w3.org/1999/xlink">
    <title>com.android.notes_b_s5_1x2_1_sc</title>
    <defs>
        <path d="M2.20268248e-13,0 L38.7969455,53.3232 L38.796,52.946 L39.0701792,53.32 L38.8012726,128.984066 C38.546418,128.879233 38.3172726,128.709099 38.1404733,128.482475 L24.822,110.72 L1.0658141e-13,77.6152856 L2.20268248e-13,0 Z" id="path-1"></path>
    </defs>
    <g id="com.android.notes" stroke="none" stroke-width="1" fill="none" fill-rule="evenodd">
        <g id="编组-8备份-24" transform="translate(119.797388, 239.492033) rotate(-270.000000) translate(-119.797388, -239.492033) translate(55.305355, 219.956943)">
            <g id="路径-11" transform="translate(64.492033, 19.535090) rotate(-90.000000) translate(-64.492033, -19.535090) translate(44.956943, -44.956943)">
                <mask id="mask-2" fill="white">
                    <use xlink:href="#path-1"></use>
                </mask>
                <use id="形状结合" fill="#FFD062" xlink:href="#path-1"></use>
            </g>
        </g>
    </g>
</svg>