<?xml version="1.0" encoding="UTF-8"?>
<svg width="240px" height="240px" viewBox="0 0 240 240" version="1.1" xmlns="http://www.w3.org/2000/svg" xmlns:xlink="http://www.w3.org/1999/xlink">
    <title>com.vivo.weather.sun_b_s6_1x1_mc</title>
    <g id="com.vivo.weather.sun" stroke="none" stroke-width="1" fill="none" fill-rule="evenodd">
        <g id="编组-44" transform="translate(27.000000, 49.000000)">
            <path d="M135.171315,8.81495849 C152.85812,8.81495849 167.196109,23.1120441 167.196109,40.748393 C167.196109,46.9591792 165.417977,52.7558451 162.341643,57.6598291 C156.055493,54.2880749 148.872519,52.3770492 141.24375,52.3770492 C140.634214,52.3770492 140.027524,52.3892491 139.426086,52.4140861 C135.488668,37.7207101 126.925394,24.9121513 115.387546,15.6352378 C120.83326,11.3635487 127.703809,8.81495849 135.171315,8.81495849 Z" id="形状结合备份" fill="#D8D8D8"></path>
            <g id="编组-2备份" fill="#3B9576" opacity="0.949999988">
                <g id="编组-38">
                    <path d="M70.9125,0 C103.72814,0 131.337615,22.2301018 139.426086,52.4140861 C140.027524,52.3892491 140.634214,52.3770492 141.24375,52.3770492 C165.961944,52.3770492 186,72.4398301 186,97.1885246 C186,121.937219 165.961944,142 141.24375,142 C140.658798,142 140.076466,141.988764 139.496959,141.966497 L139.497943,142 L72.2213474,142 L72.2214022,141.988461 C71.7946931,141.996142 71.3670613,142 70.9385385,142 C31.7746462,142 0,109.779413 0,70.7211827 C0,31.662952 31.7486077,0 70.9125,0 Z" id="形状结合"></path>
                    <path d="M139.426086,52.4140861 C140.027524,52.3892491 140.634214,52.3770492 141.24375,52.3770492 C148.872519,52.3770492 156.055493,54.2880749 162.341187,57.6580821 C156.682321,66.6813564 146.629566,72.6818276 135.171315,72.6818276 C117.48451,72.6818276 103.146522,58.3847419 103.146522,40.748393 C103.146522,30.5582481 107.933171,21.4828955 115.386742,15.6360158 C126.925572,24.9124172 135.488709,37.7208626 139.426086,52.4140861 Z" id="形状结合"></path>
                </g>
            </g>
        </g>
    </g>
</svg>