{
	"NitMapLcm": {
		"section": [
			[43.61083782,-79.18891692],
			[35.87386748,-54.49550182],
			[8.188048077,75.54166343],
			[6.091672505,97.67748177],
			[4.655932036,120.8510221],
			[3.829166653,141.8310287],
			[3.007046826,170.2076291],
			[2.942428001,173.8133414],
			[2.314793382,214.3811076],
			[2.098745999,233.9455375],
			[4.379403665,5.684318649],
			[4.166630062,48.35734124],
			[3.934409465,113.4340752]
		],
		"sectionkeypoint": [3.191613,4.696887,10.55909,16.14048,25.37601,34.51638,55.79972,64.63596,90.5562,100.0857,200.556,280.2367,491.4501]
	},
	"LcmMapNit": [
		[0,2.3e-05],
		[1,0.238763],
		[2,0.702885],
		[3,1.340741],
		[4,1.81631],
		[5,1.853532],
		[6,1.854073],
		[7,1.854494],
		[8,2.024328],
		[9,2.043263],
		[10,2.045109],
		[11,2.050975],
		[12,2.052068],
		[13,2.052351],
		[14,2.23557],
		[15,2.243735],
		[16,2.244655],
		[17,2.24469],
		[18,2.284225],
		[19,2.286155],
		[20,2.287742],
		[21,2.290645],
		[22,2.296149],
		[23,2.316506],
		[24,2.318536],
		[25,2.321867],
		[26,2.325984],
		[27,2.32796],
		[28,2.345728],
		[29,2.351473],
		[30,2.354477],
		[31,2.371654],
		[32,2.390461],
		[33,2.567692],
		[34,2.569112],
		[35,2.574014],
		[36,2.574508],
		[37,2.599898],
		[38,2.601254],
		[39,2.780692],
		[40,2.783476],
		[41,2.783583],
		[42,2.817739],
		[43,2.818594],
		[44,2.839347],
		[45,2.869813],
		[46,2.87071],
		[47,2.871917],
		[48,2.881224],
		[49,2.89194],
		[50,2.904529],
		[51,2.906178],
		[52,2.914832],
		[53,2.917568],
		[54,2.918793],
		[55,2.923992],
		[56,2.946708],
		[57,2.960336],
		[58,3.159982],
		[59,3.160301],
		[60,3.191613],
		[61,3.191712],
		[62,3.192943],
		[63,3.202151],
		[64,3.41001],
		[65,3.4124],
		[66,3.421071],
		[67,3.424004],
		[68,3.425241],
		[69,3.43158],
		[70,3.460824],
		[71,3.483299],
		[72,3.484992],
		[73,3.487451],
		[74,3.523994],
		[75,3.52582],
		[76,3.526021],
		[77,3.534255],
		[78,3.567275],
		[79,3.567346],
		[80,3.567681],
		[81,3.581082],
		[82,3.627302],
		[83,3.7668],
		[84,3.802944],
		[85,3.828849],
		[86,3.832514],
		[87,3.839984],
		[88,3.868499],
		[89,4.07221],
		[90,4.077691],
		[91,4.08537],
		[92,4.086021],
		[93,4.125665],
		[94,4.132658],
		[95,4.135294],
		[96,4.136195],
		[97,4.193051],
		[98,4.200093],
		[99,4.202483],
		[100,4.202513],
		[101,4.214826],
		[102,4.246674],
		[103,4.2495],
		[104,4.267175],
		[105,4.287169],
		[106,4.292741],
		[107,4.331427],
		[108,4.513426],
		[109,4.513932],
		[110,4.514972],
		[111,4.518106],
		[112,4.651291],
		[113,4.661131],
		[114,4.696887],
		[115,5.063782],
		[116,5.065461],
		[117,5.068693],
		[118,5.245051],
		[119,5.448811],
		[120,5.44951],
		[121,5.480323],
		[122,5.921578],
		[123,5.92531],
		[124,5.947563],
		[125,6.098591],
		[126,6.301801],
		[127,6.302871],
		[128,6.403277],
		[129,6.700182],
		[130,6.703462],
		[131,6.705018],
		[132,6.814346],
		[133,7.022829],
		[134,7.164515],
		[135,7.228878],
		[136,7.423774],
		[137,7.42683],
		[138,7.427465],
		[139,7.583011],
		[140,7.7874],
		[141,7.940814],
		[142,8.067513],
		[143,8.274315],
		[144,8.275097],
		[145,8.28009],
		[146,8.435157],
		[147,8.636213],
		[148,8.637782],
		[149,8.937026],
		[150,9.036224],
		[151,9.041386],
		[152,9.078795],
		[153,9.471137],
		[154,9.527766],
		[155,9.589196],
		[156,9.781979],
		[157,9.782062],
		[158,9.98807],
		[159,10.1551],
		[160,10.17929],
		[161,10.55541],
		[162,10.55909],
		[163,10.75944],
		[164,10.90222],
		[165,10.90337],
		[166,11.10292],
		[167,11.43011],
		[168,11.43091],
		[169,11.8295],
		[170,11.83539],
		[171,12.01513],
		[172,12.20485],
		[173,12.21742],
		[174,12.40506],
		[175,12.54374],
		[176,12.59408],
		[177,12.9426],
		[178,13.13395],
		[179,13.19968],
		[180,13.35044],
		[181,13.42876],
		[182,13.73892],
		[183,13.82816],
		[184,13.90419],
		[185,14.10601],
		[186,14.23674],
		[187,14.42596],
		[188,14.43425],
		[189,14.79669],
		[190,14.80145],
		[191,15.18364],
		[192,15.29677],
		[193,15.58698],
		[194,15.70996],
		[195,15.98542],
		[196,16.14048],
		[197,16.45679],
		[198,16.55796],
		[199,16.65098],
		[200,16.81537],
		[201,17.07924],
		[202,17.20272],
		[203,17.2087],
		[204,17.60056],
		[205,17.79655],
		[206,17.8559],
		[207,18.16446],
		[208,18.18431],
		[209,18.55231],
		[210,18.77375],
		[211,18.95984],
		[212,19.34361],
		[213,19.34499],
		[214,19.73727],
		[215,20.21136],
		[216,20.31554],
		[217,20.37101],
		[218,20.508],
		[219,20.86472],
		[220,20.9208],
		[221,21.30115],
		[222,21.31166],
		[223,21.69474],
		[224,21.70338],
		[225,22.08437],
		[226,22.28982],
		[227,22.69635],
		[228,22.7112],
		[229,22.8791],
		[230,23.26431],
		[231,23.27167],
		[232,23.62259],
		[233,23.63509],
		[234,24.19798],
		[235,24.38834],
		[236,24.78593],
		[237,24.81989],
		[238,24.99224],
		[239,25.37601],
		[240,25.61695],
		[241,25.78679],
		[242,26.04279],
		[243,26.16438],
		[244,26.3591],
		[245,26.7788],
		[246,26.91922],
		[247,27.27549],
		[248,27.61808],
		[249,27.78568],
		[250,28.19219],
		[251,28.20321],
		[252,28.40553],
		[253,28.82059],
		[254,29.00313],
		[255,29.45389],
		[256,29.59237],
		[257,29.77523],
		[258,30.20369],
		[259,30.34933],
		[260,30.89442],
		[261,30.98965],
		[262,31.41339],
		[263,31.79941],
		[264,31.86659],
		[265,32.16736],
		[266,32.39107],
		[267,32.56924],
		[268,32.97512],
		[269,33.34132],
		[270,33.38929],
		[271,34.00739],
		[272,34.09826],
		[273,34.11876],
		[274,34.51638],
		[275,34.75092],
		[276,34.92381],
		[277,35.51881],
		[278,35.53172],
		[279,35.73054],
		[280,36.05161],
		[281,36.29536],
		[282,36.41796],
		[283,36.81491],
		[284,37.2087],
		[285,37.25728],
		[286,38.02948],
		[287,38.35275],
		[288,38.56569],
		[289,39.10403],
		[290,39.41124],
		[291,39.5294],
		[292,39.91695],
		[293,40.33295],
		[294,40.53415],
		[295,41.03685],
		[296,41.0588],
		[297,41.40396],
		[298,41.80941],
		[299,42.2616],
		[300,42.37709],
		[301,43.05724],
		[302,43.24636],
		[303,43.51123],
		[304,44.02325],
		[305,44.11665],
		[306,44.56614],
		[307,44.59416],
		[308,44.99266],
		[309,45.60915],
		[310,45.99911],
		[311,46.14834],
		[312,46.3203],
		[313,46.77324],
		[314,47.20162],
		[315,47.39808],
		[316,47.92798],
		[317,48.30657],
		[318,48.51894],
		[319,48.6562],
		[320,48.81138],
		[321,49.23157],
		[322,49.60968],
		[323,50.11341],
		[324,50.42642],
		[325,50.62834],
		[326,50.71033],
		[327,51.37462],
		[328,51.68607],
		[329,51.76489],
		[330,52.08227],
		[331,52.27309],
		[332,52.64017],
		[333,53.30188],
		[334,53.43151],
		[335,53.58774],
		[336,54.1671],
		[337,54.25913],
		[338,55.79972],
		[339,56.15783],
		[340,56.29452],
		[341,56.70124],
		[342,56.72693],
		[343,57.2447],
		[344,57.49983],
		[345,57.74218],
		[346,58.11388],
		[347,58.53494],
		[348,58.59007],
		[349,59.08037],
		[350,59.39596],
		[351,59.82676],
		[352,60.16753],
		[353,60.39994],
		[354,60.80391],
		[355,61.2492],
		[356,61.61257],
		[357,61.76102],
		[358,62.12263],
		[359,62.46365],
		[360,62.84718],
		[361,63.4801],
		[362,63.82765],
		[363,64.00529],
		[364,64.63596],
		[365,64.70767],
		[366,65.3827],
		[367,65.77666],
		[368,65.88142],
		[369,66.23121],
		[370,66.74251],
		[371,67.3436],
		[372,67.67694],
		[373,68.15272],
		[374,68.22457],
		[375,68.60178],
		[376,68.98162],
		[377,69.24742],
		[378,69.87374],
		[379,69.99361],
		[380,70.46888],
		[381,70.70808],
		[382,71.14792],
		[383,71.75661],
		[384,72.11514],
		[385,72.28308],
		[386,72.88907],
		[387,73.20412],
		[388,73.55156],
		[389,73.83885],
		[390,74.32835],
		[391,76.55493],
		[392,76.55993],
		[393,77.16611],
		[394,77.66264],
		[395,78.10941],
		[396,78.52225],
		[397,79.03111],
		[398,79.25021],
		[399,79.84489],
		[400,80.26392],
		[401,80.60629],
		[402,80.84312],
		[403,81.40398],
		[404,81.75002],
		[405,82.08136],
		[406,82.70604],
		[407,83.25986],
		[408,83.58093],
		[409,83.93474],
		[410,84.11052],
		[411,85.25929],
		[412,85.58075],
		[413,85.97195],
		[414,86.31582],
		[415,86.73553],
		[416,87.29522],
		[417,87.71742],
		[418,88.20061],
		[419,88.40473],
		[420,88.93952],
		[421,89.52604],
		[422,89.88829],
		[423,90.25878],
		[424,90.5562],
		[425,91.27647],
		[426,91.5737],
		[427,91.78167],
		[428,92.55014],
		[429,92.94789],
		[430,93.42876],
		[431,94.38472],
		[432,94.80549],
		[433,95.34265],
		[434,95.74781],
		[435,96.0578],
		[436,96.58058],
		[437,96.95012],
		[438,97.40503],
		[439,97.74149],
		[440,98.25406],
		[441,98.7636],
		[442,99.05521],
		[443,99.53886],
		[444,100.0857],
		[445,100.7051],
		[446,101.0366],
		[447,101.2985],
		[448,101.6667],
		[449,102.2709],
		[450,102.8025],
		[451,103.0338],
		[452,103.2963],
		[453,103.4879],
		[454,103.8227],
		[455,103.9875],
		[456,104.2815],
		[457,104.4533],
		[458,104.4875],
		[459,104.718],
		[460,104.9004],
		[461,105.2476],
		[462,105.2562],
		[463,105.6818],
		[464,105.6835],
		[465,106.1582],
		[466,106.4241],
		[467,106.5714],
		[468,106.741],
		[469,107.0139],
		[470,107.2751],
		[471,107.6069],
		[472,107.7906],
		[473,108.0565],
		[474,108.2287],
		[475,108.5317],
		[476,108.5602],
		[477,108.7928],
		[478,109.0814],
		[479,109.2812],
		[480,109.6668],
		[481,109.9198],
		[482,110.227],
		[483,110.432],
		[484,110.6428],
		[485,110.9086],
		[486,111.1247],
		[487,111.3574],
		[488,111.5259],
		[489,111.8896],
		[490,112.082],
		[491,112.266],
		[492,112.6368],
		[493,112.8206],
		[494,113.0822],
		[495,113.3257],
		[496,113.3482],
		[497,113.5539],
		[498,113.8186],
		[499,114.0536],
		[500,114.351],
		[501,114.6737],
		[502,114.9052],
		[503,115.1404],
		[504,115.3818],
		[505,115.5916],
		[506,115.9317],
		[507,115.9517],
		[508,116.4134],
		[509,116.7176],
		[510,116.9962],
		[511,117.2588],
		[512,117.4799],
		[513,117.7874],
		[514,118.064],
		[515,118.1841],
		[516,118.2098],
		[517,118.4387],
		[518,118.6377],
		[519,118.7694],
		[520,118.8126],
		[521,118.9173],
		[522,119.4116],
		[523,119.5663],
		[524,119.6527],
		[525,120.1714],
		[526,120.4448],
		[527,120.4833],
		[528,120.9893],
		[529,121.1407],
		[530,121.4736],
		[531,121.7308],
		[532,121.918],
		[533,122.426],
		[534,122.6478],
		[535,122.9697],
		[536,123.1281],
		[537,123.1793],
		[538,123.2224],
		[539,123.7084],
		[540,123.7164],
		[541,123.9064],
		[542,124.1796],
		[543,124.4536],
		[544,124.7202],
		[545,124.9831],
		[546,125.1795],
		[547,125.4037],
		[548,125.5355],
		[549,125.8189],
		[550,126.0806],
		[551,126.107],
		[552,126.535],
		[553,126.8646],
		[554,127.1567],
		[555,127.4228],
		[556,127.6392],
		[557,127.7381],
		[558,127.7752],
		[559,127.9526],
		[560,127.9737],
		[561,128.0532],
		[562,128.1167],
		[563,128.3769],
		[564,128.53],
		[565,128.7885],
		[566,128.8291],
		[567,129.0566],
		[568,129.1589],
		[569,129.4127],
		[570,129.674],
		[571,129.9794],
		[572,129.9868],
		[573,130.499],
		[574,130.7592],
		[575,130.884],
		[576,130.9236],
		[577,131.1307],
		[578,131.4383],
		[579,131.499],
		[580,131.6873],
		[581,132.0541],
		[582,132.3062],
		[583,132.4831],
		[584,132.707],
		[585,133.0346],
		[586,133.0452],
		[587,133.0583],
		[588,133.6067],
		[589,133.952],
		[590,134.2082],
		[591,134.4196],
		[592,134.7435],
		[593,135.0009],
		[594,135.2377],
		[595,135.4897],
		[596,135.5578],
		[597,135.848],
		[598,136.1986],
		[599,136.3908],
		[600,136.4628],
		[601,136.6216],
		[602,136.6368],
		[603,136.6679],
		[604,136.6835],
		[605,136.7039],
		[606,136.8405],
		[607,136.8821],
		[608,137.4123],
		[609,137.786],
		[610,137.9414],
		[611,138.0082],
		[612,138.3585],
		[613,138.539],
		[614,138.7262],
		[615,139.2204],
		[616,139.3738],
		[617,139.8387],
		[618,140.0077],
		[619,140.129],
		[620,140.3567],
		[621,140.3628],
		[622,140.6568],
		[623,141.0914],
		[624,141.3872],
		[625,141.4318],
		[626,141.7415],
		[627,141.744],
		[628,142.0251],
		[629,142.1018],
		[630,142.5295],
		[631,142.7742],
		[632,143.0486],
		[633,143.2478],
		[634,143.3517],
		[635,143.5964],
		[636,143.8994],
		[637,144.0356],
		[638,144.475],
		[639,144.6354],
		[640,144.9353],
		[641,145.1342],
		[642,145.1774],
		[643,145.5121],
		[644,145.757],
		[645,145.9793],
		[646,146.2586],
		[647,146.2629],
		[648,146.2978],
		[649,146.3821],
		[650,146.7372],
		[651,146.818],
		[652,147.0221],
		[653,147.6286],
		[654,147.8572],
		[655,147.8996],
		[656,148.1756],
		[657,148.4854],
		[658,148.8173],
		[659,149.1666],
		[660,149.1912],
		[661,149.4003],
		[662,149.6749],
		[663,149.9475],
		[664,150.2031],
		[665,150.3971],
		[666,150.4976],
		[667,150.8316],
		[668,151.1261],
		[669,151.4503],
		[670,151.5623],
		[671,151.6803],
		[672,151.6879],
		[673,151.9918],
		[674,152.2166],
		[675,152.4594],
		[676,152.5557],
		[677,153.0822],
		[678,153.0904],
		[679,153.1128],
		[680,153.5217],
		[681,153.9834],
		[682,153.9995],
		[683,154.4128],
		[684,154.633],
		[685,154.8861],
		[686,155.1304],
		[687,155.4687],
		[688,155.833],
		[689,156.0271],
		[690,156.1041],
		[691,156.4012],
		[692,156.6671],
		[693,156.8612],
		[694,156.9271],
		[695,157.0506],
		[696,157.2123],
		[697,157.4675],
		[698,157.5173],
		[699,158.0467],
		[700,158.4614],
		[701,158.4968],
		[702,158.5283],
		[703,159.0932],
		[704,159.3892],
		[705,159.4825],
		[706,159.6321],
		[707,159.9407],
		[708,160.222],
		[709,160.4859],
		[710,160.5426],
		[711,161.0283],
		[712,161.0758],
		[713,161.1812],
		[714,161.6454],
		[715,161.9215],
		[716,162.2026],
		[717,162.2552],
		[718,162.2861],
		[719,162.3187],
		[720,162.8198],
		[721,163.0945],
		[722,163.2561],
		[723,163.292],
		[724,163.8696],
		[725,164.1949],
		[726,164.2644],
		[727,164.4118],
		[728,164.6568],
		[729,165.0143],
		[730,165.265],
		[731,165.3207],
		[732,165.6328],
		[733,165.8379],
		[734,165.937],
		[735,166.4868],
		[736,166.5276],
		[737,166.5661],
		[738,166.8504],
		[739,167.2054],
		[740,167.2135],
		[741,167.4283],
		[742,167.8167],
		[743,168.0213],
		[744,168.0757],
		[745,168.1475],
		[746,168.3435],
		[747,168.85],
		[748,169.0282],
		[749,169.1722],
		[750,169.3953],
		[751,169.424],
		[752,169.9819],
		[753,170.2675],
		[754,170.3226],
		[755,170.6382],
		[756,170.8032],
		[757,170.898],
		[758,171.3812],
		[759,171.4248],
		[760,171.6887],
		[761,171.905],
		[762,172.2926],
		[763,172.5709],
		[764,172.6034],
		[765,172.6451],
		[766,173.1768],
		[767,173.3355],
		[768,173.5994],
		[769,173.6147],
		[770,173.9033],
		[771,174.201],
		[772,174.5168],
		[773,174.535],
		[774,174.8433],
		[775,175.1766],
		[776,175.5571],
		[777,175.6277],
		[778,175.7508],
		[779,175.7623],
		[780,176.1651],
		[781,176.3462],
		[782,176.446],
		[783,176.9695],
		[784,177.0875],
		[785,177.5667],
		[786,177.6799],
		[787,177.9242],
		[788,178.3339],
		[789,178.5718],
		[790,178.6658],
		[791,178.9995],
		[792,179.2778],
		[793,179.5489],
		[794,179.5538],
		[795,179.6154],
		[796,179.7298],
		[797,179.8517],
		[798,180.1756],
		[799,180.4302],
		[800,180.5183],
		[801,180.6423],
		[802,181.0626],
		[803,181.462],
		[804,181.6566],
		[805,181.8127],
		[806,182.0121],
		[807,182.3582],
		[808,182.4459],
		[809,182.595],
		[810,182.9819],
		[811,183.0394],
		[812,183.738],
		[813,184.0956],
		[814,184.1532],
		[815,184.5413],
		[816,184.7878],
		[817,184.9871],
		[818,185.2544],
		[819,185.5751],
		[820,185.6952],
		[821,185.7439],
		[822,185.7678],
		[823,186.0424],
		[824,186.3508],
		[825,186.6163],
		[826,186.6245],
		[827,186.9971],
		[828,187.031],
		[829,187.3484],
		[830,187.6633],
		[831,188.1033],
		[832,188.3337],
		[833,188.4583],
		[834,188.5797],
		[835,188.9385],
		[836,189.2177],
		[837,189.3879],
		[838,189.5463],
		[839,189.7285],
		[840,190.3727],
		[841,190.4466],
		[842,190.6313],
		[843,191.1137],
		[844,191.3624],
		[845,191.3895],
		[846,191.6581],
		[847,191.6661],
		[848,191.7215],
		[849,192.0943],
		[850,192.4039],
		[851,192.6964],
		[852,193.1195],
		[853,193.1247],
		[854,193.5119],
		[855,193.7749],
		[856,193.8288],
		[857,193.8974],
		[858,194.6028],
		[859,194.8361],
		[860,194.8626],
		[861,195.2214],
		[862,195.52],
		[863,195.5314],
		[864,195.752],
		[865,195.7845],
		[866,196.3596],
		[867,196.4561],
		[868,196.6875],
		[869,196.7397],
		[870,196.9805],
		[871,197.2092],
		[872,197.7751],
		[873,198.0455],
		[874,198.0524],
		[875,198.0859],
		[876,198.3887],
		[877,198.4447],
		[878,198.7072],
		[879,199.1448],
		[880,199.4639],
		[881,199.4665],
		[882,199.5524],
		[883,199.9611],
		[884,200.556],
		[885,200.6251],
		[886,200.7069],
		[887,201.0302],
		[888,201.0341],
		[889,201.2536],
		[890,201.8699],
		[891,202.3107],
		[892,202.3594],
		[893,202.5187],
		[894,202.5889],
		[895,203.0145],
		[896,203.2611],
		[897,203.733],
		[898,203.7419],
		[899,203.8605],
		[900,203.8953],
		[901,204.2535],
		[902,204.3877],
		[903,204.6848],
		[904,204.9371],
		[905,205.0863],
		[906,205.4335],
		[907,205.8528],
		[908,206.1718],
		[909,206.2837],
		[910,206.5116],
		[911,206.6931],
		[912,206.8936],
		[913,207.1952],
		[914,207.5545],
		[915,207.6327],
		[916,208.0295],
		[917,208.2854],
		[918,208.3512],
		[919,208.6336],
		[920,209.115],
		[921,209.4197],
		[922,209.4207],
		[923,209.7583],
		[924,209.7881],
		[925,210.4217],
		[926,210.5889],
		[927,210.7727],
		[928,210.7785],
		[929,211.1265],
		[930,211.1931],
		[931,211.547],
		[932,211.7747],
		[933,211.8944],
		[934,212.0479],
		[935,212.1352],
		[936,212.4975],
		[937,212.5252],
		[938,212.822],
		[939,213.1212],
		[940,213.5005],
		[941,213.735],
		[942,214.0311],
		[943,214.1257],
		[944,214.501],
		[945,214.5363],
		[946,214.9527],
		[947,215.1585],
		[948,215.2521],
		[949,215.5555],
		[950,215.9073],
		[951,215.908],
		[952,216.0566],
		[953,216.3742],
		[954,217.1066],
		[955,217.1485],
		[956,217.5425],
		[957,217.6205],
		[958,217.9741],
		[959,217.9873],
		[960,218.2553],
		[961,218.3819],
		[962,218.6329],
		[963,218.8795],
		[964,219.0145],
		[965,219.048],
		[966,219.4618],
		[967,219.6612],
		[968,219.9623],
		[969,220.2045],
		[970,220.5944],
		[971,220.6203],
		[972,220.6868],
		[973,221.3098],
		[974,221.3667],
		[975,221.3828],
		[976,222.0525],
		[977,222.176],
		[978,222.4677],
		[979,222.6255],
		[980,222.7708],
		[981,222.908],
		[982,223.4797],
		[983,223.554],
		[984,224.0996],
		[985,224.2934],
		[986,224.3655],
		[987,224.3839],
		[988,224.5019],
		[989,224.6284],
		[990,224.937],
		[991,225.0065],
		[992,225.4915],
		[993,225.7431],
		[994,226.1616],
		[995,226.1984],
		[996,226.5138],
		[997,226.9664],
		[998,227.0279],
		[999,227.0538],
		[1000,227.7139],
		[1001,227.819],
		[1002,228.0331],
		[1003,228.5869],
		[1004,228.9662],
		[1005,229.0022],
		[1006,229.0563],
		[1007,229.7124],
		[1008,229.7825],
		[1009,230.1071],
		[1010,230.3349],
		[1011,230.6544],
		[1012,230.6863],
		[1013,230.7488],
		[1014,230.9206],
		[1015,231.5644],
		[1016,231.6457],
		[1017,231.721],
		[1018,232.0383],
		[1019,232.0856],
		[1020,232.2337],
		[1021,232.3223],
		[1022,232.6717],
		[1023,232.7462],
		[1024,233.3762],
		[1025,233.6921],
		[1026,233.7673],
		[1027,234.1651],
		[1028,234.3671],
		[1029,234.4528],
		[1030,234.6708],
		[1031,234.8899],
		[1032,235.0411],
		[1033,235.6018],
		[1034,236.0787],
		[1035,236.0806],
		[1036,236.3609],
		[1037,236.3902],
		[1038,236.6585],
		[1039,237.1113],
		[1040,237.4761],
		[1041,237.5228],
		[1042,237.9499],
		[1043,238.3717],
		[1044,238.42],
		[1045,238.6933],
		[1046,238.6996],
		[1047,238.7298],
		[1048,238.7966],
		[1049,239.1583],
		[1050,239.3935],
		[1051,239.9181],
		[1052,240.0292],
		[1053,240.3468],
		[1054,240.3721],
		[1055,240.7211],
		[1056,240.7475],
		[1057,241.2509],
		[1058,241.3819],
		[1059,242.0139],
		[1060,242.0678],
		[1061,242.3564],
		[1062,242.3725],
		[1063,243.0528],
		[1064,243.0592],
		[1065,243.5266],
		[1066,243.8576],
		[1067,243.8746],
		[1068,244.1759],
		[1069,244.2279],
		[1070,244.5316],
		[1071,244.7649],
		[1072,244.8112],
		[1073,244.9607],
		[1074,245.2159],
		[1075,245.5528],
		[1076,245.5558],
		[1077,245.9286],
		[1078,245.9857],
		[1079,246.2706],
		[1080,246.7541],
		[1081,246.84],
		[1082,246.9834],
		[1083,247.0995],
		[1084,247.5568],
		[1085,247.7816],
		[1086,247.9834],
		[1087,248.3843],
		[1088,248.4838],
		[1089,248.9223],
		[1090,249.156],
		[1091,249.2426],
		[1092,249.3337],
		[1093,250.0017],
		[1094,250.1146],
		[1095,250.4595],
		[1096,250.6605],
		[1097,250.8222],
		[1098,250.9778],
		[1099,251.2483],
		[1100,251.4641],
		[1101,251.6414],
		[1102,251.7398],
		[1103,252.3088],
		[1104,252.6943],
		[1105,252.7292],
		[1106,252.8457],
		[1107,252.9618],
		[1108,253.0349],
		[1109,253.0552],
		[1110,253.4782],
		[1111,253.7397],
		[1112,253.9296],
		[1113,254.0314],
		[1114,254.3395],
		[1115,254.7456],
		[1116,254.8064],
		[1117,254.8065],
		[1118,255.5586],
		[1119,255.6848],
		[1120,256.0531],
		[1121,256.1131],
		[1122,256.2407],
		[1123,256.3958],
		[1124,256.5926],
		[1125,257.1657],
		[1126,257.6178],
		[1127,257.6827],
		[1128,258.0446],
		[1129,258.3227],
		[1130,258.4563],
		[1131,258.6319],
		[1132,258.6714],
		[1133,259.1963],
		[1134,259.5208],
		[1135,259.7326],
		[1136,259.9323],
		[1137,260.0084],
		[1138,260.1356],
		[1139,260.2162],
		[1140,260.653],
		[1141,260.8061],
		[1142,260.9093],
		[1143,261.4619],
		[1144,261.8343],
		[1145,262.2553],
		[1146,262.2935],
		[1147,262.6085],
		[1148,262.6895],
		[1149,262.9293],
		[1150,263.0822],
		[1151,263.4059],
		[1152,263.6537],
		[1153,264.0689],
		[1154,264.2395],
		[1155,264.4979],
		[1156,264.7046],
		[1157,265.1221],
		[1158,265.3626],
		[1159,265.4045],
		[1160,265.7432],
		[1161,265.8682],
		[1162,266.1464],
		[1163,266.3697],
		[1164,266.6581],
		[1165,267.2008],
		[1166,267.4927],
		[1167,267.4954],
		[1168,267.5894],
		[1169,267.6299],
		[1170,267.7053],
		[1171,267.7607],
		[1172,267.8543],
		[1173,268.0695],
		[1174,268.4641],
		[1175,268.8158],
		[1176,268.8839],
		[1177,269.6329],
		[1178,269.9352],
		[1179,270.0096],
		[1180,270.2439],
		[1181,270.3315],
		[1182,270.8241],
		[1183,271.0226],
		[1184,271.1439],
		[1185,271.463],
		[1186,271.6416],
		[1187,271.7028],
		[1188,272.2307],
		[1189,272.2796],
		[1190,272.5005],
		[1191,272.5321],
		[1192,272.8769],
		[1193,273.0464],
		[1194,273.6458],
		[1195,273.739],
		[1196,273.7893],
		[1197,274.1196],
		[1198,274.4851],
		[1199,274.6554],
		[1200,274.9043],
		[1201,275.282],
		[1202,275.4507],
		[1203,275.592],
		[1204,275.9009],
		[1205,277.1317],
		[1206,277.5189],
		[1207,277.5242],
		[1208,277.9696],
		[1209,278.4077],
		[1210,278.4823],
		[1211,278.5848],
		[1212,278.9659],
		[1213,279.2371],
		[1214,279.7178],
		[1215,279.7306],
		[1216,280.2367],
		[1217,280.2588],
		[1218,280.6739],
		[1219,281.0689],
		[1220,281.1071],
		[1221,281.1576],
		[1222,281.4978],
		[1223,282.0588],
		[1224,282.4337],
		[1225,282.4921],
		[1226,282.7388],
		[1227,282.759],
		[1228,283.2298],
		[1229,283.7251],
		[1230,283.8352],
		[1231,284.1636],
		[1232,284.2079],
		[1233,284.6113],
		[1234,284.6458],
		[1235,284.7649],
		[1236,285.1265],
		[1237,285.2444],
		[1238,285.3695],
		[1239,285.8705],
		[1240,285.9092],
		[1241,286.3611],
		[1242,286.4046],
		[1243,286.5761],
		[1244,286.97],
		[1245,286.9862],
		[1246,287.4023],
		[1247,287.437],
		[1248,287.7778],
		[1249,288.1015],
		[1250,288.2464],
		[1251,288.5315],
		[1252,288.6719],
		[1253,288.8732],
		[1254,288.9072],
		[1255,289.4252],
		[1256,289.5031],
		[1257,289.7583],
		[1258,289.8445],
		[1259,290.1642],
		[1260,290.6413],
		[1261,291.0649],
		[1262,291.1208],
		[1263,291.1364],
		[1264,291.3328],
		[1265,291.719],
		[1266,292.0837],
		[1267,292.423],
		[1268,292.5511],
		[1269,292.6536],
		[1270,292.9943],
		[1271,293.0081],
		[1272,293.5096],
		[1273,293.5878],
		[1274,293.7935],
		[1275,294.0808],
		[1276,294.2874],
		[1277,294.8517],
		[1278,295.221],
		[1279,295.2325],
		[1280,295.2992],
		[1281,295.5395],
		[1282,296.0992],
		[1283,296.1233],
		[1284,296.4959],
		[1285,299.3886],
		[1286,299.5864],
		[1287,299.9779],
		[1288,299.9982],
		[1289,300.0822],
		[1290,300.2565],
		[1291,300.8714],
		[1292,301.1231],
		[1293,301.1657],
		[1294,301.5812],
		[1295,301.7455],
		[1296,302.0233],
		[1297,302.0438],
		[1298,302.4445],
		[1299,302.5934],
		[1300,302.9519],
		[1301,303.3704],
		[1302,303.3961],
		[1303,303.4165],
		[1304,303.8492],
		[1305,303.8824],
		[1306,304.1672],
		[1307,304.2346],
		[1308,304.3148],
		[1309,304.6889],
		[1310,304.8021],
		[1311,305.0539],
		[1312,305.2728],
		[1313,305.7305],
		[1314,306.0935],
		[1315,306.2362],
		[1316,306.5793],
		[1317,306.585],
		[1318,306.673],
		[1319,307.0312],
		[1320,307.6923],
		[1321,308.0341],
		[1322,308.0563],
		[1323,308.0848],
		[1324,308.5042],
		[1325,309.1846],
		[1326,309.2147],
		[1327,309.6111],
		[1328,310.0545],
		[1329,310.1976],
		[1330,310.4104],
		[1331,310.4355],
		[1332,310.8898],
		[1333,310.9294],
		[1334,311.3419],
		[1335,311.3439],
		[1336,311.3448],
		[1337,311.9308],
		[1338,311.9779],
		[1339,312.3447],
		[1340,312.8294],
		[1341,312.8482],
		[1342,312.8629],
		[1343,313.1429],
		[1344,313.374],
		[1345,313.5677],
		[1346,313.5725],
		[1347,314.1802],
		[1348,314.4293],
		[1349,314.5811],
		[1350,314.9014],
		[1351,315.3903],
		[1352,315.5645],
		[1353,315.9616],
		[1354,315.9942],
		[1355,316.1978],
		[1356,316.5769],
		[1357,316.8607],
		[1358,317.1799],
		[1359,317.2118],
		[1360,317.5175],
		[1361,317.7544],
		[1362,318.0424],
		[1363,318.1047],
		[1364,318.5681],
		[1365,320.2047],
		[1366,320.2476],
		[1367,320.3069],
		[1368,320.3255],
		[1369,320.8274],
		[1370,320.8603],
		[1371,320.8856],
		[1372,320.9105],
		[1373,321.4417],
		[1374,321.7076],
		[1375,321.7601],
		[1376,321.8425],
		[1377,322.3304],
		[1378,322.6916],
		[1379,322.8271],
		[1380,323.1852],
		[1381,323.7029],
		[1382,323.983],
		[1383,324.0095],
		[1384,324.2371],
		[1385,324.3888],
		[1386,324.7865],
		[1387,324.8322],
		[1388,325.3466],
		[1389,325.8516],
		[1390,326.2932],
		[1391,326.3236],
		[1392,326.6419],
		[1393,326.7945],
		[1394,326.9623],
		[1395,327.3822],
		[1396,327.4754],
		[1397,327.4844],
		[1398,328.0402],
		[1399,328.1721],
		[1400,328.5206],
		[1401,328.584],
		[1402,328.7023],
		[1403,328.7135],
		[1404,329.2749],
		[1405,329.3613],
		[1406,329.3678],
		[1407,330.0011],
		[1408,330.3277],
		[1409,330.3338],
		[1410,330.454],
		[1411,330.6194],
		[1412,330.7567],
		[1413,331.0938],
		[1414,331.3676],
		[1415,331.4153],
		[1416,331.4702],
		[1417,332.2085],
		[1418,332.2413],
		[1419,332.644],
		[1420,332.7263],
		[1421,332.7598],
		[1422,333.1137],
		[1423,333.6214],
		[1424,333.8275],
		[1425,334.1575],
		[1426,334.3965],
		[1427,334.8102],
		[1428,334.8391],
		[1429,335.1244],
		[1430,335.6247],
		[1431,335.7498],
		[1432,335.798],
		[1433,336.1545],
		[1434,336.7789],
		[1435,336.8253],
		[1436,337.094],
		[1437,337.4718],
		[1438,337.7382],
		[1439,337.7778],
		[1440,337.7871],
		[1441,337.8514],
		[1442,337.9051],
		[1443,337.9864],
		[1444,338.2099],
		[1445,338.7739],
		[1446,338.8721],
		[1447,339.4968],
		[1448,339.5584],
		[1449,339.7304],
		[1450,339.7315],
		[1451,339.765],
		[1452,340.6254],
		[1453,340.6777],
		[1454,340.811],
		[1455,341.0655],
		[1456,341.4043],
		[1457,341.4823],
		[1458,341.851],
		[1459,342.2415],
		[1460,342.37],
		[1461,342.6862],
		[1462,343.0314],
		[1463,343.3065],
		[1464,343.3591],
		[1465,343.8199],
		[1466,343.9718],
		[1467,344.4075],
		[1468,344.4079],
		[1469,344.4811],
		[1470,345.2702],
		[1471,345.2992],
		[1472,345.3156],
		[1473,345.9206],
		[1474,345.9934],
		[1475,346.3906],
		[1476,346.5212],
		[1477,346.5422],
		[1478,346.5942],
		[1479,346.6599],
		[1480,347.1389],
		[1481,347.4037],
		[1482,347.6074],
		[1483,347.7628],
		[1484,347.9277],
		[1485,348.1696],
		[1486,348.3541],
		[1487,348.4368],
		[1488,348.4449],
		[1489,348.8083],
		[1490,349.1986],
		[1491,349.6213],
		[1492,349.7632],
		[1493,350.0983],
		[1494,350.2097],
		[1495,350.6381],
		[1496,351.0758],
		[1497,351.1297],
		[1498,351.4005],
		[1499,351.4751],
		[1500,351.5373],
		[1501,351.7135],
		[1502,352.0581],
		[1503,352.0798],
		[1504,352.7781],
		[1505,352.8671],
		[1506,353.2704],
		[1507,353.2785],
		[1508,353.4457],
		[1509,353.7585],
		[1510,354.0938],
		[1511,354.2681],
		[1512,354.6591],
		[1513,354.67],
		[1514,354.6817],
		[1515,355.2392],
		[1516,355.4935],
		[1517,355.7515],
		[1518,356.0551],
		[1519,356.2558],
		[1520,356.6941],
		[1521,356.8285],
		[1522,357.2645],
		[1523,357.3104],
		[1524,357.576],
		[1525,357.6984],
		[1526,359.4721],
		[1527,359.8481],
		[1528,360.124],
		[1529,360.1672],
		[1530,360.6341],
		[1531,360.7802],
		[1532,361.0921],
		[1533,361.1725],
		[1534,361.2721],
		[1535,361.6454],
		[1536,362.2105],
		[1537,362.2667],
		[1538,362.5819],
		[1539,362.6787],
		[1540,362.7188],
		[1541,363.6418],
		[1542,363.7027],
		[1543,363.7813],
		[1544,364.215],
		[1545,364.5381],
		[1546,364.786],
		[1547,364.9227],
		[1548,365.0575],
		[1549,365.1168],
		[1550,365.449],
		[1551,365.45],
		[1552,365.5668],
		[1553,366.0089],
		[1554,366.1554],
		[1555,366.4869],
		[1556,366.5371],
		[1557,366.8073],
		[1558,367.381],
		[1559,367.6028],
		[1560,367.8771],
		[1561,367.9721],
		[1562,368.4844],
		[1563,368.5235],
		[1564,368.7279],
		[1565,368.9746],
		[1566,369.2824],
		[1567,369.558],
		[1568,369.7094],
		[1569,369.869],
		[1570,370.0008],
		[1571,370.1759],
		[1572,370.7786],
		[1573,370.8335],
		[1574,370.957],
		[1575,371.1398],
		[1576,371.7887],
		[1577,371.9065],
		[1578,372.0183],
		[1579,372.4602],
		[1580,373.0047],
		[1581,373.3266],
		[1582,373.6083],
		[1583,373.7783],
		[1584,373.8021],
		[1585,373.8135],
		[1586,374.2254],
		[1587,374.5284],
		[1588,374.6356],
		[1589,374.7291],
		[1590,374.7535],
		[1591,375.1383],
		[1592,375.3499],
		[1593,375.4961],
		[1594,375.6492],
		[1595,376.0112],
		[1596,376.2181],
		[1597,376.641],
		[1598,376.6774],
		[1599,377.0843],
		[1600,377.1753],
		[1601,377.6176],
		[1602,377.8361],
		[1603,378.1563],
		[1604,378.3942],
		[1605,378.5281],
		[1606,378.9091],
		[1607,379.0386],
		[1608,379.3766],
		[1609,379.4717],
		[1610,379.8723],
		[1611,379.9267],
		[1612,380.0651],
		[1613,380.352],
		[1614,380.7248],
		[1615,380.8036],
		[1616,381.2949],
		[1617,381.3286],
		[1618,381.8405],
		[1619,381.8724],
		[1620,382.0559],
		[1621,382.467],
		[1622,382.5591],
		[1623,382.6636],
		[1624,382.7486],
		[1625,382.9608],
		[1626,383.0773],
		[1627,383.2281],
		[1628,383.3387],
		[1629,383.6484],
		[1630,384.0625],
		[1631,384.2238],
		[1632,384.3388],
		[1633,384.8174],
		[1634,385.2332],
		[1635,385.2708],
		[1636,385.4318],
		[1637,385.4614],
		[1638,385.9508],
		[1639,386.0296],
		[1640,386.3768],
		[1641,386.3842],
		[1642,386.5193],
		[1643,387.0677],
		[1644,387.2884],
		[1645,387.5491],
		[1646,388.0062],
		[1647,388.4588],
		[1648,388.6931],
		[1649,389.1112],
		[1650,389.4207],
		[1651,389.7909],
		[1652,389.8431],
		[1653,390.3236],
		[1654,390.344],
		[1655,390.4035],
		[1656,390.9144],
		[1657,391.2998],
		[1658,391.3346],
		[1659,391.5863],
		[1660,391.6831],
		[1661,392.2219],
		[1662,392.2617],
		[1663,392.6128],
		[1664,392.6245],
		[1665,392.6405],
		[1666,392.6669],
		[1667,392.8835],
		[1668,393.1165],
		[1669,393.4429],
		[1670,393.5471],
		[1671,393.9502],
		[1672,393.9792],
		[1673,394.5432],
		[1674,394.7773],
		[1675,395.0455],
		[1676,395.0872],
		[1677,395.262],
		[1678,395.4449],
		[1679,395.9695],
		[1680,396.1027],
		[1681,396.6043],
		[1682,396.6204],
		[1683,396.8042],
		[1684,396.9323],
		[1685,396.9894],
		[1686,397.2718],
		[1687,399.1744],
		[1688,399.3586],
		[1689,399.6909],
		[1690,399.8992],
		[1691,400.0432],
		[1692,400.4908],
		[1693,400.9331],
		[1694,400.9514],
		[1695,401.4893],
		[1696,401.6094],
		[1697,401.8173],
		[1698,401.9265],
		[1699,402.3087],
		[1700,402.6191],
		[1701,402.8073],
		[1702,403.0934],
		[1703,403.2084],
		[1704,403.2101],
		[1705,403.3293],
		[1706,403.4667],
		[1707,404.0926],
		[1708,404.1184],
		[1709,404.6483],
		[1710,404.6552],
		[1711,404.7817],
		[1712,405.1004],
		[1713,405.6623],
		[1714,405.9005],
		[1715,406.3351],
		[1716,406.4233],
		[1717,406.7102],
		[1718,406.8687],
		[1719,407.1238],
		[1720,407.2932],
		[1721,407.7408],
		[1722,407.8349],
		[1723,408.4867],
		[1724,408.5251],
		[1725,408.5798],
		[1726,409.0167],
		[1727,409.6003],
		[1728,409.6519],
		[1729,409.8206],
		[1730,410.0054],
		[1731,410.5953],
		[1732,411.0196],
		[1733,411.0789],
		[1734,411.4909],
		[1735,411.7891],
		[1736,411.8922],
		[1737,412.6743],
		[1738,412.7309],
		[1739,413.1129],
		[1740,413.2332],
		[1741,413.4217],
		[1742,413.7159],
		[1743,413.7255],
		[1744,413.7582],
		[1745,413.8265],
		[1746,413.8373],
		[1747,413.8384],
		[1748,414.3645],
		[1749,414.9195],
		[1750,415.0999],
		[1751,415.2552],
		[1752,415.2861],
		[1753,415.4294],
		[1754,415.4805],
		[1755,415.7049],
		[1756,416.4299],
		[1757,416.8483],
		[1758,416.9188],
		[1759,417.0123],
		[1760,417.4641],
		[1761,417.5462],
		[1762,418.0705],
		[1763,418.6194],
		[1764,418.6566],
		[1765,418.7883],
		[1766,418.9114],
		[1767,419.1318],
		[1768,419.6185],
		[1769,419.6431],
		[1770,419.7101],
		[1771,420.1356],
		[1772,420.5993],
		[1773,420.6227],
		[1774,420.7027],
		[1775,421.3652],
		[1776,421.4066],
		[1777,421.9568],
		[1778,421.9598],
		[1779,422.3748],
		[1780,422.7292],
		[1781,423.1538],
		[1782,423.3352],
		[1783,423.3589],
		[1784,423.3668],
		[1785,423.4901],
		[1786,423.5962],
		[1787,423.9583],
		[1788,424.3098],
		[1789,424.3926],
		[1790,424.9001],
		[1791,425.0064],
		[1792,425.094],
		[1793,425.5844],
		[1794,425.7261],
		[1795,425.9685],
		[1796,426.3239],
		[1797,426.3638],
		[1798,426.9],
		[1799,426.975],
		[1800,427.5416],
		[1801,427.57],
		[1802,427.9691],
		[1803,428.1483],
		[1804,428.5182],
		[1805,428.6953],
		[1806,429.0184],
		[1807,429.0442],
		[1808,429.1381],
		[1809,429.1731],
		[1810,430.2219],
		[1811,430.4434],
		[1812,430.7958],
		[1813,430.8385],
		[1814,431.1172],
		[1815,431.1641],
		[1816,431.1844],
		[1817,431.2781],
		[1818,431.8451],
		[1819,432.4274],
		[1820,432.5309],
		[1821,432.9895],
		[1822,432.9907],
		[1823,433.1946],
		[1824,433.2259],
		[1825,433.4511],
		[1826,433.693],
		[1827,433.9958],
		[1828,434.2924],
		[1829,434.4009],
		[1830,434.7549],
		[1831,434.8973],
		[1832,435.2042],
		[1833,435.2593],
		[1834,435.4286],
		[1835,435.6269],
		[1836,436.1651],
		[1837,436.3372],
		[1838,436.3961],
		[1839,436.6683],
		[1840,436.9965],
		[1841,437.146],
		[1842,437.5044],
		[1843,437.7127],
		[1844,438.1901],
		[1845,438.3756],
		[1846,439.1367],
		[1847,439.3023],
		[1848,439.5461],
		[1849,439.5979],
		[1850,439.8349],
		[1851,440.0008],
		[1852,440.1674],
		[1853,440.3498],
		[1854,441.0258],
		[1855,441.1519],
		[1856,441.3004],
		[1857,441.4139],
		[1858,441.7199],
		[1859,442.1651],
		[1860,442.3871],
		[1861,442.5421],
		[1862,442.8115],
		[1863,443.072],
		[1864,443.079],
		[1865,443.3784],
		[1866,443.5509],
		[1867,443.7487],
		[1868,444.1958],
		[1869,444.8304],
		[1870,444.9286],
		[1871,445.1809],
		[1872,445.2072],
		[1873,445.9696],
		[1874,446.1142],
		[1875,446.4343],
		[1876,446.4639],
		[1877,446.6763],
		[1878,446.7632],
		[1879,447.0595],
		[1880,447.3268],
		[1881,447.4199],
		[1882,448.0772],
		[1883,448.1788],
		[1884,448.5238],
		[1885,448.7538],
		[1886,449.2184],
		[1887,449.2236],
		[1888,449.29],
		[1889,449.5754],
		[1890,449.6792],
		[1891,450.1862],
		[1892,450.6356],
		[1893,450.7679],
		[1894,450.944],
		[1895,451.4424],
		[1896,451.9557],
		[1897,452.3242],
		[1898,452.557],
		[1899,452.8392],
		[1900,453.0499],
		[1901,453.1389],
		[1902,453.2673],
		[1903,453.3153],
		[1904,454.0519],
		[1905,454.0618],
		[1906,454.0635],
		[1907,454.5178],
		[1908,454.7119],
		[1909,455.1188],
		[1910,455.3335],
		[1911,455.3798],
		[1912,455.5315],
		[1913,455.545],
		[1914,455.7628],
		[1915,455.9598],
		[1916,456.0741],
		[1917,456.5126],
		[1918,456.6602],
		[1919,456.692],
		[1920,456.9945],
		[1921,457.3987],
		[1922,458.093],
		[1923,458.2342],
		[1924,458.5319],
		[1925,458.5603],
		[1926,458.8708],
		[1927,458.9251],
		[1928,458.9496],
		[1929,459.2864],
		[1930,460.0844],
		[1931,460.1642],
		[1932,460.2086],
		[1933,460.7561],
		[1934,460.9313],
		[1935,461.0548],
		[1936,461.5471],
		[1937,461.9758],
		[1938,462.0559],
		[1939,462.5599],
		[1940,462.6466],
		[1941,462.67],
		[1942,462.8522],
		[1943,462.8813],
		[1944,463.8219],
		[1945,464.0925],
		[1946,464.2597],
		[1947,464.3582],
		[1948,464.6137],
		[1949,464.8017],
		[1950,465.2495],
		[1951,465.287],
		[1952,465.9087],
		[1953,466.0302],
		[1954,466.249],
		[1955,466.5204],
		[1956,466.6132],
		[1957,466.9714],
		[1958,467.1221],
		[1959,467.2244],
		[1960,467.8167],
		[1961,468.1346],
		[1962,468.2095],
		[1963,468.7898],
		[1964,468.9175],
		[1965,469.3993],
		[1966,469.4895],
		[1967,469.5884],
		[1968,469.7499],
		[1969,469.7971],
		[1970,469.8191],
		[1971,470.4177],
		[1972,471.1166],
		[1973,471.1313],
		[1974,471.7034],
		[1975,471.8969],
		[1976,472.0037],
		[1977,472.0278],
		[1978,472.6085],
		[1979,473.0288],
		[1980,473.5233],
		[1981,473.6755],
		[1982,473.915],
		[1983,474.2334],
		[1984,474.2625],
		[1985,474.6711],
		[1986,474.7056],
		[1987,474.7588],
		[1988,474.8708],
		[1989,475.0866],
		[1990,475.6318],
		[1991,475.7845],
		[1992,475.8105],
		[1993,475.9091],
		[1994,476.3674],
		[1995,476.8977],
		[1996,477.059],
		[1997,477.8575],
		[1998,477.922],
		[1999,478.0221],
		[2000,478.2456],
		[2001,478.68],
		[2002,478.7538],
		[2003,479.445],
		[2004,479.8231],
		[2005,479.9615],
		[2006,480.132],
		[2007,480.4571],
		[2008,480.5729],
		[2009,480.6219],
		[2010,481.1023],
		[2011,481.1664],
		[2012,481.8503],
		[2013,482.3159],
		[2014,482.4438],
		[2015,482.9371],
		[2016,483.0776],
		[2017,483.0858],
		[2018,483.1695],
		[2019,483.3594],
		[2020,483.9939],
		[2021,484.0101],
		[2022,484.6941],
		[2023,484.7199],
		[2024,485.2134],
		[2025,485.4118],
		[2026,485.8402],
		[2027,485.9345],
		[2028,485.9931],
		[2029,486.5176],
		[2030,486.8879],
		[2031,486.8969],
		[2032,487.0747],
		[2033,487.1135],
		[2034,487.1624],
		[2035,487.7564],
		[2036,487.804],
		[2037,488.06],
		[2038,488.216],
		[2039,488.61],
		[2040,488.8383],
		[2041,489.3535],
		[2042,489.4902],
		[2043,489.7226],
		[2044,490.1156],
		[2045,490.1359],
		[2046,490.1724],
		[2047,491.4501]
	]
}
