{
	"param31001": {
		"cureent_mode": "ZHUANYEMOSHI_dc_acl3",
		"param_golden_value": [325,325,325,325,325,325,325],
		"param_section": [108,248,388,448,1208,1808],
		"red": [
			[-0.4277974597365846,-6.200941409009821,7.957979098137692,110.426696668937,2.555202010610497,-440.8423230079146,-789.1399836303008],
			[0.003250390153802592,-0.0264459559272811,0.1611745744353338,-0.7476587913226195,0.02339548406331551,0.004991234423114327,-1.542731071502764],
			[-3.777092297742738e-05,0.0001170664399267268,-0.0001543685206901211,-0.0005112474475785972,-3.1397280237812e-05,2.457649121247261e-05,-0.000426122883993842],
			[3.421214910925415e-07,-1.590176401724476e-07,-1.766848241081819e-07,-4.483369605937687e-07,2.156658019593222e-07,4.426406416408555e-07,7.250084360957735e-07],
			[-5.768769210072539e-10,4.049767973643567e-11,2.188677695657536e-10,1.002167070781436e-10,-4.500514887099206e-10,-1.34256231626948e-09,-1.72455155954904e-09],
			[0.09010576958608239,-4.121089812460109,-0.1194035498988511,-5.049073023518352,-0.04880984134688771,-0.1092853268417741,2.869894840240054],
			[-0.0002498604151614457,0.0003001515031595666,-0.0014492044734432,0.005481696189935424,-7.044498943708176e-06,2.383736405909523e-05,0.00242926552108817],
			[7.090059181265501e-07,-5.499575640305051e-07,1.256834288113474e-06,3.017366920783151e-06,4.765568188860779e-07,3.19481304638417e-07,7.754891599315767e-07],
			[-8.155261508364324e-10,3.417970104028292e-10,2.882861104053558e-10,1.094224711083036e-09,3.53064711690924e-10,5.177413355032494e-10,4.682594827613571e-10],
			[-0.002281809534259681,-0.006075952437778798,0.01139226692464766,0.05683206206678927,-2.427482254665178e-05,-0.0008968090760350671,-0.0004808874719314512],
			[1.590977622046163e-06,-1.052617282797812e-06,4.575228231383606e-06,-1.315893887147171e-05,3.143408616213638e-08,3.124231563252531e-09,-1.243246601124046e-06],
			[-4.091343737507577e-10,2.388157647646374e-09,-8.978054467651105e-10,-3.053440479706952e-09,-3.488460488326964e-11,2.65278582310331e-11,-9.523856023052156e-11],
			[-3.958415784216728e-05,0.0002187385551385403,3.70097875543304e-07,0.0001605471238980375,2.657410202583954e-08,7.333027398418609e-06,5.963233972915438e-07],
			[-3.377636947015345e-09,1.579015043644613e-09,-4.554771772470478e-09,1.066530796943589e-08,-1.307615260323981e-11,-2.028044318487051e-12,2.131777248814224e-10],
			[9.010029950538968e-08,-3.116899068426171e-07,-0.6446609233165497,0.01189724620903608,-1.406702293722998e-10,0.006459893040323695,-0.000638314598488923],
			[0.001273600245794637,-0.02570622383037569,0.1641466028977278,0.00429866159937425,0.01318321104158967,0.2134921740073007,-3.31373939470653],
			[1.061081795586901e-06,0.0001318877385786616,-0.0002512736628446949,-0.0006727493061497191,-5.603623813677532e-05,-0.0001535364871700165,-0.0003033002751394022],
			[1.423267657541195e-07,-2.691031164316117e-07,1.738099622085263e-07,6.90976041038313e-08,6.026996466830685e-07,1.00323914256974e-06,3.094173771468666e-06],
			[-2.775796801138344e-10,1.879920512593983e-10,-2.000166531534478e-10,-6.67714619957982e-10,-1.285670592928969e-09,-2.41544563142129e-09,-5.029392617042482e-09],
			[0.1459113650082558,-1.303794013349324,0.7587952908642687,-7.460896860363738,-0.0005793914486152962,6.922509213699132,3081.066267808457],
			[-0.0002622393271578928,0.0003281210338685278,-0.001438848015383112,0.0001374121395261937,3.353525248803299e-05,-0.0003737990991462686,0.005142824139188672],
			[7.043913176307866e-07,-7.397005457784743e-07,1.392889632850594e-06,3.275711657024408e-06,3.72764488514819e-07,3.996961103377628e-07,2.639390507501686e-07],
			[-5.929712014638307e-10,8.394636843830441e-10,3.50928751326337e-11,8.74533507177088e-10,4.239115799216317e-10,6.07457998715668e-10,1.576203605688017e-10],
			[0.005854039799543138,0.006774692882304209,-0.001863710310677628,-0.1329370604232737,8.268789527040243e-05,0.000430526524355481,-4.556748544071858e-05],
			[1.756338408698089e-06,-1.243283355116159e-06,4.540094447978549e-06,-4.017907864290681e-07,-6.685244912397072e-09,2.603257751109877e-07,-2.613323107083564e-06],
			[-7.410322265670591e-10,2.587369176567235e-09,-8.412674430306362e-10,-3.120124802445293e-09,4.593205919975584e-11,2.420700044457736e-11,8.864235440762532e-11],
			[9.097438155806435e-06,-0.000219238112244336,-4.242528277863369e-06,-6.542238802712908e-06,-3.562762959697705e-08,-3.211574600948959e-06,-1.117084526492388e-07],
			[-3.752513554702389e-09,1.965034910452478e-09,-4.574592947277771e-09,4.69476582415116e-10,-3.244864039508392e-12,-5.773113635957448e-11,4.419423333576035e-10],
			[-1.923185353038583e-07,-5.708219754042823e-07,-2.118149203907284e-10,-1.090678049061662e-07,-1.016594889695841e-10,1.839507547918659e-09,-1.632608406620106e-12],
			[-0.0003920980632003213,-0.0005697111821099908,0.1018596327659639,-0.5042954033931684,0.01249112537267654,0.07766917653815308,-0.6240773474523027],
			[1.496026453082876e-05,-1.252484193781824e-06,-0.0001461147716537013,-7.415823298845367e-06,-0.0001823768572498334,-0.0002213187549145033,-0.0004954279279526709],
			[-7.040375318688084e-08,3.27636243350329e-08,2.442582967758818e-07,5.935136181917332e-07,1.173808835490066e-06,1.705173954253031e-06,2.673511639326436e-06],
			[1.267855727205856e-10,-6.981326464230643e-11,-4.615542083517488e-10,-1.426913623265276e-09,-2.284801447657975e-09,-3.843650079588031e-09,-5.262185135974623e-09],
			[-0.219782688729063,5.581419445746808,-0.8142814233258224,10.97763337711725,0.03789309894834313,-5.607082962001,-3082.254942604763],
			[-4.099769275772017e-05,8.931937926655209e-06,-0.0009475012274075005,0.003533738839995081,4.665752892236569e-06,-0.0001221401813146068,0.001003050506895195],
			[-6.648351926409916e-08,-8.609512494682058e-08,7.259313949006274e-07,-2.923857402547444e-07,1.382707675719377e-07,4.167956756316296e-08,1.742052387427231e-07],
			[1.249352927250306e-10,1.127167978206049e-10,1.028719236395323e-10,4.831481916092119e-10,2.235427480391141e-10,4.546715269375765e-10,3.173270906875293e-10],
			[-0.003492198280007909,-0.002205425486953368,-0.008399836640290197,0.08319408786396139,-4.252744417888618e-05,-0.0007623917020403221,-0.0008146229204479098],
			[2.252630583697411e-07,-8.147202496404145e-08,2.924946398244874e-06,-8.148362092775592e-06,5.980819241689388e-09,9.253168610734374e-08,-5.059467407972101e-07],
			[3.795557075966029e-10,7.404118174486511e-10,-7.153964336308923e-10,4.953658174002721e-10,-3.090519235360008e-12,1.026531908383204e-11,-1.443675105016149e-11],
			[2.745710004936408e-05,6.616057523916134e-06,8.963904920069483e-07,-0.0001676979450465939,-9.773135316323264e-10,-3.569545337508588e-06,-1.006895046459334e-08],
			[-2.568939275990808e-10,2.298114807093789e-10,-2.892424191447246e-09,6.323327716046761e-09,-2.717639290404222e-12,-2.071811041286776e-11,8.575348656826284e-11],
			[1.163099341272645e-07,8.735816382111815e-07,0.644660926319141,-0.01189712760931562,2.448437085546893e-10,-0.006459894972072919,0.0006383145372734848],
			[1.635092193194561e-06,8.847062637421653e-08,-2.351176662444661e-07,-2.771565250482786e-07,-2.40926637258224e-07,-1.302513323193314e-07,-1.08997884693565e-07],
			[3.415187676243597e-07,1.00799392983221e-07,5.364631406181086e-08,-2.439439654629886e-08,-3.433748926960648e-08,-1.402997078807779e-08,-1.543891187129059e-08],
			[2.706624667821722e-07,9.87906224476138e-08,-1.002131074874324e-09,-1.001027877022805e-08,-4.754072910671591e-08,-2.103275985761377e-08,-1.310213203038544e-08],
			[-1.49351759259254e-09,-3.138789281527126e-11,3.120551079499386e-10,2.075177830635885e-10,7.513874982879261e-11,-7.551599249194248e-12,-3.590548333952571e-11],
			[-2.282767309073605e-09,-1.924426925065093e-10,1.580345972586478e-10,1.196941406841091e-10,2.584207879113953e-11,-3.806187949737835e-11,-6.761164892147285e-11],
			[-5.345607814894745e-09,-7.824047473897422e-10,-1.871514496550323e-10,-3.797278257576231e-11,7.070863813062643e-11,1.356194258488455e-11,1.020042302689779e-11],
			[8.652655947913315e-11,-2.153421190929577e-11,-1.067700736851478e-10,-1.740860432145001e-10,-1.687605913552062e-10,-1.64269050584093e-10,-1.641553946354656e-10],
			[-4.126402888039497e-10,-1.691633304151826e-10,-2.88272452447273e-11,2.684368612845804e-11,-1.354197034951721e-11,-3.662294615368263e-11,-4.689471202030599e-11],
			[-1.219440841517709e-09,-2.801684798865461e-10,-2.372713568104239e-10,-6.908392690547075e-11,7.028007547693286e-12,-6.726166730683528e-13,2.045691687421891e-12],
			[-2.599933711206276e-10,-9.618291947882684e-11,5.272710601275916e-11,5.5769571820078e-11,-1.467030049502497e-11,-4.420246047571054e-11,-5.207329755169693e-11],
			[1.610372702119652e-11,-9.131897592902773e-11,-1.113831870932664e-10,-1.799727215967095e-10,-1.634274325181564e-10,-1.515696506834378e-10,-1.564924930830222e-10],
			[-7.783071574154714e-10,-3.28710052919379e-10,-1.590592083625181e-10,-1.364828543524364e-10,1.607744434434348e-11,2.308166852486335e-12,4.742562473026213e-13],
			[-8.299423600844583e-10,-3.733754351212714e-11,2.181472846749657e-10,3.227063856178967e-10,2.230564720633533e-10,1.736822882691139e-10,1.630552306065963e-10]
		],
		"green": [
			[-0.1784375781365056,-2.213286107592011,46.42392530596021,55.89224567135802,1.631011379819094,-393.5878679158312,-334.6551690661927],
			[-0.0001115024557309004,0.008168571735140429,0.08304101076702511,-0.3386852801003963,0.001366352756447841,-0.005679437363687029,0.4176916080004735],
			[4.059833949033905e-06,-3.18278917120078e-05,-8.140870596675602e-05,-7.276099623629691e-05,-4.455749644702749e-06,2.412678993473028e-05,-0.0007936348144766635],
			[-9.708868743948221e-09,3.779379430871016e-08,-7.314213922605267e-08,-1.191038126669036e-07,6.865050628966224e-08,1.554368499716028e-07,5.291855299132064e-07],
			[8.870021293302978e-12,1.850989765623832e-11,9.44177074129945e-11,-8.626646772950569e-11,-1.482352599606467e-10,-4.406185172870024e-10,-5.463887419555679e-10],
			[-0.02343817488534799,-1.779665427243985,0.3349115253118125,-1.566018153622382,-0.03072137444180439,-0.01508914595607102,-30.93671597684577],
			[-1.112758446131267e-05,-0.0001420110003561736,-0.000779322752401639,0.002484073706363646,7.652890197239979e-06,1.392832279184586e-05,-0.0005498010282474369],
			[-8.310320241927002e-08,2.817466388105729e-07,6.551961787186251e-07,4.984956849378313e-07,7.885815384406751e-08,1.823831869835198e-08,8.190436759547471e-07],
			[1.024347249048703e-10,-2.023086298336639e-10,9.096774499382616e-11,4.338886259731705e-10,9.260135587237012e-11,1.359619082412238e-10,-4.148594217888006e-11],
			[4.929327738880404e-05,-0.002409707466927323,0.01309510019562352,0.03636144169436433,-1.402341881847821e-05,-0.0007780635480588526,0.0001839204163676987],
			[1.283517675534826e-07,5.419436388087618e-07,2.327985921387463e-06,-6.052890456054469e-06,-4.918967268722842e-09,-3.161104201508481e-09,2.411459926536942e-07],
			[1.666925636970035e-10,-2.178698511312234e-10,-8.276478211486734e-10,-5.637488261075769e-10,1.816882908537803e-12,1.807251671446909e-11,-1.769856731904293e-10],
			[6.987438017621415e-06,9.450035390806932e-05,9.435491043327304e-08,8.030072116942907e-05,1.529097224261094e-08,6.323380654321191e-06,-2.780268933264896e-07],
			[2.118555568961939e-10,-5.209900310921975e-10,-2.226806195238513e-09,4.944572534190591e-09,1.170902379446641e-12,2.831733979885498e-14,-3.426725682103464e-11],
			[-5.489879421268252e-08,-1.310297007569406e-07,-1.97918121784013,0.03499064474238708,-9.612593625553403e-11,0.0008101468762316625,-0.001273718929670754],
			[0.01033155746345666,-0.02787771265409343,0.1481461502807592,-0.03157742439161371,0.01234569145046011,0.3469749872655289,-4.192828156175331],
			[-0.0001497432835053926,6.381896177515602e-05,-0.0003003024869849641,-0.0007955493252946214,2.776101570219387e-06,-6.60823152424506e-05,-0.0005613427983304328],
			[6.093680305259991e-07,9.315282887722975e-08,1.274659168197437e-07,-4.673286285310713e-08,3.845943794892695e-07,5.285204534500484e-07,4.257434315801834e-06],
			[-4.925350018276672e-10,-2.799312272267463e-10,-1.36133512506703e-10,-5.525564511878194e-10,-9.765042874023042e-10,-1.82203984606304e-09,-5.971772663428427e-09],
			[-0.03106144485712161,-0.5856986246010076,0.6929839857881652,-3.50141754048413,-0.001548377872201427,5.882679359254509,-3259.260214205683],
			[-0.0001414831182514671,0.0002491408101890263,-0.001371343809494874,0.0001743773888594885,-8.549450825171278e-06,-0.0006706429959858696,0.006456989201573698],
			[1.201550088851387e-06,-5.052930515798572e-07,1.784494205571647e-06,4.048893115026776e-06,4.71504293384562e-07,4.864990802596355e-07,4.479985592471167e-07],
			[-2.937849558842672e-09,2.110851126624519e-10,2.119742621937593e-10,1.161456241079858e-09,7.118111370130925e-10,1.02567192724788e-09,1.061304639612063e-10],
			[0.0001324751538282279,0.002631182584764884,0.003040992290225959,-0.07280183309429161,5.665804562987272e-05,0.0002286493340961439,0.0004583673226513888],
			[8.347857311603866e-08,-1.003890695114853e-06,4.149650616288058e-06,-2.568914279414601e-07,2.587768607510815e-08,4.539578417240797e-07,-3.268564403910823e-06],
			[4.818817728415921e-10,3.087123312341326e-09,-9.904528655424914e-10,-3.75022575074153e-09,7.575503936411068e-11,4.086494326188261e-11,1.171563111438207e-10],
			[-5.963142248079343e-06,-9.452772035187822e-05,-2.561213605505238e-05,-7.184646350495455e-06,-2.969022098629755e-08,-2.74565194199677e-06,3.811342435444366e-07],
			[1.322455854863449e-09,1.461072676288519e-09,-4.040895713883123e-09,1.743517927856151e-10,-1.342340932777721e-11,-9.997148710500147e-11,5.490526182135149e-10],
			[3.563954452953989e-08,-2.4962046629026e-07,2.341565537103085e-10,-4.069249178821456e-08,-6.158138035870757e-11,1.577257570307892e-09,1.826594910410881e-10],
			[1.448295103460525e-05,0.001375863490886872,0.04287870832214436,-0.3087758473786255,0.006410844737344693,0.05834579044564703,0.7080134627661677],
			[5.790616695460667e-06,-3.178044739077171e-06,-9.41460270803694e-05,8.076025825578601e-05,-0.0001151414711558159,-0.0001665704460194696,-0.0003185051424788359],
			[-3.091549207677221e-08,-6.456445568795238e-09,8.331656616899818e-08,3.090636501741811e-07,7.289700764240626e-07,1.120208294033236e-06,1.929149369340081e-06],
			[5.227077173948767e-11,2.184214653328924e-11,-2.526756109143374e-10,-9.878128830074314e-10,-1.408722921068419e-09,-2.568298554344879e-09,-3.622530582228712e-09],
			[0.0576530189469245,2.438018524448876,-1.65107132476337,4.098607681626675,0.02267826843785398,-4.808603839854777,3290.832467841481],
			[-1.289727983053101e-05,-2.741141339715216e-05,-0.0003971099608003945,0.002108206370565429,4.547401877215726e-06,-9.427294881285399e-05,-0.001082253061700859],
			[-5.42395050972792e-08,-3.250868442184214e-08,5.308267417350811e-07,-5.732284184426253e-07,6.027472171838193e-08,2.587472159385926e-08,4.402848981947692e-08],
			[1.02242441726232e-10,7.843218565458211e-11,2.554795764568986e-10,6.639371426160331e-10,1.894390841904266e-10,3.58757826400315e-10,2.081781793044067e-10],
			[-8.884081203415457e-05,-0.0009332692525829615,-0.01304463123612457,0.04143237306686984,-2.766100796588203e-05,-0.0005130395414350735,-0.001091322549897963],
			[1.001540896370601e-07,5.437375576154058e-08,1.140336568224231e-06,-4.758962739922883e-06,-1.225098641752141e-09,6.687758707049296e-08,5.705309038870456e-07],
			[2.988241670266558e-11,3.512355044100899e-10,-6.8882739816759e-10,5.934967704490829e-10,-2.986205380719759e-12,-5.255006694688059e-12,5.320692655831454e-12],
			[-2.637744322429225e-06,2.879984168861958e-06,1.877283261591194e-05,-8.344752650580003e-05,4.285322026477185e-09,-3.107379645532324e-06,3.60810688537806e-08],
			[3.92855653880644e-10,4.215826663255587e-11,-1.017893611928772e-09,3.62805203849616e-09,1.016230216444953e-12,-1.411633768942853e-11,-9.96894774638839e-11],
			[2.529796753118796e-08,3.765157278806186e-07,1.979181223059411,-0.03499059648583019,1.602418771223025e-10,-0.0008101485310280638,0.001273718731106523],
			[4.113398076528969e-08,3.278252034127907e-07,1.25116506478362e-07,8.9577468443632e-09,-3.835783438697679e-08,-1.809624601602591e-08,-1.489410300685146e-08],
			[7.424788750374142e-08,1.904893066641508e-07,1.527403335654465e-07,7.711122105872588e-08,2.181617620078987e-08,2.642553088489332e-08,2.502418791271013e-08],
			[-7.570479975559568e-09,5.340403898848338e-08,4.460019582401638e-08,7.378670199192314e-09,-1.05498098483738e-08,-5.545611952721919e-09,-6.869051830771438e-09],
			[3.912607807594269e-10,-1.06617061937899e-10,-1.014671684126965e-10,-1.172984690689735e-10,-1.023925714118105e-10,-9.860328260569258e-11,-1.124217944333912e-10],
			[2.629695284609259e-10,-3.826494909006181e-10,-3.684315846220524e-11,5.667093250187084e-12,-1.901038764389871e-11,-3.696403524457547e-11,-5.209709233194615e-11],
			[-9.916843690921491e-10,-7.940972650651428e-10,-3.407815318821972e-10,-1.012848974373251e-10,1.501616361051944e-11,3.770689940713439e-13,2.109588401978116e-12],
			[1.470558634149717e-10,-1.086976245003282e-11,-1.019380590863259e-10,-1.824975459857419e-10,-1.746042133072877e-10,-1.777172154080937e-10,-1.841396475321145e-10],
			[1.809853479113155e-10,-2.666879961824471e-10,-8.155950219342555e-11,-7.410385015549008e-11,-7.419721847909194e-11,-7.298660373331147e-11,-8.628550685471515e-11],
			[-9.004961800097962e-10,-3.290610851422487e-10,-3.160950616985881e-10,-1.178463416053619e-10,-2.394806991715922e-12,-6.268115359527662e-12,-3.204733091939789e-12],
			[1.81982387223446e-13,1.559959381244997e-11,-2.248245832851101e-11,7.283066811801317e-12,-8.939404462848423e-12,-9.026477203175303e-12,-8.945481944468696e-12],
			[8.342919954375916e-11,4.607555120435873e-11,-4.632520081470374e-11,-2.687244188249884e-11,-3.103806942902055e-11,-2.901738198080098e-11,-3.109774848790367e-11],
			[-3.698120994425585e-11,-1.515215914623824e-10,-7.427315427898415e-11,-4.718061939127462e-11,4.703822082036739e-12,-1.176458742325857e-12,-2.82902355574865e-13],
			[-1.221908249632492e-11,-2.265930142240532e-10,-7.131680685950538e-11,3.517306567156162e-11,4.57824329162917e-11,5.612627631515948e-11,6.066890900118158e-11]
		],
		"blue": [
			[0.03851755597270575,0.4571729432289187,15.18846610287586,-52.63892526431251,0.7118411134503277,-216.7204299617902,-180.7743331216663],
			[6.130180664503033e-05,-0.004358680463225029,0.03727382159628088,0.3888758003195427,-0.000590193431915052,0.00209566901589887,-0.1417911179192679],
			[-4.571295412340527e-07,3.189653591656975e-07,-6.086397432563304e-05,-4.344016542256423e-05,4.528278220150257e-06,-3.841327536190849e-05,-0.0002306627420646153],
			[2.409755130956307e-09,-1.646996690521422e-09,6.482166610701403e-08,1.538698448236306e-07,3.719366500977744e-08,1.968507420227876e-07,1.730181665008046e-07],
			[-4.723279079795589e-12,-1.042881376699155e-11,-3.593227662206499e-11,-1.31444445705851e-10,-9.961289221041585e-11,-3.282892511019374e-10,-3.834176464002501e-10],
			[-0.0340698994489709,-0.7575489282702056,0.2063038381966613,-15.72374766689586,-0.01518661938921415,-0.131168547014116,-0.5803216092533683],
			[2.362757821970845e-05,4.858060143243203e-05,-0.0003607306857074997,-0.002783323159007387,6.169413981085359e-06,3.797789790638128e-06,0.0002482289665366595],
			[-4.484844125035809e-08,-1.869938823433474e-08,3.593800493623262e-07,8.455838783387308e-08,3.001944209889797e-08,5.850882578495806e-08,2.577751139934437e-07],
			[1.518994234948658e-11,5.869303872305614e-11,-1.298016036107172e-10,-1.918122185788634e-10,6.464739503587871e-11,3.48580640214538e-11,6.205183319757305e-11],
			[0.001071012321636248,-0.0009165965664861199,0.00606371876802372,-0.00763004103806142,-5.132739366332426e-06,-0.0004287625246319235,2.396282054871572e-05],
			[-9.094474511849057e-08,-3.196364291863039e-07,1.090452948606974e-06,6.696857785467804e-06,-2.481230552559321e-09,-2.590887070425363e-09,-1.392367163851938e-07],
			[1.2550230939026e-10,1.74304846370187e-10,-3.414594362819007e-10,1.424676827775027e-10,7.918259871521183e-12,-7.262992726960991e-13,-5.352182564003669e-11],
			[1.25653428500434e-05,3.472784383970149e-05,-1.022057933231446e-07,3.622574109692015e-05,3.840823144399495e-08,3.493338490183053e-06,3.588077970126821e-08],
			[-1.577202491685648e-10,6.84678871935587e-10,-1.066618421765397e-09,-5.396968477732552e-09,-3.254586166368988e-13,7.268224924930869e-13,2.594947347264156e-11],
			[-2.708973032822197e-08,-5.341734921956266e-08,-0.9559605666852272,0.0126908888244114,-6.791241803710082e-11,0.0006586823315326445,-0.0004444898574080907],
			[-0.001781621285730928,-0.005328709957046468,0.05685071749132883,-0.01609114201288143,0.003867895690808725,0.1067002455589946,-0.506553485323867],
			[2.280274459143149e-05,-9.823608126478319e-05,-0.0001083713796999531,-0.0001722814312554373,-1.121100145212684e-05,-3.54170629913518e-05,-0.0002158189316767146],
			[-1.050607633642056e-07,2.900472129241428e-07,8.409465453756602e-08,-1.01902612389152e-07,2.248385222053214e-07,4.026766623502318e-07,1.839530316362353e-06],
			[1.622683945735427e-10,-2.578423103576123e-10,-1.230507748377494e-10,-1.99128963507705e-10,-5.224300145010612e-10,-1.084630556625669e-09,-2.621701968954144e-09],
			[-0.03687099301112227,-0.1463540789706586,0.3135406896909094,-2.08686303103928,-0.0002070238334906782,3.355966667168321,522.9583523507714],
			[0.0001303273702110495,0.0001031871350435931,-0.0005510950395290488,4.024528719311234e-05,-4.362814491049401e-07,-0.0002077174587599647,0.0007557601475810375],
			[-5.816409169942572e-07,6.140831768518233e-07,6.473497459567426e-07,1.005150718409921e-06,1.795043864311483e-07,1.609221473569299e-07,1.355116253084467e-07],
			[8.273770419591287e-10,-7.378120321078965e-10,3.470836117831311e-11,5.879858921074626e-10,2.264496286353329e-10,3.399911993745038e-10,-2.523682906104831e-11],
			[-0.002511072286463742,0.0009882116821272864,-6.596670665241376e-05,-0.01271602262901503,3.646812505673732e-05,0.0003847776555481905,0.0001082441304278806],
			[-8.006310540236077e-07,-9.710808489996885e-07,1.685329815412981e-06,7.1191445272585e-08,5.0841631707214e-09,1.435165599487585e-07,-3.585522418968603e-07],
			[1.674684340692892e-09,-1.390771160351936e-10,-3.41454557248162e-10,-8.767113244046877e-10,3.055457975381192e-11,2.395489854687865e-11,5.591053653697628e-11],
			[-2.321454404223537e-06,-3.470464875027136e-05,-7.102432616764918e-06,3.767952021201191e-06,-4.287705160000439e-08,-1.568982025988891e-06,-3.379882641585864e-09],
			[1.145065329133857e-09,2.333135885063635e-09,-1.659213905183405e-09,-1.501342312207837e-10,-3.440550673326063e-12,-3.224122749082516e-11,5.553572388298175e-11],
			[7.711452276695294e-08,-9.605555158464249e-08,-9.197954735077846e-10,-1.831930436546498e-07,-3.197754300511099e-11,8.892896328379747e-10,3.742037043090896e-11],
			[-0.0008482632393990797,0.005644337197470789,0.08864050018004255,-0.6188018125602667,0.009092088998645866,0.09234512059527211,-0.04994730642241384],
			[9.773770834283904e-06,-5.061012513638145e-05,-0.0001439297663609735,-0.0004687751100189398,-9.521586210791764e-05,0.0001023580340561111,-0.0005664879162170271],
			[-3.978241593055729e-08,1.339703749479045e-07,1.881867608791848e-07,7.173405522935454e-07,6.400590283037823e-07,-1.771992897704677e-08,1.05916163153982e-06],
			[5.375517035755902e-11,-1.682603689373522e-10,-3.896274159298247e-10,-9.454686637556029e-10,-1.211504999751664e-09,-9.863378288670754e-10,-1.765525734681573e-09],
			[0.06296367713747922,0.9145255556901691,-0.7335306527948917,17.95635165458465,0.01013186363689458,-2.640825344755115,-522.0906724466395],
			[0.0001020640653377531,-9.486518118950182e-05,-0.0008254791625041647,0.004483319486195197,-1.798069806929867e-05,-0.0001948582499944564,0.000114032785455182],
			[-3.925775312716219e-07,2.236915098538694e-07,6.694972964303842e-07,1.772789429939568e-06,2.537722238759633e-07,7.19015989709508e-08,5.998938869828083e-07],
			[4.912142867029489e-10,-2.197160438421084e-12,3.133197344586689e-10,-3.471250545462016e-10,1.936812851990299e-10,6.568640291403186e-10,2.755086336373894e-10],
			[0.001500681672110797,-0.0002646245589507934,-0.004888400209790122,0.02107418642372851,-2.271116012167447e-05,-0.0005429190326551081,-0.0002878695910050402],
			[-6.654806229846411e-07,2.25528108259747e-07,2.460646552760412e-06,-1.077753664965949e-05,1.883627776357987e-08,1.375039843742535e-07,-6.639700614538498e-08],
			[1.263062494475171e-09,2.856640635717786e-10,-4.192028626848523e-10,-1.362514822126789e-09,-1.292374076399115e-12,1.991988041861067e-11,-8.652824136646862e-11],
			[-1.020174579612286e-05,1.031249960337753e-06,4.674616657235405e-06,-4.311913402498032e-05,-1.764824224251482e-09,-1.664169406423664e-06,-2.36620907182027e-09],
			[9.723291991244581e-10,3.480609357975514e-11,-2.389137106861865e-09,8.62234144206614e-09,-6.233214944412715e-12,-3.021360242629902e-11,1.273374945562095e-11],
			[-5.095295821571699e-08,1.475297625732067e-07,0.955960569734317,-0.01269070260505293,1.016023250464983e-10,-0.0006586832637666242,0.0004444898191754396],
			[-1.956692685234951e-07,1.637264986702306e-07,7.849611567709401e-08,-2.517926754377288e-08,-1.431375513193001e-08,-7.95360030366927e-09,-3.639095962316778e-09],
			[-6.167399813039793e-07,3.300246459290394e-07,1.354170543942324e-07,9.539921331853901e-08,1.4644824053146e-08,1.540491634125625e-08,1.146128362157075e-08],
			[-1.539352543668406e-07,1.108007132459203e-07,9.92820367926702e-08,4.219401415411169e-08,3.855994969757263e-09,3.165988766695951e-09,9.215994136714758e-09],
			[1.68731140617684e-10,3.915902977850509e-11,-6.437801831958999e-11,-3.767222314088275e-11,-3.461063198109533e-11,-3.81944839901519e-11,-3.905231268549141e-11],
			[3.134227316015394e-10,-1.53455642402655e-10,-6.383865638618038e-11,-4.549372102268569e-11,-3.226769990703712e-11,-2.79432772740009e-11,-2.98892104818751e-11],
			[5.303062495590218e-10,-3.950666976591039e-10,-1.467425083400909e-10,4.577207780044286e-11,7.417151829307192e-12,1.399906807713895e-12,-8.939987389704312e-13],
			[8.457115844908216e-10,-8.970368221143755e-11,-1.00396139400424e-10,-1.485924933663643e-10,-1.581503799427577e-10,-1.416490921221651e-10,-1.349894968506246e-10],
			[9.797489703863064e-10,-1.847347777976701e-10,-8.049526252836438e-11,-3.752731589032273e-11,-4.373420996908531e-11,-5.073644484798437e-11,-5.631240066008908e-11],
			[1.998309962099897e-09,-9.012542059065822e-10,-2.535194171142542e-10,-1.947912996194364e-10,-1.849102252655191e-12,-3.881531296174005e-12,-2.246828677584288e-12],
			[1.365508926877656e-10,1.753795860804883e-11,-5.424806228702593e-11,-3.14491809928329e-11,-3.634001228496887e-11,-3.717534149623887e-11,-3.686297745478883e-11],
			[2.008258583524152e-10,-7.903351301976208e-11,-9.347424849536892e-11,-1.104431698549542e-10,-7.770046935267526e-11,-6.912747963244518e-11,-7.005271770824302e-11],
			[4.376007004846479e-10,-1.65359608262015e-10,-1.643294876408622e-10,-6.900758830753911e-11,1.000366178522282e-12,-1.222401356480338e-13,-3.472138224636497e-12],
			[4.378360043804037e-10,-3.103303540734644e-10,-8.018651602987501e-11,4.357075521396009e-11,5.258574749560189e-11,5.043784302333945e-11,5.336219866108503e-11]
		],
		"ir": [
			[-0.5731628780995187,-10.75941797000014,59.29820780512627,251.8677792063642,5.567532057446936,-910.8686385293103,-1620.229316620887],
			[0.00184055783479539,-0.03141770144406243,0.2838068708879174,-1.54467532497509,0.03072221418573148,0.006780611011071042,-2.44217333487696],
			[-9.432015211551894e-06,0.0001530159644479947,-0.0002729645628667754,-0.0004460226684234482,-7.220815211890762e-05,-4.402333390075716e-05,-0.001892746174199908],
			[2.205395092429435e-07,-2.517424560372012e-07,-1.101899268035461e-07,-4.657322860494021e-07,4.636578424257472e-07,8.165765049720953e-07,1.363848381012723e-06],
			[-3.630657139760915e-10,1.863291046195219e-10,9.756480869428418e-11,-1.58151198554467e-10,-9.368790053144595e-10,-2.111651344998813e-09,-2.801937781065589e-09],
			[0.1694932557150807,-6.779415016880737,0.1626430212343564,-1.87581924266453,-0.09149379151791015,-0.1696318195519314,3.528801271656199],
			[-0.0002660927517658699,0.000366889149734802,-0.002591928892988851,0.01109745146641587,-1.271434676472486e-05,3.340655459629994e-05,0.003996012909726071],
			[6.871582532860833e-07,-8.009426063195911e-07,1.897000669537914e-06,2.768818670779288e-06,6.670930564806069e-07,4.996128435926852e-07,2.374015056330758e-06],
			[-7.384287883130856e-10,5.293132526817517e-10,4.480340125494916e-10,1.629425245978317e-09,5.760711417526941e-10,7.563819814497729e-10,6.425320562096338e-10],
			[-0.003834577050028642,-0.009953784230822452,0.02746182447368688,0.1307134709052802,-3.885414570754651e-05,-0.001828812580197042,-0.001175590272379204],
			[1.680191809283056e-06,-1.279200593383128e-06,8.130123973454683e-06,-2.627913718547089e-05,4.09915033683813e-08,-1.701167584386923e-09,-2.133041542976103e-06],
			[-7.440844087664115e-11,3.42279225074008e-09,-1.410176556984552e-09,-2.509788769623005e-09,-4.679726872224038e-11,2.853304212639453e-11,-4.558939926115325e-10],
			[-6.310167742737982e-05,0.0003616079790050092,6.487008916388536e-07,0.0003244291547789926,5.158188967923372e-08,1.488085269643184e-05,1.231053346736977e-06],
			[-3.526033231119503e-09,1.838726640050919e-09,-8.138989391659929e-09,2.090161830122286e-08,-1.63001120498444e-11,-7.79117400358257e-13,3.800285851505544e-10],
			[1.788271879787592e-07,-5.137118744715938e-07,-2.750355235352948,0.06996967704355098,-2.858932447625995e-10,0.009887532587358831,-0.001518331331444149],
			[0.0009533799532948752,-0.04494079853099775,0.3584350436656571,-0.03596943354535624,0.02909700789334929,0.559209864911393,-7.995396216846865],
			[7.882774255155991e-06,0.0002261729314562791,-0.0006151412227935261,-0.001169509112791409,-9.076808381459651e-05,-0.0002853381786106943,-0.001336823059538493],
			[2.295978194960565e-07,-4.631240509161334e-07,5.562574943954876e-07,-1.876740447557243e-08,1.200082861652564e-06,1.795506090629096e-06,7.96511588111248e-06],
			[-4.15123931242496e-10,3.541916677084253e-10,-7.270472841513304e-10,-1.454820537669912e-09,-2.660075185211165e-09,-4.812444985109548e-09,-1.154659060592238e-08],
			[0.1928025363577765,-2.191985511542576,1.651674302115214,-14.42041725963124,-0.002374864198897009,13.98527997922964,5154.672226440952],
			[-0.0003489547095979588,0.0005699147507597106,-0.003193577454366856,0.0002462248853364983,2.376904840127241e-05,-0.001033142972500969,0.01242935087556968],
			[9.565264062651869e-07,-1.292938134161062e-06,3.251490656194284e-06,5.945366119891705e-06,8.757365405472328e-07,9.48136355905897e-07,1.10053611366852e-06],
			[-8.198421111401494e-10,1.463478099781149e-09,1.157662651554255e-10,2.427750312250114e-09,1.116989750394597e-09,1.641684379209634e-09,9.30553167618761e-11],
			[0.009439797323714246,0.01102935697770902,0.00108855238979111,-0.2825890542137884,0.0001931729905805461,0.0007990645278680527,-0.0001679312085291358],
			[2.564814054116941e-06,-2.325401238056153e-06,9.898997572877986e-06,-1.769667024746706e-07,2.134291740851086e-08,7.041199471214781e-07,-6.338875964855961e-06],
			[-3.783108327162571e-10,5.43089191970779e-09,-1.818838759143943e-09,-5.371512981798348e-09,1.194991272757827e-10,5.137651262285515e-11,1.321357023708333e-10],
			[1.685855788651266e-05,-0.0003622780849407489,-3.21702065321979e-05,-1.738185353444951e-05,-7.269896801662144e-08,-6.504181749954554e-06,-1.795714946042946e-07],
			[-6.607147645260095e-09,3.766079448107633e-09,-9.877410592438816e-09,4.37186149842857e-11,-1.746306838768864e-11,-1.545503173548309e-10,1.073651550640498e-09],
			[-3.253088845225829e-07,-9.454596617764644e-07,4.654407203793177e-10,-1.264673857100266e-07,-1.875534818919419e-10,3.727322231119809e-09,-5.712193747317065e-11],
			[-0.000381266871552122,-0.00293006359749589,0.1478917067948091,-0.8921686733819488,0.02495901896018672,0.1768041783629919,-0.9515678934445391],
			[2.4320008003543e-05,7.630234597048459e-06,-0.0002470642838268344,-0.0007409479428854715,-0.0003522813176694367,-0.000336536614298213,-0.001514809418000875],
			[-1.060415838002121e-07,6.618564459843367e-08,2.90523193681895e-07,1.202712476795002e-06,2.253613098337087e-06,2.871033858223517e-06,5.306224188043879e-06],
			[1.833079218739697e-10,-1.721141236942559e-10,-7.487184519133077e-10,-2.759005364080622e-09,-4.370252784260151e-09,-6.847467900822277e-09,-9.906606085167417e-09],
			[-0.338676655547061,9.241374505225235,-2.679680996524977,12.94562171591544,0.06715168751979182,-11.34112023276832,-5154.663696826096],
			[-9.480925180676249e-05,4.316522396409367e-05,-0.001386831798203212,0.006586812566783207,-2.244670453996228e-06,-0.0003029895785319278,0.00160577024178383],
			[-1.18004781269999e-07,-3.007411060822211e-07,1.306815138945276e-06,2.802533058689541e-06,3.060941015288061e-07,7.608562644961616e-08,9.179372717762235e-07],
			[3.427980979308775e-10,3.577758033822982e-10,6.53713349426282e-10,9.72374971481471e-10,4.956548455177274e-10,1.050710818335181e-09,5.721555310813187e-10],
			[-0.005568607243126964,-0.003632881862323422,-0.02397336048668559,0.1671070559063866,-0.0001124435686773621,-0.00147390090479092,-0.001547283638804767],
			[7.842344710466023e-07,-2.058119407935806e-07,4.249469010440337e-06,-1.600875175606998e-05,1.900371187617944e-08,2.216868182781108e-07,-8.407646003544673e-07],
			[4.173708184263051e-10,1.727927234625024e-09,-1.351365886147506e-09,-2.960635947875855e-09,-5.794037096628355e-12,2.638946745922041e-11,-1.559218829202207e-10],
			[4.276613590200302e-05,1.09286705442845e-05,2.095724897795384e-05,-0.0003362341422352631,-8.403802843879487e-09,-7.259216289044045e-06,-4.029536947151844e-09],
			[-1.775110015669821e-09,3.475645475014165e-10,-4.100786969957784e-09,1.307836855608224e-08,-7.334721986802838e-12,-4.900833934129895e-11,1.476966362821057e-10],
			[1.640694003295786e-07,1.444352848554167e-06,2.750355243874971,-0.06996953032393807,4.813849863087535e-10,-0.009887536500351748,0.001518331246608856],
			[1.829424700968399e-06,7.740906610956951e-08,-1.698947592507085e-07,-2.879741212995183e-07,-2.925580314465037e-07,-1.462347668744207e-07,-1.324605510650407e-07],
			[6.27577430853404e-07,1.529652560452303e-07,1.718802956761883e-07,3.583078244083434e-08,-1.917283322763861e-08,1.166372795577054e-08,1.081810420544673e-08],
			[4.363902743260867e-07,1.055098335049714e-07,3.680208401442487e-08,-4.062014345404198e-09,-5.600648726693251e-08,-1.917284097280403e-08,-1.238751422166349e-08],
			[-1.445304525154747e-09,-2.127709352477026e-12,2.74159580913594e-10,1.302394290193034e-10,-3.978449941421202e-11,-1.285487732961284e-10,-1.709985333529978e-10],
			[-2.688088861964036e-09,-2.444064277323493e-10,1.766828550408939e-10,1.638753905747928e-10,2.108378329498105e-11,-7.910967473530763e-11,-1.304286927785337e-10],
			[-5.898989560563367e-09,-8.077647441176992e-10,-4.920961528883795e-10,-1.750839700771557e-10,8.798389386720521e-11,1.123901080485517e-11,1.62326098348673e-11],
			[1.696065490836968e-10,-6.114426988593454e-11,-1.728950117306474e-10,-3.606006642723216e-10,-3.848469279647841e-10,-3.730095025662581e-10,-3.860770529953789e-10],
			[-6.935285966296469e-10,-1.94813848015327e-10,-4.120702348084366e-11,-4.612964692970957e-11,-9.382133991225575e-11,-1.207926782052826e-10,-1.451423737262504e-10],
			[-2.619243585476685e-09,-4.244168201675835e-10,-5.824096405178022e-10,-1.974645321440821e-10,8.906742094833871e-12,-7.739296152841494e-12,-2.250616293213748e-12],
			[-3.957353188956478e-10,-7.263589772779235e-11,1.037690128144435e-10,2.500737007433271e-11,-4.505976358799728e-11,-8.893389689156899e-11,-1.043803970512186e-10],
			[1.938299432469977e-11,-1.055952663771517e-10,-1.608728234555851e-10,-2.591204396671757e-10,-2.402766395882131e-10,-2.353686195702409e-10,-2.370506495430182e-10],
			[-1.310431393092889e-09,-3.791308563464961e-10,-3.132095431968921e-10,-1.694817812528032e-10,1.954593584159419e-11,1.635497592562724e-12,5.538581386740815e-13],
			[-1.324159832898909e-09,-6.041998480884164e-11,2.168935411860595e-10,4.252169103108059e-10,3.038312232770835e-10,2.510271797452523e-10,2.493952992085158e-10]
		]
	}
}
