{
	"param32000": {
		"cureent_mode": "YANLIMOSHI_Udc_acl3",
		"param_golden_value": [306,306,306,306,306,306,306],
		"param_section": [108,248,388,448,1208,1808],
		"red": [
			[0.04333893650112187,-1.279756279935701,-3.531818715026549,208.0980624859154,-3.574280124636343,-460.6125256674033,-476.7067019025788],
			[-0.001080535010046896,-0.001527638748281453,0.06223762972696534,-1.269145326244794,0.02896496425266893,0.01742401617229954,-0.305990407825488],
			[-1.940441870915701e-05,6.398968455679891e-05,2.633564508876245e-05,-2.535020598073555e-07,-6.508764181364586e-05,-7.929759234671658e-05,-0.001238913527641462],
			[2.023975864207838e-07,-2.306954240593959e-07,6.398763738445577e-08,-1.228548282256899e-06,4.697806359846287e-07,9.881248091699135e-07,1.480965541366121e-06],
			[-3.290097100060387e-10,2.252732982696002e-10,-2.788946288702729e-11,-1.737801768751417e-10,-1.354347542803807e-09,-3.585241362446771e-09,-5.294864868782798e-09],
			[0.0223507337053119,-1.434885898494874,-0.1758381226360947,10.30748151855501,-0.001281616513756897,-0.1058546030651139,-6.700307008688998],
			[-0.0001842694620160918,-2.794074058917382e-05,-0.0006162196770411487,0.008883645730645566,2.11253192234321e-05,4.569547448877717e-05,0.0005942995364133401],
			[6.109529866164366e-07,-3.830762248191369e-07,-4.841379708873051e-07,7.681210488885831e-07,2.387671633798197e-07,1.158487524436557e-07,1.291402718375222e-06],
			[-1.070856560714342e-09,8.213411958459314e-10,1.764847519608133e-10,3.729310292502075e-09,1.28589879426232e-09,1.848718854387202e-09,2.052228993963965e-09],
			[0.0002755082575316256,-0.001935256249605517,0.003104137841028735,0.0905015946916245,-1.782263674411773e-05,-0.0009329660164396055,2.899365186928674e-05],
			[7.633086157481473e-07,2.772762990245851e-07,2.150809391155521e-06,-2.076989218914643e-05,2.283140086007196e-09,-1.353944679147402e-08,-3.217994506421378e-07],
			[2.182328009840286e-10,1.619038372494279e-09,2.177382725890655e-09,-9.67507320723691e-10,9.788462608422275e-11,7.895586395784754e-11,-2.547157870124314e-10],
			[-5.607956564738148e-06,7.488565446687598e-05,5.09662475036042e-07,0.0001959779640334022,8.510408999707837e-08,7.679815244080635e-06,7.65984805772274e-08],
			[9.424691295353201e-10,-2.056380374986466e-10,-2.165794167282795e-09,1.660440492072807e-08,-5.350080006615384e-12,1.287459266222034e-12,5.910772747940512e-11],
			[3.817083512403488e-08,-1.069644240257973e-07,0.07956687713534422,0.01489624450477606,-4.237411666739431e-11,0.008233864086637666,-0.0002247994998883117],
			[-0.002357182237915546,-0.007194803343529618,0.05821032248659777,-0.01303800120643873,0.02132775618859741,0.1797875139345208,-1.971903921065961],
			[1.742888611712773e-05,-4.888220563634229e-06,-0.0001778961946498726,-0.0001620198865212909,-0.0002107396142000768,-0.0001502292090094335,-0.0008563624773246469],
			[1.532723067749936e-10,3.360642396584453e-07,1.002898220875049e-06,4.800747304844091e-07,1.312461714700765e-06,5.191388900299378e-07,1.312586315875395e-06],
			[-5.692095467681183e-11,-8.008313295334161e-10,-2.14359070602828e-09,-2.571150459727692e-09,-2.673804845950069e-09,-2.152335131192602e-09,-3.410645252686307e-09],
			[0.004254790386663364,-0.4562643657289406,0.2554290965339834,-8.30225746623988,-0.003637847973459607,7.237248310404347,500.0356479779889],
			[-5.317511355326642e-05,0.0001328587035831939,-0.0004249778547583489,4.482491399651631e-05,3.753389271136344e-05,-0.0002941360003565987,0.003148895695643992],
			[-4.809386960642018e-07,-8.01793202810488e-07,-3.245400353032903e-07,1.272474299424791e-08,-2.655583826766134e-08,5.157467539984874e-08,6.793526895567092e-07],
			[1.14785116862934e-09,1.069849318502918e-09,1.215966373620245e-09,3.115248520526038e-09,1.363462776850162e-09,1.870165176562359e-09,1.769134725404422e-09],
			[-0.000103119952515436,0.002518084185022879,-0.001188630768688855,-0.1811037681339435,-4.834844790155583e-05,0.0004177888513226762,0.0002848863628790648],
			[-4.831434019711151e-08,-3.062193415407463e-07,1.413653358420318e-06,2.353257070908638e-07,-1.421421143136508e-08,2.022819118944563e-07,-1.635740569230424e-06],
			[2.465712466896822e-09,2.069081082831786e-09,9.63834471116504e-10,-2.149803879456609e-10,1.104773036233242e-10,2.192554113022033e-11,-1.34030387558136e-10],
			[-5.327388120760826e-07,-7.552770338094176e-05,1.696749574489673e-06,-1.158950276038687e-05,-4.627028762837902e-08,-3.351251850965354e-06,5.578620449157842e-08],
			[2.85913293036977e-09,2.375866468790195e-10,-1.354062060611415e-09,-1.989317679885959e-10,-1.774435874694583e-14,-4.369600419823957e-11,2.838011881648131e-10],
			[2.695661113568633e-08,-1.915697260113899e-07,2.902738033297233e-10,4.771911668665005e-08,-2.516438039915541e-11,1.92164793417796e-09,1.069497685000543e-10],
			[0.001351287108826399,0.002221742871822636,0.009146245684364535,-0.2450024599904028,0.006217228710392167,0.06234594478149469,-0.0434330936555575],
			[-1.511094527575181e-05,-2.207625145189855e-05,-4.805116823004961e-05,-0.0004038455748237415,-0.000173579798725567,-0.0002397587864593646,-0.0007955033307204353],
			[7.400087906305622e-08,1.72789405671154e-07,4.587116748344532e-07,4.905550078562006e-07,1.204906637649465e-06,1.706109224303027e-06,2.523986786671744e-06],
			[-1.146619689332247e-10,-3.593544984511571e-10,-1.152164648942642e-09,-1.746854735906509e-09,-2.460809349481426e-09,-4.045203940603458e-09,-5.723839269775632e-09],
			[-0.02657964578910296,1.921776987406571,-0.05807307174877334,-4.207562891087268,0.02097675756241828,-5.875900275375626,-492.5134719439381],
			[-3.685982930223494e-05,-2.633969488133686e-05,-7.028278961178129e-05,0.001898624413378541,2.401169342895795e-05,-9.455441599282107e-05,0.0001457062760066512],
			[-4.83355280703598e-08,-1.726579684546251e-07,-2.880810218637319e-07,1.397814731254465e-06,-3.027458186924444e-08,-4.122928332198859e-08,4.177849388318624e-07],
			[1.575622126787808e-10,3.410981041394573e-10,8.361536132941331e-10,1.525999466332253e-09,7.222050587031062e-10,1.016709819657131e-09,1.039138956061447e-09],
			[0.0001863654709802159,-0.0008850635412546823,-0.001935996904592137,0.09924644059998146,2.929532329868643e-05,-0.0007623695006329278,-0.0008269984276498601],
			[1.562268470778114e-07,1.997845273897262e-07,2.965219639794504e-07,-4.766854680598901e-06,-1.249068256736899e-08,7.165736835845626e-08,-9.188016898389838e-08],
			[1.655381427504848e-10,6.330677223113483e-10,4.873077139608847e-10,-1.776543631326702e-09,3.181083011555413e-11,3.821588329285304e-13,-1.194905060845223e-10],
			[8.50087512558615e-07,1.821064311755775e-06,-2.354612693301842e-06,-0.0001993604942134176,-5.186509308176481e-09,-3.75506895328437e-06,2.144818731648326e-09],
			[4.926402624243336e-10,-3.79128930639407e-10,-2.791340580554402e-10,4.065941528499343e-09,4.512350622459646e-12,-1.463022497228559e-11,2.045136420510898e-11],
			[-4.508962463529742e-08,2.968982035671424e-07,-0.0795668771643015,-0.01489628257862043,5.672605578108184e-11,-0.008233866104166366,0.0002247993809032478],
			[2.014150042235552e-06,2.440447894955585e-07,1.793210706730687e-07,2.020416620247781e-07,1.059224369256218e-07,1.160944875071722e-07,1.215003132275646e-07],
			[2.002237164723858e-07,1.066517534871351e-07,7.115887471108492e-08,5.48770141169226e-08,2.93343329141662e-08,5.488953366826706e-08,5.926211344524856e-08],
			[3.866051349372524e-07,1.115642090345422e-07,1.02995601889228e-07,1.126855479693503e-07,7.060552806543758e-08,1.049508976083975e-07,1.139784338577801e-07],
			[-2.441164714600525e-09,-2.888637952900463e-10,-1.881367702294888e-10,-2.302831984450674e-10,-2.849346214019862e-10,-3.148795763582992e-10,-3.384643354167989e-10],
			[-1.908554173002351e-09,-4.520265270994821e-10,-3.846750820693532e-10,-4.509057021989205e-10,-4.634268405746077e-10,-5.105804541232228e-10,-5.393404647712126e-10],
			[-8.068107429011655e-09,-2.855324271875631e-10,-2.727217168744744e-10,-2.830098066191094e-10,-2.84190563817469e-11,-2.40455583173536e-11,-2.040652995737185e-11],
			[3.494213730464434e-11,-9.294798358830792e-11,-1.194018534375812e-10,-1.454590446217264e-10,-1.922907940221375e-10,-2.518544662762764e-10,-2.919930008477391e-10],
			[-1.168347366372483e-10,-1.222320307484729e-10,-5.551656499838715e-11,-6.321755410346357e-11,-1.140730160626816e-10,-1.743557376486421e-10,-2.00810978116907e-10],
			[-6.351094145615596e-10,-2.25852943631815e-10,-1.81451347251548e-10,-1.306953619190271e-10,-2.094103180460856e-11,-2.008391410897292e-11,-1.420718678309387e-11],
			[-5.208083983655743e-10,-1.391510571751132e-10,-8.65500693353367e-11,-1.243371625123345e-10,-2.010597740034387e-10,-2.590037798354405e-10,-2.929232283906013e-10],
			[-7.523372627557341e-11,-1.370591654431757e-10,-2.286095036856569e-10,-3.124486867444706e-10,-3.81529660157181e-10,-4.739625047615731e-10,-5.26898872927646e-10],
			[-1.501590478671108e-09,-2.351857589659204e-10,-2.288389872558046e-10,-1.942344784501858e-10,-2.134952817963962e-11,-2.132657373797323e-11,-1.529219563638251e-11],
			[-7.055368358572989e-10,-1.079218955861607e-10,3.551663952686367e-11,8.402833981655385e-11,8.065884339115809e-11,1.128690887660332e-10,1.303804998072812e-10]
		],
		"green": [
			[0.01080236300512728,0.3520458396660244,27.81196332590332,-43.25860221677587,-2.876906437974721,-368.7943545058487,-994.6106941795149],
			[-0.0001347341686858151,0.004501563510698954,0.00762381581729342,0.4248564502966204,0.006558342247909951,0.003407333366090591,-0.4614966215760199],
			[2.367627291119464e-06,-6.277356175334335e-06,-5.666856105646229e-05,-0.0001840817255384212,-2.213221355284665e-05,-2.449321387347752e-05,-0.001026994430015351],
			[-1.135919508290982e-08,2.477825341592043e-08,1.595886398986219e-07,-6.408901823452608e-09,1.129439662565923e-07,1.786051516777196e-07,3.492675963746291e-07],
			[1.814639087765558e-11,-4.006746169394302e-11,-2.578730690797239e-10,-3.0833184141613e-11,-2.599940710240127e-10,-5.384651546932352e-10,-7.382500422598831e-10],
			[0.02129867530362171,-0.5687267234987342,0.177921756649944,-2.150165416849529,0.003828077712495374,0.01778972625941469,38.01076582433239],
			[-8.172247585571865e-07,-9.19636647568843e-05,-5.798943691696058e-05,-0.002930151793203145,-9.101290633250134e-06,-2.249397052361846e-07,0.0008394036038472868],
			[-3.720901912374907e-08,-2.477990942044728e-08,1.829222892226711e-07,8.514433198060575e-07,5.182101565310298e-08,4.022809709237824e-08,1.063146536281659e-06],
			[7.040503548576862e-11,4.503373102728141e-11,-3.378690275670015e-11,1.262378400978417e-10,1.498508540864624e-10,2.090891609158487e-10,1.706911730586046e-10],
			[-8.76144760101521e-05,-0.0005282118772241575,0.004455640797531459,0.003175816511707568,-4.885594261233705e-05,-0.0007297685016703569,-0.001585297139845563],
			[1.588059457260935e-07,4.816752059501699e-07,1.074564966674332e-07,6.700038962058275e-06,1.048391947321511e-08,2.384336312421563e-10,-4.942565481504761e-07],
			[6.816199355793798e-11,2.01688267563626e-10,-6.252867436031583e-11,-8.594683438319633e-10,6.113135515385013e-12,7.39311686076363e-12,-2.551553004801753e-10],
			[-6.464272042783982e-06,2.591004423871325e-05,-2.072727653287427e-07,-5.981597228133436e-05,9.000056908148101e-08,5.948137800870961e-06,1.257308636040638e-06],
			[-1.059197673118256e-09,-7.976017982313819e-10,5.084335526158471e-12,-5.048138150959853e-09,-3.47775690087259e-12,1.20689375844091e-13,9.53544200114729e-11],
			[8.380188598139842e-08,-3.402813172178367e-08,-0.7490312219501783,0.0578378053999835,-1.274803696678864e-10,0.0003462857520776019,-0.0006069771254373075],
			[-0.006047840640309541,-0.01820896599413206,0.04573802755969168,-0.05758127920923285,-0.005850055315655538,0.28756034154889,-4.181234661840906],
			[0.0001026966576653739,5.201082534262424e-05,2.284501943852123e-05,0.0004524399836664945,0.0002291127560678116,0.0005421630951141666,1.222073291638585e-05],
			[-5.455901915754547e-07,9.49810352711839e-08,7.849706364087515e-08,-1.234861365838028e-06,-6.834288804664369e-07,-2.510385743643144e-06,-1.094954021574886e-06],
			[9.235509547070242e-10,-1.184308326207417e-10,-4.230662773943666e-10,-1.806059170186404e-10,3.661708831449744e-10,1.526448153300348e-09,-1.25110821722067e-09],
			[0.03407748350974617,-0.1028743000113035,0.2157030978051143,2.869049652628084,-0.006752724857915096,5.528225496341965,6323.343105317612],
			[0.000118155642780332,0.0001029628929565219,-0.0004771691642938968,-8.797014142633501e-05,2.138734230351746e-05,-0.0006057813604843874,0.006443044410066926],
			[-1.553626280220448e-06,-5.994550844945553e-07,-4.325882166999917e-07,-1.387328968770481e-06,1.32206198464817e-07,5.132371890235277e-08,4.159851841593993e-07],
			[3.759478460442659e-09,-6.810127912491748e-11,8.809840297354391e-10,3.961743930656091e-09,2.039735633372425e-09,3.199167584682349e-09,3.164869096832607e-09],
			[-0.0003445628677736191,0.0008979514643581941,0.002710089108428727,0.03106407160388536,-8.402771281691224e-05,0.0001393748214989825,-0.0008085154456559209],
			[3.258911630561089e-08,-1.58468304798505e-07,1.554754415553167e-06,1.141786845769003e-06,9.784065633039497e-11,4.152413761895785e-07,-3.296427595295177e-06],
			[4.156284774149253e-09,3.486667711051084e-09,2.366234900044585e-09,2.121932095377267e-09,1.803109456075811e-10,7.08103154496211e-11,-2.77307329996152e-11],
			[7.163678389276025e-06,-2.634838288609354e-05,-1.484956979027205e-05,-1.506912657886316e-05,-8.837110983807904e-08,-2.566121583060762e-06,-5.311798354286656e-07],
			[-3.778580952764978e-09,-3.093009314325612e-10,-1.593542394606714e-09,-1.376340634052072e-09,-7.940182552720679e-12,-9.156348407879897e-11,5.619689031182795e-10],
			[-2.24602074906099e-08,-6.384524125005239e-08,1.051732881976084e-09,3.00668785323467e-09,-2.149405774362874e-11,1.478500642850099e-09,-4.131705975390632e-10],
			[8.533159326939402e-05,0.005404344582103043,-0.02131629509740374,0.4333805390847374,0.007842831849885677,0.03617457744845369,-1.287557892193434],
			[-2.214122335062336e-06,-5.001269954447714e-07,-3.766662139781934e-05,-0.0004032155407152476,-0.0001668430009213221,-0.0002073463183019169,-0.0006159899460367741],
			[1.954393865144857e-08,5.833667547922531e-08,4.434066948520345e-07,4.348846198953878e-07,1.111069354500862e-06,1.652298068116834e-06,2.366998084290013e-06],
			[-4.531888479412229e-11,-1.892689284939905e-10,-1.079792648958077e-09,-1.343651544533382e-09,-2.213944021075557e-09,-3.545580898362404e-09,-4.849366582054065e-09],
			[-0.04953714636424157,0.6757369460685078,-0.7374000519001184,-1.234088978007832,0.01660772117377415,-4.553245826009207,-6359.108443052198],
			[5.835667503144535e-06,-0.0001203106594998255,0.0001990765323766769,-0.002912820870551071,1.0601667220387e-05,-5.341914035372132e-05,0.002069581159123672],
			[-9.760630631763647e-08,-1.938440363303558e-07,-2.538051427958861e-07,1.49129852277913e-06,-2.730260862216992e-08,-7.424561766365708e-08,2.507364688797755e-07],
			[1.76211287949553e-10,4.454785984105313e-10,6.045151440935803e-10,9.985546507798515e-10,5.1100119574184e-10,6.488580540988803e-10,6.22943854303868e-10],
			[0.0002042095514405946,-0.0003941601292566973,-0.005591987317223795,-0.02907402450516299,0.000104094932892673,-0.0004053934898230231,0.0005027670896322314],
			[1.781658331532567e-07,7.016721225032173e-07,-5.699653434793596e-07,6.549590835160334e-06,-2.378480270472189e-09,4.499881684676325e-08,-1.087644515163617e-06],
			[1.991733432803935e-10,4.67663341212634e-10,3.875535416593039e-10,-1.83141166757861e-09,2.333686082363264e-11,1.95642106811983e-11,-6.327663249498182e-11],
			[1.624421003357911e-06,2.910992671801412e-07,1.187524985817531e-05,6.139780759930001e-05,2.321965139325962e-08,-2.941403822097383e-06,-2.2022452461436e-08],
			[-1.38814199891995e-09,-1.232398282208037e-09,6.138809369316197e-10,-4.826052294080386e-09,4.909605592036025e-13,-1.011783322755005e-11,1.910814945072155e-10],
			[-6.833725343084694e-08,9.849980318210646e-08,0.7490312232832125,-0.05783779725247824,1.413199563904904e-10,-0.0003462873032058465,0.0006069774407520148],
			[-4.050427176472854e-08,2.140786723796808e-07,1.635120900715457e-07,1.687124917582044e-07,9.803096473777291e-08,1.142640326971013e-07,1.160921985603274e-07],
			[-7.588995559565699e-08,2.675500000873967e-07,1.565224445584072e-07,1.603867972439211e-07,9.409241147314075e-08,1.441812921036644e-07,1.630611909376226e-07],
			[-2.521670194692595e-08,4.783661069956891e-08,9.189416289562435e-08,4.897795953496181e-08,2.465965299240693e-08,2.60880583462456e-08,1.541272381599499e-08],
			[1.627824995521572e-11,-6.536345196568319e-12,-4.545478496986169e-11,-5.683723139989136e-11,-6.969459614277854e-11,-1.075770352336357e-10,-1.362234704543855e-10],
			[2.218079514169465e-10,-4.50300586662148e-10,-4.280021339328787e-10,-5.124004667734039e-10,-5.726036874223631e-10,-6.23157508011962e-10,-6.404053448283155e-10],
			[2.258263280249931e-11,-3.650242731084553e-10,-2.339950115706883e-10,-2.08887333057659e-10,-2.462517657014119e-11,-2.121799847409977e-11,-1.665085959648859e-11],
			[7.301987211842166e-11,-1.199334746645145e-10,-2.08100587974184e-10,-2.737043059252128e-10,-3.417624213385543e-10,-4.457863828542405e-10,-5.132496026564967e-10],
			[3.221359029117206e-10,-3.682206610565208e-10,-1.920852875457378e-10,-2.296456412226176e-10,-2.964688590294944e-10,-4.01028610107151e-10,-4.42376942516411e-10],
			[1.287724291346166e-10,-5.690393368917693e-10,-2.790150040931871e-10,-2.48732922564383e-10,-3.519984633950196e-11,-3.511727149292825e-11,-3.103416057138186e-11],
			[2.30199103941253e-11,1.084737863532418e-11,-8.178963747337189e-11,-3.896361855050749e-11,-3.847111677663636e-11,-4.909303973156839e-11,-4.914586188054582e-11],
			[6.356064843197459e-11,-8.61917301911895e-11,-1.610786708195222e-10,-1.743102896468672e-10,-1.781910064119125e-10,-1.871381763193046e-10,-1.944890571357784e-10],
			[3.484276840390305e-11,-1.125104064468381e-11,-1.157823474346172e-10,-4.964438067491767e-11,-3.926615665121769e-12,-2.732733954693652e-12,2.584337483649625e-12],
			[2.409836235786116e-11,-1.678622861897319e-10,-2.378465792783504e-11,4.905710029280719e-11,8.574653955787157e-11,1.063347774471476e-10,1.269893418281409e-10]
		],
		"blue": [
			[0,3.956957396256629,2.594251913261585,2.983468883100146,-2.262287807738639,-221.2351842489898,-361.673056531183],
			[0,-0.001338279939907854,0.01638182587519433,0.1170898346916832,0.002873613468717223,-0.0003651670499885357,0.2896966303019305],
			[0,-4.144588115325286e-07,-3.574828718621606e-05,0.0002602196678546641,-1.098772808016144e-05,-6.498012851340941e-06,-0.0001265025213522976],
			[0,6.751522349104136e-09,3.433889876694534e-08,-4.511751599855492e-08,5.342738390597581e-08,9.262266299200262e-08,9.250665522613582e-08],
			[0,-1.242157685584418e-11,-5.722198205739928e-11,1.988801177267845e-11,-1.367511224111446e-10,-2.323641239156782e-10,-4.274772977636853e-10],
			[0,0.6643602549394843,-0.03367624166171904,-0.1528410102494094,0.02190223227316608,-0.137248969571,18.36640811682464],
			[0,1.323373901561212e-05,-0.0001518066064319973,-0.001019589648376761,-2.534056563142317e-06,3.098508340178853e-06,-0.000459169111252992],
			[0,-4.115324029146348e-08,1.820780813993332e-07,-1.23329240261196e-06,4.263226519871626e-08,2.019649746071533e-08,1.670460557787386e-07],
			[0,2.144902745591321e-11,2.786210699830666e-11,1.148786028331197e-10,9.410079491734361e-11,1.061676171543559e-10,1.597118003059023e-10],
			[0,0.001276693413018059,0.00125993879394909,0.01026295434370667,-1.123064035067457e-05,-0.000435815307840455,-0.0005842517047303763],
			[0,-9.45503888324475e-08,3.956289740393284e-07,2.841551772826605e-06,1.697384818851342e-09,-7.162907531408764e-10,2.418658661179423e-07],
			[0,2.016493204623558e-10,-1.562753309697051e-10,1.575729880785763e-09,-2.215338354582088e-13,1.01807509328255e-11,-3.735622260959941e-11],
			[-0,-4.525877426891822e-05,-7.199077525200543e-08,9.682685896213764e-06,5.262530582239332e-08,3.579662494409621e-06,4.211771938288419e-07],
			[0,1.814788080024398e-10,-2.89369823938018e-10,-2.553518091815656e-09,-4.311618480364176e-14,-1.702022649619007e-13,-4.214636120215931e-11],
			[0,5.94466100453211e-08,-0.2621467629678968,0.009743575452376611,-1.713184238312879e-13,0.001444620025594216,-9.832283131970741e-05],
			[0,0.01375766503012749,0.01316184989582459,-0.023699237769144,-0.002490881068117961,0.0819852105841378,-1.18394413868257],
			[0,-8.253261986188447e-05,2.706461907238494e-05,9.375227861895986e-05,7.378934352208154e-05,0.0001867725060127509,0.0001974855316199902],
			[0,1.342499818169931e-07,-8.394669856020768e-09,-2.189506870594167e-07,-2.079172577703638e-07,-8.701592778868909e-07,-7.853945559572155e-07],
			[0,-1.377867014617927e-10,-2.238137880799497e-10,-1.825891669293911e-10,1.16907715854089e-10,7.575751304688942e-10,4.135472645665754e-11],
			[0,0.3887909601148004,0.07724217783106349,-0.1427081724261476,-0.002522188859797844,3.409719042679853,2584.519107197511],
			[0,-0.0001948191860110659,-0.0001661948187885815,-1.397964835098895e-05,6.669582795381094e-06,-0.0001770120961035522,0.001810283178926113],
			[0,6.061120001697695e-07,-1.888826288817606e-07,-3.53647446566623e-07,2.860158754888565e-08,5.893480765292679e-09,9.21696283416527e-09],
			[0,-1.51418674243237e-10,5.202994670096435e-10,1.04423910630776e-09,6.450413446787866e-10,9.827342663358163e-10,1.118959317186306e-09],
			[-0,-0.0009321494800742986,1.930073545145807e-05,-0.01353072089634751,-6.670665483356634e-05,0.0003890987688895116,-0.000282120194828559],
			[0,5.982668141447532e-07,5.441423454439051e-07,4.186720354982259e-07,1.283636382599108e-09,1.219251002853211e-07,-9.230702464813978e-07],
			[0,-7.355702940149064e-10,6.972102418720153e-10,6.473791495514226e-10,6.357174053066921e-11,2.935148473928002e-11,1.213502291909072e-11],
			[0,4.452453505846303e-05,-9.796248342259272e-07,-4.232944743272663e-06,-3.688367683052366e-08,-1.608942265084318e-06,-2.375498967726372e-07],
			[0,-3.627899069754265e-10,-5.417702322496357e-10,-5.711071046532774e-10,-3.510359562566921e-12,-2.701603081378482e-11,1.571745686823711e-10],
			[-0,1.196609644399821e-07,4.006720136319219e-11,-5.19969495853049e-10,2.151186387360878e-11,9.115461758316731e-10,-1.767040433569954e-10],
			[0,0.01476528467693185,0.00329798146558507,-0.1575619504947136,-0.005145694123933091,0.09321872566853509,-0.5408958136283858],
			[0,-0.0001213975095505157,2.448238379588724e-05,-0.0001104974369364505,1.540258895891523e-05,9.32973036875234e-05,-0.0002463709629264705],
			[0,2.239943137124292e-07,1.997890404707095e-07,-1.396631725808908e-07,2.916405546912872e-07,-1.734569736202383e-07,9.022276515304942e-09],
			[0,-2.221915526479667e-10,-5.961289333338079e-10,-9.526424583715654e-10,-9.305486235702265e-10,-8.254888967170445e-10,-1.898298412222339e-09],
			[0,-1.140180245091541,-0.07734622261093514,-0.006359791806264448,-0.008350773554841361,-2.677862794222573,-2602.171765125592],
			[0,-0.0001911263788660239,-7.973475372130646e-05,0.001087750751380901,1.765205469734841e-05,-0.0001928360921314259,0.0008471106525089542],
			[0,9.008395053972661e-07,-4.033759279605801e-07,5.497312293492456e-07,6.987899122728597e-08,4.637343342836777e-08,3.888693374493479e-07],
			[0,-4.131188021467902e-10,4.990595198735442e-10,1.837312205069327e-09,7.77414829009028e-10,1.19314075722852e-09,1.390057115364597e-09],
			[0,0.0004062177505699473,-0.001112792111368598,0.005354674741181739,5.480522561820896e-05,-0.0005491093530250279,0.0003404615161988806],
			[0,4.550047674915964e-07,3.351528234428712e-07,-2.557676924347136e-06,-1.023596907945285e-08,1.321804199048033e-07,-4.387323064464286e-07],
			[0,-1.056632187494683e-09,1.29236114819875e-09,-4.705290706762326e-10,7.690434106786599e-11,3.348344193393798e-11,-7.604626022293562e-11],
			[-0,-2.056762537323217e-06,6.822093843051106e-07,-1.041986904251253e-05,4.36385702575261e-09,-1.707296371085718e-06,-1.238927557025884e-08],
			[0,-1.111180898529591e-11,-4.18560026325127e-10,2.072327896348369e-09,4.230468620608908e-13,-2.917835262601492e-11,7.610983612449375e-11],
			[-0,-1.753923616342941e-07,0.2621467632267422,-0.009743570963769554,-2.757429781811216e-11,-0.001444620980524206,9.832298723719504e-05],
			[0,6.686607515203804e-08,1.074956545854276e-07,6.851780376092344e-08,3.858006055862981e-08,4.205524571521933e-08,4.031206969813188e-08],
			[0,3.247606691034868e-07,1.170858562221788e-07,7.000960921122773e-08,3.834235470225031e-08,5.859689361868883e-08,5.767336436464969e-08],
			[0,8.310185664281577e-08,1.206545674008477e-07,9.567592918365056e-08,3.571360373489245e-08,4.431723368370035e-08,3.74615857906244e-08],
			[0,2.351683128622706e-11,-4.019681588760834e-11,-8.2614045111183e-12,-4.209277153763357e-11,-4.734081121022922e-11,-5.482640928555225e-11],
			[0,-9.416083251374896e-11,-2.130959750219857e-10,-1.91655217190634e-10,-2.106615490059974e-10,-2.270864133048529e-10,-2.342969229480272e-10],
			[0,-7.45068935738163e-11,-1.387626467076033e-10,-8.966351490409551e-11,-7.544564013347534e-12,-7.795294897807189e-12,-4.978570695438743e-12],
			[0,-2.784083393350116e-10,-1.955956185194361e-10,-1.727021939632235e-10,-2.239626095087346e-10,-2.712690420681715e-10,-2.918175057052549e-10],
			[0,-2.306649540406543e-10,-1.079037128505821e-10,-9.604287531978789e-11,-1.00424629885422e-10,-1.482530157026652e-10,-1.732999055004949e-10],
			[0,-7.177236643093803e-10,-1.78851699850367e-10,-9.680132609094526e-11,-1.683660097755889e-11,-1.645198054945634e-11,-9.905186607775848e-12],
			[0,1.294286577248216e-11,-5.27518998203003e-11,-6.304304847586677e-11,-3.501131752140324e-11,-4.634358140574868e-11,-5.862461564852465e-11],
			[0,-1.417477131398856e-10,-2.118643143218019e-10,-2.13898973826357e-10,-2.401127736411154e-10,-2.681543595000801e-10,-2.80166913567826e-10],
			[0,-8.566588072582241e-11,-1.931070136510817e-10,-1.277622482173925e-10,-7.440262053655259e-12,-8.123156900464362e-12,-1.390178444409955e-12],
			[0,-2.023904060262347e-10,-5.263779756290728e-11,-2.731766249715077e-12,4.4805005733207e-11,6.483474764921301e-11,7.073547144197373e-11]
		],
		"ir": [
			[-0.3802615856528774,-2.021264197597128,-4.797710863230848,444.1755147332349,-5.997246928742096,-894.8864870930279,-1389.105971502966],
			[0.0005758180629551217,0.001003302732273837,0.1062256968189718,-2.797589545749083,0.03615053272521283,0.01694509438647161,-2.794869596878281],
			[1.996619568956204e-05,4.236069142816407e-05,-1.74272596000073e-05,-0.0001607225812286694,-9.904604302439268e-05,-9.283237929916878e-05,-0.001600053195560292],
			[-9.406921557197846e-08,-1.285842597521977e-07,2.249551924484029e-07,-1.410472889170359e-06,7.094652997004329e-07,1.361207255077708e-06,1.780887799712813e-06],
			[2.014143570262325e-10,1.250493954917957e-10,-3.283610878365364e-10,-6.671887866066115e-10,-1.977490428887838e-09,-4.920650900086769e-09,-7.017729368931144e-09],
			[-0.02967817646135325,-2.006727206477026,-0.3093087354521671,18.89864892469041,0.006449369188077196,-0.1438063655449049,7.913899628004245],
			[-3.293344613272627e-05,-3.354957280157048e-05,-0.001008526593162245,0.0198863065872728,1.642252947028994e-05,5.115252885633961e-05,0.004469530762886169],
			[1.272272592856755e-07,-4.39895124631142e-07,-4.615546108705888e-07,1.598095478223865e-06,3.533445498450547e-07,1.718026836273705e-07,1.744391231386914e-06],
			[-5.072473906356064e-11,6.756854512459588e-10,2.94230634490356e-10,4.968000911263957e-09,1.762351781205293e-09,2.514707901311089e-09,2.865400162542793e-09],
			[0.00129392312686229,-0.002774489441570004,0.005143305994225347,0.1962229857426806,-6.113286085270155e-05,-0.001800818988649336,-0.0007787142484737999],
			[-8.205086494123138e-08,3.432292451565284e-07,3.341197040018462e-06,-4.716606841537697e-05,9.870164956384458e-09,-1.302806354814604e-08,-2.328067718458474e-06],
			[5.261810781059104e-10,2.414874931298008e-09,2.687887750171372e-09,-1.839543015009989e-09,1.290930025505135e-10,1.135487318119015e-10,-3.394461829547985e-10],
			[1.469640112062253e-05,0.0001060420006471034,6.08007162268342e-07,0.0004408843686958025,1.911644638062016e-07,1.479655295443532e-05,1.063146410868753e-06],
			[7.131493660264386e-10,-3.656930192833754e-10,-3.311494434155273e-09,3.777431046352238e-08,-8.992332023087039e-12,2.620866243234303e-13,4.049193676213108e-10],
			[-5.579275135900115e-08,-1.517338903203789e-07,-0.1986277514098104,0.06472885680229896,-1.512822635312863e-10,0.01198030826509129,-0.0002424648951150333],
			[0.003178571184477178,-0.005709540002738859,0.08886164348067109,-0.07079241473170134,0.01788438807911584,0.4468385639959674,-5.233604802901842],
			[-2.036536494148838e-06,2.424698160066374e-05,-0.0001854517156972395,0.0003715840493279548,5.081597231128526e-06,0.00042885974074348,-0.0004447261107751457],
			[5.608625964675802e-08,1.539005753956339e-07,1.180433047974349e-06,-3.281129851357015e-07,7.049091309267173e-07,-2.008287785684824e-06,-1.583306483822538e-07],
			[-1.367648790670689e-10,-5.415397810605163e-10,-2.881160458381043e-09,-3.061909821583686e-09,-2.404069568608804e-09,-3.615285477385921e-10,-4.313067012070248e-09],
			[-0.08820430140165314,-0.6797731225035853,0.4109460672466697,-18.70320688517522,-0.01047927991208973,13.9045935596603,5596.408332127986],
			[-5.010466579109474e-05,0.0001357804384932767,-0.0007132163409730828,-5.947362896214055e-05,5.662505387046333e-05,-0.0008623549878990062,0.008111987581954591],
			[-3.941712354349928e-08,-9.902436372574142e-07,-7.281929581017279e-07,-2.17393929705396e-06,5.772217337700035e-08,2.817383560284696e-08,7.284298683885649e-07],
			[7.54826114922093e-10,1.646284144268377e-09,2.366040709664294e-09,6.477725607797312e-09,3.364155315138929e-09,4.937624144857623e-09,4.96807515862673e-09],
			[-0.002573906021185261,0.003546868566019743,-0.001992350068056901,-0.4004571930067435,-0.0001280880392488491,0.0006930422721578175,-5.926237938166086e-05],
			[2.319987995812459e-07,-3.77151853765984e-07,2.386525920465817e-06,1.580928221825405e-06,-4.234039517687816e-09,5.986777793998873e-07,-4.140901573963689e-06],
			[6.097477634783721e-10,3.778673035460892e-09,3.019067137198791e-09,3.035815199916206e-09,2.952056569543056e-10,1.109247015174758e-10,-8.696375224581039e-11],
			[-7.178166406348073e-06,-0.0001069212919729165,3.343715293618133e-06,-2.453260157534321e-05,-1.463669803084359e-07,-6.442751451271854e-06,-2.323134188416495e-07],
			[-3.599748023847318e-10,6.126383836657194e-10,-2.318537363778027e-09,-1.892789693214085e-09,-1.269629739344023e-11,-1.321668724329846e-10,7.055983103575757e-10],
			[1.149440710289384e-07,-2.732730621150585e-07,3.029552433339736e-10,6.143982252457378e-08,-4.210863209250946e-11,3.697594564454782e-09,1.362131830544912e-11],
			[0.002817974434846776,0.0004785979761880322,0.02809624308344946,-0.8054222721955373,0.01251109364286724,0.1171385045316008,-1.120201798472552],
			[-2.994678615626219e-05,-3.748370515831771e-05,-5.807094331625704e-05,-5.111494561750465e-05,-0.0003240010416670553,-0.0004013284756406278,-0.001243988025524558],
			[1.519889004732623e-07,3.349936359796262e-07,8.41993402160103e-07,7.47425717528949e-07,2.360000138405259e-06,3.142904516999405e-06,4.768055063759724e-06],
			[-2.346989622490704e-10,-7.266013780284364e-10,-2.166976175618478e-09,-3.439825884048704e-09,-4.884654576140466e-09,-7.687340959454745e-09,-1.114427356828621e-08],
			[0.1124121795089204,2.73201394150565,-0.06925264351182606,-4.942157400812631,0.03372759761630181,-11.32912921280129,-5601.394912009832],
			[-3.829149525869373e-05,2.224943956824643e-05,-0.0002429050738754451,0.005653264352519418,3.971579356135763e-05,-0.000184151003041085,0.001844734112298035],
			[-2.450897250028823e-09,-3.462682445374542e-07,-7.473957201741715e-07,-6.543437100981644e-07,-3.496779606496102e-08,-8.900747304068537e-08,5.513443514124304e-07],
			[1.614667369990832e-10,6.545315227542032e-10,1.629327936416941e-09,3.561414016794892e-09,1.52230497848757e-09,2.170089804010307e-09,2.234883416821289e-09],
			[0.001685587997427183,-0.001209867075194515,-0.003199389927241432,0.2230613555206388,0.0001232829703324634,-0.001354957523872505,-0.001473503357098843],
			[1.743581985253841e-07,4.347895831656186e-09,9.376352456981873e-07,-1.305445554048621e-05,-1.387796163436122e-08,1.411178003718632e-07,-9.62932220952919e-07],
			[3.877103648807686e-10,1.38615091381624e-09,1.454959548354776e-09,5.466131552971774e-10,8.546010137645776e-11,2.321702266245452e-11,-1.445749791272623e-10],
			[-1.314213899214245e-05,2.586398237107676e-06,-4.098630357094323e-06,-0.0004492719627607216,1.356614817354523e-08,-7.253729873758135e-06,-2.106388892643989e-08],
			[-4.404619978080733e-10,-4.156380689018915e-11,-9.705104054746476e-10,1.023853600536081e-08,3.175960677473126e-12,-2.951136401743141e-11,1.70167921359912e-10],
			[-3.520339787688904e-08,4.225939916223911e-07,0.1986277514050843,-0.06472889684495166,1.751413743693306e-10,-0.0119803121456812,0.0002424647752432888],
			[5.587406373625155e-07,2.548636447979637e-07,3.06444994819331e-07,3.578028898276236e-07,2.049538013990922e-07,2.348152274215633e-07,2.457540205501878e-07],
			[3.235917385051483e-07,1.226639106983907e-07,1.558765526454026e-07,2.154467033560843e-07,1.09217927559541e-07,1.85537901542517e-07,2.078049893067804e-07],
			[2.428902212651374e-07,1.334881366712134e-07,1.586061547028743e-07,2.155461179548964e-07,1.105235923424945e-07,1.6187928328231e-07,1.775015815078968e-07],
			[-6.126579936452817e-10,-2.242167689878423e-10,-2.524851199913833e-10,-3.260049302317527e-10,-4.010030237806173e-10,-4.866848122764946e-10,-5.494501842055706e-10],
			[-1.050553671206453e-09,-5.869878539980462e-10,-7.50841715281325e-10,-9.395512361238847e-10,-1.050380490716578e-09,-1.148965173929023e-09,-1.21260129747651e-09],
			[-6.851243110124158e-10,-4.420250484013371e-10,-5.107124404734549e-10,-4.952903676239965e-10,-5.542643612984077e-11,-4.588614755633569e-11,-3.651196203855168e-11],
			[-1.909813362506077e-10,-1.945007540595443e-10,-3.090507486231481e-10,-4.123793490254208e-10,-5.541068856772172e-10,-7.25914561232581e-10,-8.287321591252162e-10],
			[-5.027034539106494e-10,-1.397756082025256e-10,-1.503289049243472e-10,-2.276271309851937e-10,-3.723123545109066e-10,-5.37686882108753e-10,-6.17487593899898e-10],
			[-7.603287525433143e-10,-3.380468959731921e-10,-3.920942864849807e-10,-4.574202846458714e-10,-5.793006487773425e-11,-5.461870908353425e-11,-4.385930653832705e-11],
			[-3.990302198406192e-10,-1.417444284635445e-10,-1.435565934540332e-10,-1.986278249141947e-10,-2.90924124674006e-10,-3.815196232983994e-10,-4.304772387035435e-10],
			[-1.296000333244102e-10,-2.529181786353444e-10,-3.862985705646735e-10,-5.506109634642653e-10,-6.692048743330529e-10,-8.079294499611813e-10,-8.921912940305511e-10],
			[-4.380050052081683e-10,-3.421324413536483e-10,-3.480129428312322e-10,-3.805076613478643e-10,-3.17198243554468e-11,-3.060735734656392e-11,-2.332897199542651e-11],
			[-5.124165968136216e-10,-8.902513606918791e-12,9.305304645544277e-11,1.757346816191995e-10,1.943379713795528e-10,2.398158174303176e-10,2.839377339049956e-10]
		]
	}
}
