<?xml version="1.0" encoding="UTF-8"?>
<svg width="240px" height="240px" viewBox="0 0 240 240" version="1.1" xmlns="http://www.w3.org/2000/svg" xmlns:xlink="http://www.w3.org/1999/xlink">
    <title>com.android.notes_b_s6_1x1_1_sc</title>
    <g id="com.android.notes" stroke="none" stroke-width="1" fill="none" fill-rule="evenodd">
        <g id="编组" transform="translate(104.518904, 69.764043)" fill="#FFD062">
            <path d="M-3.97903932e-13,0 L30.9596113,41.5505455 L30.959,41.54 L30.9629139,41.5459571 L30.9620832,100.51102 C30.7539324,100.426572 30.5669993,100.287528 30.4240388,100.101347 L0.001,60.48 L-3.97903932e-13,0 Z" id="形状结合"></path>
        </g>
    </g>
</svg>