<?xml version="1.0" encoding="UTF-8"?>
<svg width="240px" height="240px" viewBox="0 0 240 240" version="1.1" xmlns="http://www.w3.org/2000/svg" xmlns:xlink="http://www.w3.org/1999/xlink">
    <title>com.android.notes_b_s6_1x1_0_mc</title>
    <g id="com.android.notes" stroke="none" stroke-width="1" fill="none" fill-rule="evenodd">
        <g id="编组" transform="translate(68.400000, 69.764043)" fill="#FFD062">
            <path d="M98.2388011,1.30909091 C99.7482784,1.30909091 100.415914,1.44864578 100.981742,1.7128325 L101.220164,1.8336424 C101.850841,2.17591815 102.3458,2.67819389 102.68309,3.31819389 L102.737449,3.42421696 L102.837449,3.64049144 C103.057114,4.15697343 103.180632,4.78091208 103.1979,6.02819026 L103.199379,81.3726274 L103.194412,81.9083968 L103.177633,82.6429871 L103.14964,83.3016852 L103.11041,83.8923486 L103.059918,84.4228347 C103.041208,84.5905069 103.020618,84.7494592 102.998143,84.9010011 L102.92506,85.3347051 L102.840646,85.7318043 L102.794183,85.9190825 L102.69273,86.2760071 L102.637734,86.4476179 L102.519188,86.7820472 L102.38922,87.1113015 C101.846466,88.4284454 101.028984,89.5282261 99.9300735,90.4196589 L99.6538045,90.6369276 L99.3694938,90.8444714 L99.2219983,90.9452781 L98.9116774,91.1423246 C98.3743435,91.4665698 97.726016,91.7730168 96.8117222,92.1071096 L96.2299902,92.3112463 L95.5769875,92.5241993 L94.8452756,92.74815 L67.9254147,100.554666 C67.6406574,100.637243 67.3438976,100.617683 67.0809876,100.51102 L67.0818182,41.5459571 L67.078,41.54 L67.07941,6.34362912 C67.07941,4.92125149 67.1979876,4.23547754 67.4233686,3.68503651 L67.5349315,3.43840683 L67.5963202,3.31819389 C67.93361,2.67819389 68.428569,2.17591815 69.0592459,1.8336424 L69.2976679,1.7128325 L69.5139187,1.6204657 C69.9986922,1.43287831 70.6087399,1.3272043 71.7297651,1.31122151 L98.2388011,1.30909091 Z M36.1189043,0 L36.119,60.48 L36.1189043,60.4794434 L36.1169183,93.1345972 L36.1011072,93.7784578 C36.053802,94.9794743 35.9128079,95.6811821 35.6854986,96.2601304 L35.5646852,96.5411179 C35.5220391,96.6325326 35.4770296,96.7222806 35.4296907,96.8121051 C34.979971,97.6654384 34.3200257,98.3351394 33.4791231,98.7915071 C33.3906071,98.8395458 33.3021665,98.8852207 33.2120834,98.9284972 L32.9351892,99.0510965 C32.3646746,99.281766 31.6731887,99.4248444 30.4896677,99.4728489 L29.8551864,99.4888937 L29.5039725,99.4909091 L6.6132462,99.4909091 L6.26203231,99.4888937 L5.62755099,99.4728489 C4.44402999,99.4248444 3.75254409,99.281766 3.18202949,99.0510965 L2.90513524,98.9284972 C2.81505221,98.8852207 2.72661161,98.8395458 2.63809554,98.7915071 C1.79719292,98.3351394 1.13724762,97.6654384 0.687527975,96.8121051 L0.552533493,96.5411179 L0.431720054,96.2601304 C0.20441077,95.6811821 0.0634166845,94.9794743 0.0161114219,93.7784578 L0,93.1345972 L0,14.2555109 L0.0134886945,13.6440447 C0.0539604956,12.5126298 0.175417065,11.9045882 0.378187728,11.3567559 L0.486350759,11.0857129 C0.812020481,10.3198229 1.30099323,9.68430037 1.95420534,9.17792823 L2.06980712,9.09025795 L2.3075966,8.92388093 L2.56441521,8.76684746 C2.65455932,8.71571252 2.74992454,8.66561327 2.85256043,8.61602816 L3.18432975,8.46829363 C3.42278344,8.37013679 3.69851819,8.27195021 4.02793064,8.16956137 L4.56435719,8.01230486 L4.86660714,7.9303349 L36.1189043,0 Z" id="形状结合"></path>
        </g>
    </g>
</svg>