<?xml version="1.0" encoding="UTF-8"?>
<svg width="480px" height="480px" viewBox="0 0 480 480" version="1.1" xmlns="http://www.w3.org/2000/svg" xmlns:xlink="http://www.w3.org/1999/xlink">
    <title>com.android.notes_b_s5_2x2_mc</title>
    <defs>
        <path d="M221.798844,3.01891306 C225.206869,3.01891306 226.714225,3.34074252 227.991724,3.94998727 L228.530022,4.22858868 C229.953934,5.01791562 231.071428,6.17622082 231.832945,7.65213387 C232.546867,9.03580236 232.947917,10.4089649 232.99526,13.9016948 L233,187.002927 C233,187.666192 232.995798,188.294247 232.987384,188.890112 L232.949502,190.584162 L232.8863,192.103195 L232.797727,193.465332 L232.68373,194.688693 C232.641488,195.075365 232.594999,195.441927 232.544256,195.7914 L232.379253,196.791571 L232.188668,197.707327 C232.154769,197.853925 232.119802,197.997761 232.083765,198.139212 L231.854709,198.96232 C231.814392,199.095742 231.773003,199.227535 231.730542,199.358074 L231.462896,200.129307 L231.169459,200.888605 C229.944055,203.926089 228.098384,206.462309 225.617317,208.518054 L224.99357,209.019101 L224.351667,209.497721 C224.242237,209.575901 224.131351,209.653357 224.018659,209.730192 L223.318031,210.184604 C222.104865,210.932351 220.641102,211.639052 218.576853,212.409508 L217.263447,212.880271 L215.789129,213.371365 L214.137105,213.887821 L153.391061,231.880964 C152.737466,232.07456 152.055061,232.029445 151.452506,231.781519 L151.45,95.8145503 L151.446,95.81 L151.448668,14.6291329 C151.448668,11.3489677 151.716387,9.76749466 152.225241,8.49811483 L152.477122,7.92935862 C152.521924,7.83657631 152.568128,7.74437844 152.615723,7.65213387 C153.37724,6.17622082 154.494734,5.01791562 155.918646,4.22858868 L156.456944,3.94998727 C157.643193,3.38426 159.027635,3.06635511 161.948016,3.02382648 L221.798844,3.01891306 Z M81.5475262,0 L81.5475262,139.4725 L81.5430424,214.779012 L81.5073448,216.263828 C81.4005413,219.033509 81.0822116,220.651728 80.5690036,221.986848 L80.2962369,222.634838 C80.1999527,222.84565 80.0983323,223.052619 79.9914528,223.259765 C78.9760974,225.227649 77.4861046,226.772056 75.5875551,227.824492 C75.3877078,227.935275 75.1880308,228.040606 74.9846457,228.140407 L74.3594872,228.423135 C73.0714067,228.955085 71.5102031,229.28504 68.8381063,229.395744 L67.4056049,229.432745 L66.612651,229.437393 L14.9310694,229.437393 L14.1381156,229.432745 L12.7056142,229.395744 C10.0335173,229.28504 8.4723137,228.955085 7.18423325,228.423135 L6.55907472,228.140407 C6.35568959,228.040606 6.15601265,227.935275 5.95616533,227.824492 C4.0576158,226.772056 2.56762302,225.227649 1.55226762,223.259765 L1.24748356,222.634838 L0.974716789,221.986848 C0.461508811,220.651728 0.143179142,219.033509 0.036375594,216.263828 L0,214.779012 L0,32.8748352 L0.0304541262,31.4647245 C0.121829414,28.8555527 0.396048218,27.4533393 0.853854076,26.1899754 L1.09805937,25.5649193 C1.83334082,23.7986897 2.93731999,22.3331021 4.41211089,21.1653501 L4.67311104,20.9631725 L5.2099807,20.579488 L5.78981341,20.2173509 C5.99333645,20.0994279 6.20864745,19.9838934 6.44037384,19.8695444 L7.18942667,19.5288517 C7.72779595,19.3024909 8.35033661,19.0760614 9.09406822,18.8399411 L10.3051863,18.4772896 L10.9875917,18.2882575 L81.5475262,0 Z" id="path-1"></path>
    </defs>
    <g id="com.android.notes" stroke="none" stroke-width="1" fill="none" fill-rule="evenodd">
        <g id="编组-8备份-24" transform="translate(239.500000, 239.000615) rotate(-270.000000) translate(-239.500000, -239.000615) translate(123.499385, 122.500615)">
            <g id="路径-11" transform="translate(116.000615, 116.500000) rotate(-90.000000) translate(-116.000615, -116.500000) translate(-0.499385, 0.499385)">
                <mask id="mask-2" fill="white">
                    <use xlink:href="#path-1"></use>
                </mask>
                <use id="形状结合" fill="#FFD062" xlink:href="#path-1"></use>
            </g>
        </g>
    </g>
</svg>