<?xml version="1.0" encoding="UTF-8"?>
<svg width="480px" height="240px" viewBox="0 0 480 240" version="1.1" xmlns="http://www.w3.org/2000/svg" xmlns:xlink="http://www.w3.org/1999/xlink">
    <title>com.vivo.gallery_b_s5_2x1_mc</title>
    <g id="com.vivo.gallery" stroke="none" stroke-width="1" fill="none" fill-rule="evenodd">
        <g id="编组-40" transform="translate(162.120000, 59.200000)" fill="#00FF59">
            <path d="M78.3581409,20.0351679 L119.583489,86.8702013 C123.410711,93.0749402 121.483353,101.207451 115.278614,105.034674 C113.195549,106.319554 110.796278,107 108.348815,107 L23.6511849,107 C16.3610262,107 10.4511849,101.090159 10.4511849,93.8 C10.4511849,91.3525367 11.1316304,88.9532658 12.4165113,86.8702013 L53.6418591,20.0351679 C57.8518034,13.2099551 66.7975657,11.0898611 73.6227785,15.2998055 C75.5486444,16.4877227 77.1702237,18.109302 78.3581409,20.0351679 Z" id="山" opacity="0.949999988"></path>
            <path d="M93.7971534,45.0667214 L119.583489,86.8702013 C121.419076,89.8460773 121.930942,93.2653969 121.28206,96.4404975 L79.1791534,96.44 C73.3470264,96.44 68.6191534,91.712127 68.6191534,85.88 C68.6191534,83.7879829 69.2405303,81.7431041 70.4044586,80.0047696 L93.7971534,45.0667214 Z" id="形状结合" opacity="0.900000036"></path>
        </g>
    </g>
</svg>