<?xml version="1.0" encoding="UTF-8"?>
<svg width="480px" height="480px" viewBox="0 0 480 480" version="1.1" xmlns="http://www.w3.org/2000/svg" xmlns:xlink="http://www.w3.org/1999/xlink">
    <title>com.android.camera.packet.CameraPacketActivity_b_s5_2x2_sc</title>
    <g id="com.android.camera.packet.CameraPacketActivity" stroke="none" stroke-width="1" fill="none" fill-rule="evenodd">
        <path d="M82.0560332,252.37223 L82.0560332,216.992614 L70,216.992614 L70,263.007386 L119.15152,263.007386 L119.15152,252.37223 L82.0560332,252.37223 Z M210.384224,226.98966 L210.384224,216.992614 L157.95118,216.992614 L157.95118,263.007386 L210.384224,263.007386 L210.384224,253.01034 L169.721863,253.01034 L169.721863,244.573117 L209.028812,244.573117 L209.028812,234.930576 L169.721863,234.930576 L169.721863,226.98966 L210.384224,226.98966 Z M308.994062,264 C313.131636,264 314.98641,261.94387 314.98641,259.462334 L314.98641,216.992614 L303.287064,216.992614 L303.287064,248.756278 L267.689664,219.119645 C265.192853,216.992614 263.552091,216 259.485855,216 C255.205606,216 253.279494,218.05613 253.279494,221.317578 L253.279494,263.007386 L264.97884,263.007386 L264.97884,231.598227 L300.219553,261.163959 C302.645027,263.149188 304.571139,264 308.994062,264 Z M382.820422,264 C369.837002,264 360.777142,262.440177 355.426832,261.022157 L355.426832,250.812408 L356.939027,251.127501 C362.536944,252.257783 372.092525,253.790251 383.605134,253.790251 L385.586209,253.777997 C396.032128,253.641912 397.301929,252.373568 397.301929,250.032496 C397.301929,247.621861 395.090468,246.84195 391.166907,246.274742 L371.549101,243.509601 L370.000612,243.270751 C361.483355,241.880871 354.499445,239.327778 354.499445,229.896603 C354.499445,220.949092 360.046814,216.136654 380.781085,216.002868 L381.679023,216 C393.235693,216 402.224215,217.063516 407.431851,218.127031 L407.431851,228.33678 L406.325179,228.149097 C401.1184,227.291478 392.87992,226.284542 382.805856,226.213711 L380.290528,226.213293 C368.652839,226.275106 367.197515,227.155096 367.197515,229.612999 C367.197515,231.952733 369.837002,232.590842 373.475213,233.15805 L393.735056,235.994092 C404.221665,237.483013 410,240.886263 410,249.890694 C410,259.604136 403.650965,264 382.820422,264 Z" id="LENS" fill="#FFFFFF" fill-rule="nonzero"></path>
    </g>
</svg>