<?xml version="1.0" encoding="UTF-8"?>
<svg width="480px" height="480px" viewBox="0 0 480 480" version="1.1" xmlns="http://www.w3.org/2000/svg" xmlns:xlink="http://www.w3.org/1999/xlink">
    <title>com.android.VideoPlayer_b_s5_2x2_mc</title>
    <g id="com.android.VideoPlayer" stroke="none" stroke-width="1" fill="none" fill-rule="evenodd">
        <path d="M256.774627,181.329701 L323.988304,300.29791 C327.875124,307.17758 325.448939,315.905545 318.569268,319.792364 C316.422068,321.005471 313.99775,321.642954 311.531559,321.642954 L177.092283,321.642954 C168.953508,321.642954 162.355727,315.045174 162.355727,306.906399 C162.355727,304.366222 163.012335,301.869175 164.261836,299.657559 L231.113732,181.329701 C235.117156,174.243641 244.10696,171.74467 251.19302,175.748094 C253.526505,177.066447 255.456274,178.996217 256.774627,181.329701 Z" id="三角形" fill="#FFFFFF" opacity="0.800000012" transform="translate(243.944180, 240.131382) rotate(-270.000000) translate(-243.944180, -240.131382) "></path>
        <path d="M177.169163,158.54293 C178.70375,158.54293 180.222596,158.782571 181.672276,159.247804 L271.121427,209.785265 C276.435973,212.787833 278.3102,219.530186 275.307633,224.844731 C274.318868,226.594845 272.871541,228.042172 271.121427,229.030936 L162.432607,290.43693 L162.432607,173.279485 C162.432607,165.14071 169.030388,158.54293 177.169163,158.54293 Z" id="形状结合" fill="#FFFFFF" opacity="0.699999988"></path>
        <path d="M177.169163,158.54293 C178.718975,158.54293 180.252733,158.787349 181.715405,159.261718 L234.431303,189.045974 C237.974333,191.047686 239.223819,195.542588 237.222107,199.085618 C236.56293,200.252361 235.598046,201.217245 234.431303,201.876422 L162.432607,242.55293 L162.432607,173.279485 C162.432607,165.14071 169.030388,158.54293 177.169163,158.54293 Z" id="形状结合" fill="#FFFFFF"></path>
    </g>
</svg>