<?xml version="1.0" encoding="UTF-8"?>
<svg width="240px" height="480px" viewBox="0 0 240 480" version="1.1" xmlns="http://www.w3.org/2000/svg" xmlns:xlink="http://www.w3.org/1999/xlink">
    <title>com.vivo.browser_b_s5_1x2_mc</title>
    <defs>
        <filter color-interpolation-filters="auto" id="filter-1">
            <feColorMatrix in="SourceGraphic" type="matrix" values="0 0 0 0 0.000000 0 0 0 0 0.941176 0 0 0 0 0.321569 0 0 0 1.000000 0"></feColorMatrix>
        </filter>
        <path d="M55.9936893,29.9672921 C56.2958642,29.7836699 56.593887,29.6032659 56.89271,29.4230744 C56.9129458,29.410872 56.932574,29.3990392 56.9522056,29.3872073 L56.89271,29.4230744 C57.0552071,29.325088 57.2179408,29.2271644 57.3809097,29.1293051 C57.9484631,28.7885018 58.5187895,28.4485253 59.0919017,28.1093922 C59.3906404,27.9326163 59.6904081,27.7559098 59.990925,27.5794418 C60.158929,27.4807876 60.326957,27.3823308 60.4952168,27.2839499 C60.9883375,26.9956237 61.4837118,26.7077987 61.98104,26.4206661 L61.0192142,26.9782535 C61.3389993,26.7921089 61.6596116,26.6062429 61.98104,26.4206661 C62.2823696,26.2466934 62.5835606,26.073469 62.8846011,25.9009962 C63.1020415,25.7764198 63.3194189,25.6522267 63.5367132,25.528427 C63.6731201,25.4507113 63.8097586,25.3730007 63.9463631,25.2954459 C64.5507101,24.95234 65.1540579,24.6124732 65.7566426,24.2756835 C66.878717,23.6485454 67.9983575,23.0319615 69.1147175,22.4262285 C69.1858293,22.3876431 69.257516,22.3487834 69.3291889,22.3099685 C69.63267,22.1456176 69.9353118,21.9823888 70.2376962,21.8199637 C70.2821856,21.796066 70.3271439,21.7719313 70.3720964,21.7478145 L70.6214118,21.6142091 C71.2430127,21.2814752 71.863502,20.952149 72.4827695,20.6262615 C72.6468861,20.5398952 72.8105544,20.453961 72.9741353,20.3682678 C73.6182851,20.030825 74.2612255,19.6970431 74.9026844,19.367035 C75.0333813,19.299795 75.1637239,19.2328629 75.2940042,19.1660871 C75.5666291,19.0263533 75.8389499,18.8873185 76.1109885,18.7489703 C76.1702246,18.7188435 76.2294802,18.6887342 76.2887224,18.6586575 L76.5894859,18.5061858 C77.1910793,18.2016488 77.7912615,17.9004864 78.3899286,17.6027277 C78.5474386,17.5243845 78.7048059,17.4462981 78.8620666,17.3684477 C79.8857671,16.8616771 80.9051344,16.3648146 81.9194553,15.878104 C82.0618781,15.8097595 82.2035978,15.7419084 82.3452174,15.674256 C82.5269224,15.5874592 82.7092784,15.5005972 82.8914651,15.4140663 C83.1654333,15.2839388 83.438075,15.15501 83.7103262,15.0268277 C83.9088361,14.9333702 84.1078767,14.8399581 84.3067042,14.7469469 C84.4806511,14.665568 84.6543954,14.5845211 84.8279739,14.5037817 C85.7169882,14.0902668 86.6019855,13.6846622 87.4822677,13.2872331 C87.6755065,13.1999803 87.8675153,13.1135814 88.0592955,13.0275734 C89.4737271,12.3932501 90.8762184,11.7799688 92.2647457,11.1883926 L92.3158268,11.1666191 C92.4170807,11.1235083 92.5182602,11.080513 92.6193648,11.0376333 C93.1477875,10.8135416 93.6743901,10.5924965 94.1988586,10.3746373 C94.47032,10.261853 94.7410599,10.1500052 95.0112171,10.0390133 C95.5098673,9.83417008 96.0069115,9.63206674 96.5018937,9.43290423 C96.6399009,9.37734822 96.7775927,9.32210965 96.915123,9.26709962 C97.068098,9.20593967 97.2215258,9.14477527 97.3747498,9.08389665 C97.5884862,8.99894669 97.8010808,8.91487528 98.0132757,8.83135774 C98.5344549,8.6262587 99.0535616,8.42434018 99.570166,8.22579213 C99.7539686,8.15511503 99.9372375,8.08498263 100.120186,8.01527698 C100.717436,7.78775413 101.312069,7.56444874 101.903145,7.34574237 C101.968178,7.32163539 102.033796,7.29739586 102.09937,7.27321314 C102.718006,7.04511744 103.331974,6.82230002 103.941868,6.60457089 C104.092038,6.55090925 104.241778,6.4976723 104.391269,6.44474373 C104.59626,6.37221851 104.800929,6.30016895 105.005125,6.22870181 C105.084001,6.20103972 105.162964,6.17346505 105.241855,6.14597772 C105.865482,5.92875412 106.484662,5.71692656 107.099204,5.51060641 C107.169455,5.486955 107.2402,5.46325563 107.310883,5.43962944 C107.921858,5.23547866 108.527889,5.03683403 109.129132,4.8437 C109.211499,4.81716511 109.293948,4.79075471 109.376307,4.76444828 C109.54393,4.71098536 109.711204,4.65786753 109.878099,4.60518162 C110.041389,4.55355249 110.204284,4.50242701 110.366812,4.4517158 C110.51604,4.40523849 110.66478,4.35908284 110.813208,4.31327636 C111.317979,4.15741035 111.819102,4.00568305 112.316523,3.85802285 C112.469724,3.81264082 112.623137,3.76738385 112.776193,3.72251642 C113.039895,3.64511431 113.301932,3.56914105 113.562898,3.49432325 C113.702937,3.4542789 113.843425,3.41424884 113.983598,3.37455583 C114.04634,3.35668119 114.108827,3.3390357 114.171252,3.3214574 C114.348538,3.2716445 114.525526,3.22220666 114.702002,3.17331338 C114.870785,3.1264381 115.038412,3.0803613 115.205569,3.03477978 C115.699762,2.90013554 116.19104,2.76939457 116.678077,2.64303626 C116.781906,2.61596881 116.885276,2.58929771 116.988455,2.56282507 C117.200492,2.50855572 117.411786,2.45497495 117.622255,2.40223565 C117.678501,2.3880032 117.735086,2.37386948 117.791611,2.35979676 C118.064704,2.29194834 118.336112,2.22545384 118.606103,2.16038621 C118.636057,2.15301984 118.666461,2.14570575 118.696848,2.13840979 C118.941181,2.07989524 119.18384,2.02252302 119.425324,1.96632214 C119.50103,1.94854672 119.57709,1.93093333 119.653033,1.91343662 C119.800167,1.87969665 119.946828,1.84624489 120.093043,1.81323198 C120.342638,1.75671491 120.590296,1.7017783 120.836649,1.64811876 C120.94274,1.62518118 121.048977,1.60222735 121.154968,1.5795125 C121.248675,1.55925504 121.342426,1.53930856 121.435982,1.51955009 C121.610573,1.48285749 121.784193,1.44670336 121.957134,1.41120358 C122.051811,1.39158514 122.146071,1.37238909 122.240127,1.35338855 C122.407919,1.31968028 122.575392,1.28634337 122.742208,1.2536328 C122.895129,1.22345234 123.047418,1.19400615 123.199152,1.16508702 C123.3658,1.13352687 123.531431,1.10246778 123.696389,1.0720435 C123.799611,1.05279851 123.903121,1.03390746 124.006363,1.01526806 C124.051212,1.00738065 124.096327,0.999274873 124.14139,0.991217295 L124.140136,0.98981727 C135.596256,-1.05697513 143.726932,0.00870409306 146.473191,4.76536488 C149.008572,9.15677303 145.736431,16.5225075 138.154478,25.2985268 C140.307394,31.9250461 141.471709,38.9974282 141.471709,46.3417506 C141.471709,83.8971136 111.027072,114.341751 73.4717091,114.341751 C53.4058882,114.341751 35.3700105,105.650531 22.9231944,91.8272096 C11.5316775,94.0059245 3.5163657,93.1568798 0.980923367,88.7653649 C-1.76203356,84.0144241 1.36954722,76.4527053 8.84949667,67.5722583 C8.85113124,67.5710645 8.85091188,67.5703964 8.85069253,67.5697282 C10.702444,65.3716762 12.8205052,63.0928696 15.1817455,60.7559264 C15.2483926,60.6904353 15.3154482,60.6242118 15.3826983,60.5579422 C15.9936243,59.955494 16.620777,59.3495344 17.2635925,58.7401534 C17.3183464,58.6886123 17.3730735,58.6368119 17.4279134,58.5849871 L17.6214166,58.4021104 C18.2215869,57.8370633 18.8351065,57.2691474 19.4616631,56.6986682 C19.558017,56.6112155 19.6550303,56.5231029 19.7523531,56.4349304 C19.9577135,56.2486135 20.1642605,56.0624727 20.3721718,55.876076 C20.4910408,55.7697559 20.6104077,55.6630539 20.7302191,55.55627 C20.8629915,55.4376976 20.9959776,55.3195602 21.1295039,55.2013256 C21.2082103,55.1318609 21.2869043,55.0623089 21.3657845,54.9927238 C22.3731397,54.1038749 23.4110971,53.2096595 24.4782852,52.3111742 C24.8300633,52.0151525 25.1849752,51.718549 25.5430218,51.4215219 C26.032514,51.0153216 26.5283696,50.6080528 27.0299893,50.2000941 C27.1118674,50.1336146 27.1938433,50.0670503 27.2759721,50.000468 C27.4879195,49.8285356 27.7010561,49.6564546 27.9152048,49.484262 C27.9845355,49.4286135 28.0539006,49.3729111 28.1233713,49.3171972 C28.6247637,48.9150015 29.1315595,48.5123842 29.643753,48.1092702 C29.7649621,48.0139528 29.8866379,47.918399 30.0086155,47.8228186 C30.1600151,47.7041085 30.3120184,47.5853255 30.4644848,47.4665039 C30.9484485,47.089403 31.4373195,46.7116584 31.9307806,46.3336053 C32.7701804,45.6904676 33.6228203,45.0465264 34.4883348,44.4020881 C34.5566593,44.3512566 34.6249392,44.3004733 34.6932989,44.2496872 C35.2849984,43.8100607 35.8829224,43.3700751 36.4866974,42.929998 C37.1766124,42.4271617 37.8744377,41.9239823 38.5797175,41.4208707 C38.8810607,41.2058851 39.1842353,40.9906016 39.4887599,40.7753451 C39.5735607,40.7154219 39.6581087,40.6557336 39.7427602,40.5960477 C40.966901,39.7329165 42.2129904,38.8700953 43.4797617,38.0087234 C43.6754423,37.8756745 43.8717651,37.7425502 44.0685786,37.6094641 C45.6880202,36.5143882 47.3403524,35.422116 49.0238987,34.3343741 C49.5570045,33.9899368 50.0929599,33.6461295 50.6319789,33.3028378 C50.8260658,33.1792258 51.020391,33.0557831 51.2151097,32.93241 C51.377049,32.8298072 51.5393504,32.7271943 51.7019226,32.6246314 C51.9057117,32.4960649 52.1095866,32.3677911 52.3138823,32.2395987 C52.4071467,32.1810777 52.5007213,32.1224333 52.5943837,32.0638062 L52.6663045,32.0188014 C52.9964772,31.8122635 53.327739,31.6059419 53.6600759,31.3998503 C53.76516,31.3346854 53.8700179,31.2697493 53.9749822,31.2048364 C54.2184934,31.0542414 54.4627914,30.9036405 54.7076575,30.7531704 C54.76917,30.7153715 54.8303513,30.6778057 54.8915679,30.6402481 L55.1552451,30.4786615 C55.4340014,30.3080297 55.7134855,30.1375706 55.9936893,29.9672921 Z" id="path-2"></path>
    </defs>
    <g id="com.vivo.browser" stroke="none" stroke-width="1" fill="none" fill-rule="evenodd">
        <g filter="url(#filter-1)" id="编组-4">
            <g transform="translate(46.528291, 193.658249)">
                <mask id="mask-3" fill="white">
                    <use xlink:href="#path-2"></use>
                </mask>
                <use id="形状结合" fill-opacity="0.4" fill="#FFFFFF" xlink:href="#path-2"></use>
                <path d="M124.141034,0.990819865 C130.375895,7.95211667 135.197226,16.2057896 138.153746,25.3005561 C127.52015,37.6068711 108.41355,52.6859712 84.9623782,66.2255115 C61.5103418,79.765551 38.8973552,88.7729669 22.9233509,91.8275701 C16.6728965,84.8857102 11.8319126,76.6499536 8.85102025,67.5707264 C19.3725491,55.0793434 38.4987376,39.9781797 61.98104,26.4206661 C85.2834566,12.9670096 107.757495,3.98832662 123.813167,1.05038422 Z" id="形状结合" fill="#FFFFFF"></path>
            </g>
        </g>
    </g>
</svg>