<?xml version="1.0" encoding="UTF-8"?>
<svg width="240px" height="240px" viewBox="0 0 240 240" version="1.1" xmlns="http://www.w3.org/2000/svg" xmlns:xlink="http://www.w3.org/1999/xlink">
    <title>com.vivo.space_b_s5_1x1_mc</title>
    <g id="com.vivo.space" stroke="none" stroke-width="1" fill="none" fill-rule="evenodd">
        <path d="M185.681148,109.609137 C199.960734,109.609137 201.230769,120.880036 201.230769,124.323652 C201.230769,127.767562 199.960734,139.038462 185.681148,139.038462 L185.681148,139.038462 L171.941289,139.038462 C157.662008,139.038462 156.391973,127.767562 156.391973,124.323652 L156.392365,124.218015 C156.418674,120.655745 157.8048,109.609137 171.941289,109.609137 L171.941289,109.609137 Z M113.415172,110.299097 C115.322512,110.299097 115.714958,110.613626 116.45106,111.66765 C116.789217,112.152394 119.664601,116.384481 122.672648,120.815609 L123.576637,122.14737 C126.812961,126.915482 129.924715,131.50356 129.924715,131.50356 C130.331187,132.081079 130.762053,132.31462 131.298121,132.31462 C131.834494,132.31462 132.26536,132.081079 132.671833,131.50356 C132.671833,131.50356 145.40969,112.721968 146.144878,111.66765 C146.88098,110.613626 147.274035,110.299097 149.181375,110.299097 L149.181375,110.299097 L153.634578,110.299097 C154.659754,110.299097 155.128432,111.073049 154.484114,112.018107 C154.172495,112.475394 150.600612,117.713754 146.996518,122.999277 L146.276226,124.055608 C142.682184,129.32638 139.271136,134.328721 139.271136,134.328721 C136.91006,137.682514 135.177141,139.038403 131.298121,139.038403 C127.419101,139.038403 125.686487,137.682514 123.325716,134.328721 C123.325716,134.328721 119.914596,129.32638 116.320446,124.055608 L115.600132,122.999277 C115.520039,122.881821 115.439961,122.764388 115.359935,122.64703 L114.880677,121.944204 C111.534145,117.036555 108.40311,112.444908 108.112128,112.018107 C107.46781,111.073049 107.936793,110.299097 108.961664,110.299097 L108.961664,110.299097 Z M99.73944,110.299245 C101.090282,110.299245 101.626044,110.816391 101.626044,112.121625 L101.626044,137.215875 C101.626044,138.521109 101.090282,139.038255 99.73944,139.038255 L96.3733133,139.038255 C95.0221666,139.038255 94.4864039,138.521109 94.4864039,137.215875 L94.4864039,112.121625 C94.4864039,110.816391 95.0221666,110.299245 96.3733133,110.299245 L99.73944,110.299245 Z M46.9310737,110.299097 C48.8384134,110.299097 49.2317736,110.613626 49.9672658,111.66765 C50.3223309,112.176631 53.4746892,116.817058 56.6407557,121.481327 L57.0928436,122.14737 C60.3291671,126.915482 63.4409207,131.50356 63.4409207,131.50356 C63.847393,132.081079 64.2779547,132.31462 64.8143273,132.31462 C65.3506999,132.31462 65.7815665,132.081079 66.1877339,131.50356 C66.1877339,131.50356 69.299562,126.915482 72.5359608,122.14737 L73.4399711,120.815609 C76.4480874,116.384481 79.3235365,112.152394 79.6616938,111.66765 C80.3974908,110.613626 80.7902412,110.299097 82.6978858,110.299097 L82.6978858,110.299097 L87.1510895,110.299097 C88.2954933,110.299097 88.6446386,111.073049 88.0006256,112.018107 C87.6819307,112.485556 83.9565353,117.948931 80.2724781,123.351663 L79.7924668,124.055608 C76.1983907,129.32638 72.7873427,134.328721 72.7873427,134.328721 C70.4262665,137.682514 68.693347,139.038403 64.8143273,139.038403 C60.9353076,139.038403 59.2023881,137.682514 56.8416169,134.328721 C56.8416169,134.328721 53.4305689,129.32638 49.8364928,124.055608 L49.1161936,122.999277 C45.5120605,117.713754 41.9401007,112.475394 41.6283339,112.018107 C40.983711,111.073049 41.3331613,110.299097 42.47787,110.299097 L42.47787,110.299097 Z M185.681148,116.336749 L171.941289,116.336749 C164.217402,116.336749 163.530698,122.454446 163.530698,124.323652 L163.531209,124.412902 C163.553493,126.379647 164.336231,132.310556 171.941289,132.310556 L171.941289,132.310556 L185.681148,132.310556 C193.405035,132.310556 194.092043,126.192858 194.092043,124.323652 C194.092043,122.454446 193.405035,116.336749 185.681148,116.336749 L185.681148,116.336749 Z M99.5879201,99.2175338 L101.932835,101.482257 C103.029365,102.541876 103.029365,103.381797 101.932835,104.441122 L99.5879201,106.70555 C98.4913904,107.76517 97.6214239,107.76517 96.5239794,106.70555 L94.1796744,104.441122 C93.0825348,103.381797 93.0825348,102.541876 94.1796744,101.482257 L96.5239794,99.2178283 C97.6214239,98.1582089 98.4913904,98.1582089 99.5879201,99.2175338 Z" id="形状结合" fill="#00EF51"></path>
    </g>
</svg>