<?xml version="1.0" encoding="UTF-8"?>
<svg width="240px" height="480px" viewBox="0 0 240 480" version="1.1" xmlns="http://www.w3.org/2000/svg" xmlns:xlink="http://www.w3.org/1999/xlink">
    <title>com.vivo.weather_b_s5_1x2_sc</title>
    <g id="com.vivo.weather" stroke="none" stroke-width="1" fill="none" fill-rule="evenodd" opacity="0.949999988">
        <g id="编组-38" transform="translate(140.308000, 182.920000)" fill="#7CB9A4">
            <path d="M17.7919997,0 C34.1949385,0 47.4919997,13.2974325 47.4919997,29.7 C47.4919997,35.1887712 46.0031098,40.3297732 43.407173,44.7411626 C37.6388731,41.5862369 31.0257941,39.7947541 23.9959997,39.7947541 C23.4424118,39.7947541 22.8914081,39.8058638 22.3450398,39.8291789 C18.7108136,26.2278262 10.7378865,14.3993085 7.63833441e-14,5.91761145 C4.95739646,2.20166859 11.1175765,0 17.7919997,0 Z" id="形状结合"></path>
        </g>
    </g>
</svg>