<?xml version="1.0" encoding="UTF-8"?>
<svg width="240px" height="240px" viewBox="0 0 240 240" version="1.1" xmlns="http://www.w3.org/2000/svg" xmlns:xlink="http://www.w3.org/1999/xlink">
    <title>com.vivo.upslide_b_s5_1x1_sc</title>
    <g id="com.vivo.upslide" stroke="none" stroke-width="1" fill="none" fill-rule="evenodd">
        <path d="M130.153553,186.872729 L130.153553,188.632729 L125.457692,191.343733 C122.182801,193.234493 118.170997,193.291789 114.851444,191.515621 L114.542308,191.343733 L109.845553,188.632729 L109.845553,186.872729 L115.303846,190.02471 C118.116095,191.648362 121.559877,191.700738 124.412869,190.181838 L124.696154,190.02471 L130.153553,186.872729 Z M65.912,76.7319231 L67.435,77.6109231 L61.7048991,80.9206564 C58.8869693,82.547589 57.1182647,85.5124733 57.0136581,88.7503183 L57.0087453,89.0546335 L57.008,95.0399231 L55.485,94.1599231 L55.4856684,89.0546335 C55.4856684,85.2632669 57.4521531,81.7518998 60.6649433,79.767919 L60.9433607,79.6016331 L65.912,76.7319231 Z M173.634476,76.4712285 L179.056639,79.6016331 C182.340059,81.4973164 184.39775,84.9560257 184.509533,88.730374 L184.514332,89.0546335 L184.513476,93.6382285 L182.990476,94.5182285 L182.991255,89.0546335 C182.991255,85.8007684 181.307942,82.7865831 178.556189,81.0770686 L178.295101,80.9206564 L172.111476,77.3502285 L173.634476,76.4712285 Z" id="形状结合" fill="#FFFFFF" fill-rule="nonzero"></path>
    </g>
</svg>