<?xml version="1.0" encoding="UTF-8"?>
<svg width="240px" height="240px" viewBox="0 0 240 240" version="1.1" xmlns="http://www.w3.org/2000/svg" xmlns:xlink="http://www.w3.org/1999/xlink">
    <title>com.bbk.appstore_b_s5_1x1_mc</title>
    <g id="com.bbk.appstore" stroke="none" stroke-width="1" fill="none" fill-rule="evenodd">
        <path d="M151.878788,62.9810219 C156.760591,62.9810219 160.734579,66.8678356 160.874951,71.7156596 L160.878788,71.9810219 L160.878788,89.4986249 C160.878788,97.2490871 159.127773,104.435807 155.720535,110.611305 C152.289312,116.830275 147.271044,121.848543 141.052074,125.279766 C134.876576,128.687004 127.689856,130.438019 119.939394,130.438019 C112.188932,130.438019 105.002211,128.687004 98.8267139,125.279766 C92.6077435,121.848543 87.5894755,116.830275 84.1582526,110.611305 C80.8542648,104.622944 79.107643,97.6837173 79.0048211,90.2016469 L79,89.4986249 L79,72.1269379 C79,67.1563751 83.0294373,63.1269379 88,63.1269379 C92.8818027,63.1269379 96.8557914,67.0137515 96.9961629,71.8615756 L97,72.1269379 L97,89.4986249 C97,94.2846838 98.0215657,98.4775128 99.9185792,101.915783 C101.708713,105.160337 104.277682,107.729306 107.522236,109.51944 C110.960506,111.416453 115.153335,112.438019 119.939394,112.438019 C124.725453,112.438019 128.918282,111.416453 132.356552,109.51944 C135.601106,107.729306 138.170075,105.160337 139.960209,101.915783 C141.781342,98.6150436 142.795662,94.6189028 142.873894,90.0700941 L142.878788,89.4986249 L142.878788,71.9810219 C142.878788,67.0104591 146.908225,62.9810219 151.878788,62.9810219 Z" id="路径备份" fill="#00F052" fill-rule="nonzero"></path>
    </g>
</svg>