<?xml version="1.0" encoding="UTF-8"?>
<svg width="240px" height="480px" viewBox="0 0 240 480" version="1.1" xmlns="http://www.w3.org/2000/svg" xmlns:xlink="http://www.w3.org/1999/xlink">
    <title>com.vivo.newsreader_b_s5_1x2_sc</title>
    <g id="com.vivo.newsreader" stroke="none" stroke-width="1" fill="none" fill-rule="evenodd">
        <g id="编组-14" transform="translate(92.389105, 174.367204)" fill="#F74360">
            <path d="M43.9963192,0.0854883297 C47.523217,-0.193854188 51.7729617,0.139597604 56.4166911,2.16787173 C61.0604205,4.19614586 69.4239146,9.17632044 74.8524937,13.2041489 C80.2810729,17.2319773 84.3708948,23.0052194 84.3708948,31.4182804 L84.3708948,31.4182804 L84.3708948,105.15628 C84.3708948,115.701957 76.40393,124.537763 65.9283248,125.610114 C47.1081442,127.828102 32.3364393,129.360431 21.6132104,130.207099 L21.3388048,130.224385 L21.3388048,130.224385 L21.0212739,130.245241 C4.69326278,131.342781 0.000738740869,125.447182 0.000738740869,116.404084 L0.000738740869,116.404084 L0,96.721 L0.0265598095,96.9566203 C0.467001985,100.160926 3.36451245,102.423383 6.55630011,102.103917 L6.77943323,102.077419 L50.0744311,96.1263808 C53.0408547,95.7186362 55.2510508,93.1838601 55.2510508,90.1895447 L55.2510508,90.1895447 L55.2510508,83.3343762 C55.3765986,65.5073347 55.4406281,50.891047 55.443139,39.4855129 L55.443139,38.104964 C55.4406281,26.9615323 55.3765986,19.0288544 55.2510508,14.3069302 C54.9166836,1.73119317 44.3254359,1.33575151 32.4286236,1.44546664 L31.6061926,1.45369224 C31.194051,1.45806364 30.7806016,1.46271657 30.3662116,1.46717233 L29.5362859,1.47567908 C29.3977922,1.47700578 29.2592212,1.4782751 29.1205864,1.47946933 L28.2881214,1.48559169 C28.0577279,1.48695729 27.8272337,1.48801844 27.596701,1.4886941 C32.7002006,1.01787844 38.1630568,0.547502907 43.9963192,0.0854883297 Z" id="形状结合"></path>
        </g>
    </g>
</svg>