<?xml version="1.0" encoding="UTF-8"?>
<svg width="480px" height="480px" viewBox="0 0 480 480" version="1.1" xmlns="http://www.w3.org/2000/svg" xmlns:xlink="http://www.w3.org/1999/xlink">
    <title>com.vivo.weather_b_s5_2x2_mc</title>
    <g id="com.vivo.weather" stroke="none" stroke-width="1" fill="none" fill-rule="evenodd">
        <g id="编组-38" transform="translate(128.550000, 153.645833)">
            <path d="M167.287281,63.0676727 C168.009269,63.0379107 168.737028,63.0232377 169.4682,63.0232377 C178.753586,63.0232377 187.488536,65.3895893 195.107537,69.55446 C188.28928,81.1426607 175.689641,88.9185 161.27375,88.9185 C139.608202,88.9185 122.045,71.3552983 122.045,49.68975 C122.045,36.8402221 128.223148,25.4334178 137.771073,18.2780158 C151.955678,29.4791425 162.486834,45.1025682 167.287281,63.0676727 Z" id="形状结合" fill="#439A7B"></path>
            <path d="M85.0828,0 C124.455875,0 157.582463,26.748541 167.287281,63.0676727 C168.009269,63.0379107 168.737028,63.0232377 169.4682,63.0232377 C199.125781,63.0232377 223.168,87.1639908 223.168,116.943119 C223.168,146.722247 199.125781,170.863 169.4682,170.863 C168.766652,170.863 168.068246,170.849492 167.373226,170.822721 L167.373532,170.863 L86.6531917,170.863 L86.6533141,170.849114 C86.1413178,170.858358 85.6282143,170.863 85.1140418,170.863 C38.1241088,170.863 0,132.093239 0,85.0960102 C0,38.0987815 38.0928671,0 85.0828,0 Z" id="形状结合" fill="#3B9576" opacity="0.949999988"></path>
        </g>
    </g>
</svg>