<?xml version="1.0" encoding="UTF-8"?>
<svg width="480px" height="240px" viewBox="0 0 480 240" version="1.1" xmlns="http://www.w3.org/2000/svg" xmlns:xlink="http://www.w3.org/1999/xlink">
    <title>com.bbk.appstore_b_s5_2x1_mc</title>
    <g id="com.bbk.appstore" stroke="none" stroke-width="1" fill="none" fill-rule="evenodd">
        <path d="M271.878788,63 C276.760591,63 280.734579,66.8868137 280.874951,71.7346377 L280.878788,72 L280.878788,89.517603 C280.878788,97.2680652 279.127773,104.454785 275.720535,110.630283 C272.289312,116.849253 267.271044,121.867521 261.052074,125.298744 C254.876576,128.705982 247.689856,130.456997 239.939394,130.456997 C232.188932,130.456997 225.002211,128.705982 218.826714,125.298744 C212.607744,121.867521 207.589476,116.849253 204.158253,110.630283 C200.854265,104.641922 199.107643,97.7026954 199.004821,90.220625 L199,89.517603 L199,72.145916 C199,67.1753532 203.029437,63.145916 208,63.145916 C212.881803,63.145916 216.855791,67.0327297 216.996163,71.8805537 L217,72.145916 L217,89.517603 C217,94.3036619 218.021566,98.496491 219.918579,101.934761 C221.708713,105.179315 224.277682,107.748284 227.522236,109.538418 C230.960506,111.435431 235.153335,112.456997 239.939394,112.456997 C244.725453,112.456997 248.918282,111.435431 252.356552,109.538418 C255.601106,107.748284 258.170075,105.179315 259.960209,101.934761 C261.781342,98.6340218 262.795662,94.6378809 262.873894,90.0890722 L262.878788,89.517603 L262.878788,72 C262.878788,67.0294373 266.908225,63 271.878788,63 Z" id="路径备份" fill="#00F052" fill-rule="nonzero"></path>
    </g>
</svg>