<?xml version="1.0" encoding="UTF-8"?>
<svg width="480px" height="480px" viewBox="0 0 480 480" version="1.1" xmlns="http://www.w3.org/2000/svg" xmlns:xlink="http://www.w3.org/1999/xlink">
    <title>com.android.camera_b_s5_2x2_mc</title>
    <g id="com.android.camera" stroke="none" stroke-width="1" fill="none" fill-rule="evenodd">
        <path d="M240,137.368421 C296.681856,137.368421 342.631579,183.318144 342.631579,240 C342.631579,296.681856 296.681856,342.631579 240,342.631579 C183.318144,342.631579 137.368421,296.681856 137.368421,240 C137.368421,183.318144 183.318144,137.368421 240,137.368421 Z M240,164.052632 C198.055427,164.052632 164.052632,198.055427 164.052632,240 C164.052632,281.944573 198.055427,315.947368 240,315.947368 C281.944573,315.947368 315.947368,281.944573 315.947368,240 C315.947368,198.055427 281.944573,164.052632 240,164.052632 Z" id="形状结合" fill="#329071"></path>
    </g>
</svg>