<?xml version="1.0" encoding="UTF-8"?>
<svg width="240px" height="240px" viewBox="0 0 240 240" version="1.1" xmlns="http://www.w3.org/2000/svg" xmlns:xlink="http://www.w3.org/1999/xlink">
    <title>com.android.filemanager_b_s5_1x1_mc</title>
    <defs>
        <path d="M113.628467,82 C118.921962,82 123.464756,85.7703038 124.440124,90.9731631 L125.520353,96.7353741 C126.407052,101.465246 130.536864,104.892795 135.349132,104.892795 L195,104.892 L195,172.616689 C195,177.965801 194.443046,179.905519 193.397204,181.861074 C192.351361,183.81663 190.81663,185.351361 188.861074,186.397204 C186.905519,187.443046 184.965801,188 179.616689,188 L60.3833112,188 C55.0341988,188 53.0944813,187.443046 51.1389258,186.397204 C49.1833702,185.351361 47.6486388,183.81663 46.6027962,181.861074 C45.5569537,179.905519 45,177.965801 45,172.616689 L45,82 L113.628467,82 Z" id="path-1"></path>
    </defs>
    <g id="com.android.filemanager" stroke="none" stroke-width="1" fill="none" fill-rule="evenodd">
        <path d="M188.861074,49.6027962 C190.81663,50.6486388 192.351361,52.1833702 193.397204,54.1389258 C194.443046,56.0944813 195,58.0341988 195,63.3833112 L195,104.892 L135.349132,104.892795 C130.629408,104.892795 126.566143,101.595807 125.575089,97.0067913 L125.520353,96.7353741 L124.440124,90.9731631 C123.464756,85.7703038 118.921962,82 113.628467,82 L113.628467,82 L45,82 L45,63.3833112 C45,58.0341988 45.5569537,56.0944813 46.6027962,54.1389258 C47.6486388,52.1833702 49.1833702,50.6486388 51.1389258,49.6027962 C53.0944813,48.5569537 55.0341988,48 60.3833112,48 L179.616689,48 C184.965801,48 186.905519,48.5569537 188.861074,49.6027962 Z" id="形状结合" fill="#FFFFFF"></path>
        <mask id="mask-2" fill="white">
            <use xlink:href="#path-1"></use>
        </mask>
        <use id="形状结合" fill="#FFFFFF" opacity="0.1" xlink:href="#path-1"></use>
    </g>
</svg>