<?xml version="1.0" encoding="UTF-8"?>
<svg width="480px" height="480px" viewBox="0 0 480 480" version="1.1" xmlns="http://www.w3.org/2000/svg" xmlns:xlink="http://www.w3.org/1999/xlink">
    <title>com.vivo.wallet_b_s5_2x2_sc</title>
    <g id="com.vivo.wallet" stroke="none" stroke-width="1" fill="none" fill-rule="evenodd">
        <path d="M272.929754,406.059116 C280.340852,406.059116 281,412.164186 281,414.029478 L280.99951,414.118549 C280.97812,416.081333 280.226835,422 272.929754,422 L272.929754,422 L265.798774,422 C258.387834,422 257.728686,415.89493 257.728686,414.029478 C257.728686,412.164186 258.387834,406.059116 265.798774,406.059116 L265.798774,406.059116 Z M235.423747,406.432844 C236.413656,406.432844 236.617335,406.603214 236.999371,407.174144 C237.169782,407.429094 238.581699,409.597763 240.092672,411.920662 L240.820866,413.040291 C242.455364,415.553678 243.992192,417.918595 243.992192,417.918595 C244.203151,418.231418 244.42677,418.357919 244.704989,418.357919 C244.983366,418.357919 245.206986,418.231418 245.417945,417.918595 C245.417945,417.918595 246.954736,415.553678 248.589178,413.040291 L249.317347,411.920662 C250.828263,409.597763 252.240109,407.429094 252.410449,407.174144 C252.792485,406.603214 252.996481,406.432844 253.986389,406.432844 L253.986389,406.432844 L256.2976,406.432844 C256.829666,406.432844 257.072909,406.852068 256.738509,407.363975 C256.582529,407.602865 254.85266,410.250617 253.051833,413.006935 L252.665404,413.598398 C250.733302,416.555638 248.84298,419.448891 248.84298,419.448891 C247.617583,421.265528 246.718199,421.999968 244.704989,421.999968 C242.69178,421.999968 241.792554,421.265528 240.567315,419.448891 C240.567315,419.448891 238.9206,416.928546 237.13012,414.188154 L236.744792,413.598398 L236.744792,413.598398 L236.358351,413.006935 C234.557467,410.250617 232.827523,407.602865 232.67147,407.363975 C232.337069,406.852068 232.580471,406.432844 233.112379,406.432844 L233.112379,406.432844 Z M228.326049,406.432924 C229.027135,406.432924 229.305196,406.713045 229.305196,407.420047 L229.305196,421.012766 C229.305196,421.719768 229.027135,421.999888 228.326049,421.999888 L226.579031,421.999888 C225.877786,421.999888 225.599726,421.719768 225.599726,421.012766 L225.599726,407.420047 C225.599726,406.713045 225.877786,406.432924 226.579031,406.432924 L228.326049,406.432924 Z M200.918532,406.432844 C201.908441,406.432844 202.112594,406.603214 202.494314,407.174144 C202.664725,407.429094 204.076642,409.597763 205.587615,411.920662 L206.315809,413.040291 C207.950307,415.553678 209.487135,417.918595 209.487135,417.918595 C209.698094,418.231418 209.921555,418.357919 210.199932,418.357919 C210.478309,418.357919 210.701929,418.231418 210.91273,417.918595 C210.91273,417.918595 212.449594,415.553678 214.08413,413.040291 L214.812342,411.920662 C216.323349,409.597763 217.735298,407.429094 217.905708,407.174144 C218.287587,406.603214 218.491424,406.432844 219.481491,406.432844 L219.481491,406.432844 L221.792701,406.432844 C222.386646,406.432844 222.567852,406.852068 222.23361,407.363975 C222.077556,407.602865 220.347648,410.250617 218.5468,413.006935 L218.160366,413.598398 C216.228245,416.555638 214.337923,419.448891 214.337923,419.448891 C213.112526,421.265528 212.213142,421.999968 210.199932,421.999968 C208.186723,421.999968 207.287338,421.265528 206.062099,419.448891 C206.062099,419.448891 204.171778,416.555638 202.239656,413.598398 L201.853222,413.006935 C200.052375,410.250617 198.322466,407.602865 198.166413,407.363975 C197.831854,406.852068 198.013218,406.432844 198.607322,406.432844 L198.607322,406.432844 Z M272.929754,409.703239 L265.798774,409.703239 C261.79008,409.703239 261.433681,413.016991 261.433681,414.029478 C261.433681,415.041965 261.79008,418.355718 265.798774,418.355718 L265.798774,418.355718 L272.929754,418.355718 C276.938448,418.355718 277.295005,415.041965 277.295005,414.029478 C277.295005,413.016991 276.938448,409.703239 272.929754,409.703239 L272.929754,409.703239 Z M228.24741,400.430331 L229.46442,401.657056 C230.033518,402.231016 230.033518,402.685973 229.46442,403.259774 L228.24741,404.48634 C227.678312,405.0603 227.2268,405.0603 226.657226,404.48634 L225.440533,403.259774 C224.871118,402.685973 224.871118,402.231016 225.440533,401.657056 L226.657226,400.43049 C227.2268,399.85653 227.678312,399.85653 228.24741,400.430331 Z" id="形状结合备份-3" fill="#8E8E8E"></path>
    </g>
</svg>