<?xml version="1.0" encoding="UTF-8"?>
<svg width="240px" height="480px" viewBox="0 0 240 480" version="1.1" xmlns="http://www.w3.org/2000/svg" xmlns:xlink="http://www.w3.org/1999/xlink">
    <title>com.vivo.vhome_b_s5_1x2_mc</title>
    <defs>
        <path d="M41.7814363,0 C31.0881531,0 20.39487,4.08916773 12.2367284,12.267018 L12.2367284,12.267018 C4.0790708,20.4453535 0,31.1651057 0,41.884858 L0,41.884858 C0,53.1223062 4.44109559,63.6877686 12.2367284,71.5017276 L12.2367284,71.5017276 C20.39487,79.680063 31.0881531,83.7692308 41.7814363,83.7692308 L41.7814363,83.7692308 C52.4742354,83.7692308 63.1675186,79.680063 71.3256602,71.5017276 L71.3256602,71.5017276 L77.1809756,65.6319184 C61.0718403,80.3001338 37.5097373,76.1891326 24.5368596,59.1721202 L24.5368596,59.1721202 C19.9796063,54.6031012 17.3931618,48.429079 17.3926778,41.884858 L17.3926778,41.884858 C17.3931618,35.6283537 19.7743944,29.3713643 24.5368596,24.5975957 L24.5368596,24.5975957 C29.2993248,19.823342 35.5408645,17.4362151 41.7814363,17.4362151 L41.7814363,17.4362151 C48.0220081,17.4362151 54.2630638,19.823342 59.025529,24.5975957 L59.025529,24.5975957 L96.1592058,61.8236748 L96.3736135,62.0381281 L96.3750655,62.0366725 C101.89788,67.4586527 109.080781,70.1698854 116.262714,70.1698854 L116.262714,70.1698854 C123.539509,70.1703706 130.81582,67.38733 136.366705,61.8236748 L136.366705,61.8236748 C141.917591,56.258564 144.692308,48.9647269 144.692308,41.6699195 L144.692308,41.6699195 C144.692308,34.3755973 141.917591,27.0817603 136.366705,21.5166494 L136.366705,21.5166494 C130.81582,15.952509 123.539509,13.1699536 116.262714,13.1704388 L116.262714,13.1704388 C111.095632,13.1704388 105.950331,14.5901 101.405177,17.399826 L101.405177,17.399826 C121.923949,9.07933031 139.347118,35.2295289 124.067058,49.4926119 L124.067058,49.4926119 C121.910881,51.653641 119.086797,52.7341555 116.262714,52.7341555 L116.262714,52.7341555 C113.439114,52.7341555 110.61503,51.6541262 108.459821,49.4930971 L108.459821,49.4930971 L71.3256602,12.267018 C63.1675186,4.08916773 52.4742354,0 41.7814363,0 Z" id="path-1"></path>
    </defs>
    <g id="com.vivo.vhome" stroke="none" stroke-width="1" fill="none" fill-rule="evenodd">
        <g id="编组备份-3" transform="translate(49.000000, 198.254178)">
            <g id="编组">
                <mask id="mask-2" fill="white">
                    <use xlink:href="#path-1"></use>
                </mask>
                <use id="Clip-8" fill="#4382E0" xlink:href="#path-1"></use>
            </g>
            <polygon id="Fill-9" fill="#1D2087" points="109.940157 32.6475575 109.940157 32.6475575 109.947874 32.6432167"></polygon>
        </g>
    </g>
</svg>