<?xml version="1.0" encoding="UTF-8"?>
<svg width="240px" height="480px" viewBox="0 0 240 480" version="1.1" xmlns="http://www.w3.org/2000/svg" xmlns:xlink="http://www.w3.org/1999/xlink">
    <title>com.vivo.vivoconsole_b_s5_1x2_sc</title>
    <defs>
        <path d="M67.9351763,0.993164337 L124.767319,33.8411001 C127.055178,35.1634403 128.464286,37.605422 128.464286,40.2479358 L128.464286,105.957822 C128.464286,108.600336 127.055178,111.042318 124.767319,112.364658 L67.9351763,145.212594 C65.6440671,146.536813 62.8202187,146.536813 60.5291094,145.212594 L3.69696654,112.364658 C1.40910819,111.042318 -5.00545591e-15,108.600336 0,105.957822 L0,40.2479358 C3.22909907e-15,37.605422 1.40910819,35.1634403 3.69696654,33.8411001 L60.5291094,0.993164337 C62.8202187,-0.331054779 65.6440671,-0.331054779 67.9351763,0.993164337 Z" id="path-1"></path>
        <linearGradient x1="50%" y1="16.1813628%" x2="50%" y2="100%" id="linearGradient-3">
            <stop stop-color="#A9D0EB" stop-opacity="0.94" offset="0%"></stop>
            <stop stop-color="#E8EBED" offset="100%"></stop>
        </linearGradient>
    </defs>
    <g id="com.vivo.vivoconsole" stroke="none" stroke-width="1" fill="none" fill-rule="evenodd">
        <g id="均衡备份-7" transform="translate(56.442445, 166.921448)">
            <mask id="mask-2" fill="white">
                <use xlink:href="#path-1"></use>
            </mask>
            <use id="形状结合" fill="#FAFAFA" fill-rule="nonzero" opacity="0" xlink:href="#path-1"></use>
            <g id="编组-4" mask="url(#mask-2)">
                <g transform="translate(-1.357143, 35.602879)" id="形状结合">
                    <path d="M65,-37.5 L65,-23.646156 L12,6.9307671 L12,68.0692329 L12.007,68.073 L-3.63797881e-12,75 L-3.63797881e-12,0 L65,-37.5 Z" fill="#D4D4D4" opacity="0.8"></path>
                    <path d="M117.995,68.073219 L130,75 L65,112.5 L0,75 L12.005,68.073219 L65,98.646156 L117.995,68.073219 Z" fill="#EFEFEF" opacity="0.7"></path>
                </g>
            </g>
            <polygon id="路径-131" fill="url(#linearGradient-3)" opacity="0.87" mask="url(#mask-2)" points="63.6428571 148.102879 63.6428571 73.1028789 128.642857 35.6028789 128.642857 110.602879"></polygon>
            <polygon id="路径-129" fill="#D3D3D3" opacity="0.4" mask="url(#mask-2)" points="63.6428571 73.1028789 -1.35714286 35.6028789 63.6428571 -1.89712106 128.642857 35.6028789"></polygon>
        </g>
    </g>
</svg>