<?xml version="1.0" encoding="UTF-8"?>
<svg width="240px" height="240px" viewBox="0 0 240 240" version="1.1" xmlns="http://www.w3.org/2000/svg" xmlns:xlink="http://www.w3.org/1999/xlink">
    <title>com.vivo.moodcube_b_s5_1x1_mc</title>
    <defs>
        <filter color-interpolation-filters="auto" id="filter-1">
            <feColorMatrix in="SourceGraphic" type="matrix" values="0 0 0 0 0.000000 0 0 0 0 0.878431 0 0 0 0 0.349020 0 0 0 1.000000 0"></feColorMatrix>
        </filter>
        <path d="M67.7037218,2.14121418 L124.303722,34.8630892 C126.591192,36.185533 128,38.6272971 128,41.2695269 L128,106.730473 C128,109.372703 126.591192,111.814467 124.303722,113.136911 L67.7037218,145.858786 C65.4122629,147.183535 62.5877371,147.183535 60.2962782,145.858786 L3.69627818,113.136911 C1.40880782,111.814467 -2.37072709e-13,109.372703 -2.27373675e-13,106.730473 L-2.27373675e-13,41.2695269 C-2.24144542e-13,38.6272971 1.40880782,36.185533 3.69627818,34.8630892 L60.2962782,2.14121418 C62.5877371,0.816464513 65.4122629,0.816464513 67.7037218,2.14121418 Z" id="path-2"></path>
    </defs>
    <g id="com.vivo.moodcube" stroke="none" stroke-width="1" fill="none" fill-rule="evenodd">
        <g filter="url(#filter-1)" id="变形器备份">
            <g transform="translate(56.000000, 46.000000)">
                <g id="编组-10" transform="translate(-0.000000, 0.000000)">
                    <mask id="mask-3" fill="white">
                        <use xlink:href="#path-2"></use>
                    </mask>
                    <g id="蒙版"></g>
                    <g mask="url(#mask-3)">
                        <g transform="translate(-0.133333, 18.510670)">
                            <polygon id="路径" fill="#FFFFFF" fill-rule="nonzero" points="96.2 79.970871 117.166667 68.7933067 117.166667 25.0382121 96.2371039 37.4061962"></polygon>
                            <polygon id="路径-14" fill="#FFFFFF" fill-rule="evenodd" opacity="0.6" points="96.2474535 37.4061962 32.0666667 0.00120442708 0 18.723553 0 92.2711024 64.1807868 129.48933 96.2 110.94863"></polygon>
                            <polygon id="路径-14" fill="#E6E6E6" fill-rule="evenodd" opacity="0.199931264" points="64.3488434 55.4893295 0 18.723553 0 92.2711024 64.1807868 129.48933"></polygon>
                            <polygon id="路径-27" fill-opacity="0.8" fill="#FFFFFF" fill-rule="evenodd" points="85.1433311 43.4013165 32.1963594 12.5679831 11.1 24.6559962 11.1 86.1667541 64.3488434 116.666287 85.1433311 104.912074"></polygon>
                            <path d="M85.143,43.6574162 L85.1433311,104.912074 L64.3488434,116.666287 L64.261,116.615416 L85.1040968,104.547088 L85.143,43.6574162 Z M11.1,25.0874162 L64.1333333,55.4893295 L67.118,53.8074162 L64.2414719,55.4893295 L64.174,116.565416 L11.1,86.1667541 L11.1,25.0874162 Z" id="形状结合" fill="#FFFFFF" fill-rule="evenodd"></path>
                            <polygon id="路径" fill="#FFFFFF" fill-rule="nonzero" opacity="0.70219494" points="85.1433311 43.2754549 85.1040968 104.547088 64.1746162 116.666287 64.2414719 55.4893295"></polygon>
                            <path d="M96.1333333,37.4893295 L96.1333333,110.98933 L67.1343392,127.754373 C66.1780749,128.307213 64.954704,127.980174 64.4018637,127.023909 C64.2259533,126.719632 64.1333333,126.374371 64.1333333,126.022903 L64.1333333,55.4893295 L64.1333333,55.4893295 L96.1333333,37.4893295 Z" id="路径-2" fill="#00E059" fill-rule="evenodd" opacity="0.319999993"></path>
                            <path d="M96.133,56.489 L128.133333,75.4893295 L128.133333,92.4893295 L96.1333333,110.98933 L96.133,56.489 Z" id="形状结合" fill="#E26058" fill-rule="evenodd" opacity="0.8"></path>
                        </g>
                    </g>
                </g>
            </g>
        </g>
    </g>
</svg>