<?xml version="1.0" encoding="UTF-8"?>
<svg width="240px" height="240px" viewBox="0 0 240 240" version="1.1" xmlns="http://www.w3.org/2000/svg" xmlns:xlink="http://www.w3.org/1999/xlink">
    <title>com.vivo.agent_b_s5_1x1_mc</title>
    <defs>
        <filter color-interpolation-filters="auto" id="filter-1">
            <feColorMatrix in="SourceGraphic" type="matrix" values="0 0 0 0 0.000000 0 0 0 0 1.000000 0 0 0 0 0.349020 0 0 0 1.000000 0"></feColorMatrix>
        </filter>
    </defs>
    <g id="com.vivo.agent" stroke="none" stroke-width="1" fill="none" fill-rule="evenodd">
        <g filter="url(#filter-1)" id="编组">
            <g transform="translate(36.184128, 24.453541)">
                <path d="M116.955564,156.509044 C155.226072,156.114401 172.434304,126.779556 164.205378,96.1817623 C155.976452,65.5839688 134.166043,33.8994273 94.9635121,35.0664855 C55.7609811,36.2335438 12.3179858,73.7662937 16.5474092,102.490352 C22.6834118,132.615433 78.3469369,156.509044 116.955564,156.509044 Z" id="椭圆形-copy-4" fill="#E342D9" opacity="0.300000012" transform="translate(91.241059, 95.772121) rotate(122.000000) translate(-91.241059, -95.772121) "></path>
                <path d="M36.9416102,49.070035 C46.8285531,39.2658282 62.8971752,34.7209956 80.2674203,36.410815 C78.261544,37.4544432 76.2576247,38.5695211 74.2633357,39.7488583 C75.9097959,38.7760903 77.5626756,37.846396 79.2178018,36.9645436 L80.2684217,36.4109124 C97.1103416,38.0495627 115.175814,45.549356 130.016704,59.7992511 C139.470269,68.20525 147.540596,81.0967966 150.967581,95.5600307 L151.129766,96.261079 C154.902895,112.974817 152.448102,131.710661 138.786126,148.018178 C121.830785,167.100444 94.6648137,171.45791 69.8573177,161.320782 L69.8571457,161.319989 C61.4160726,157.871422 53.2479003,152.743826 45.8479945,145.947063 C31.4246443,132.699313 22.587471,114.48309 20.5600335,96.6672925 C18.4904636,78.4801624 23.517151,60.7108368 36.9416102,49.070035 Z" id="形状结合" fill="#F692F0" opacity="0.600000024"></path>
            </g>
        </g>
    </g>
</svg>