<?xml version="1.0" encoding="UTF-8"?>
<svg width="240px" height="480px" viewBox="0 0 240 480" version="1.1" xmlns="http://www.w3.org/2000/svg" xmlns:xlink="http://www.w3.org/1999/xlink">
    <title>com.vivo.easyshare_b_s5_1x2_sc</title>
    <g id="com.vivo.easyshare" stroke="none" stroke-width="1" fill="none" fill-rule="evenodd">
        <path d="M145,190 C172.614237,190 195,212.385763 195,240 C195,267.614237 172.614237,290 145,290 C135.893055,290 127.354771,287.565268 120.000565,283.311217 C125.737367,279.991926 130.753709,275.56607 134.757297,270.325232 C137.972271,271.411255 141.417381,272 145,272 C162.673112,272 177,257.673112 177,240 C177,222.326888 162.673112,208 145,208 C141.417381,208 137.972271,208.588745 134.756142,209.674761 C130.753709,204.43393 125.737367,200.008074 120.000431,196.689359 C127.354771,192.434732 135.893055,190 145,190 Z M105.243858,209.674761 C111.109535,211.655473 116.213537,215.290291 120.000925,220.024277 C115.619122,225.498929 113,232.4436 113,240 C113,247.5564 115.619122,254.501071 119.999075,259.975723 C116.213537,264.709709 111.109535,268.344527 105.243858,270.325239 C98.8168902,261.913615 95,251.402549 95,240 C95,228.678163 98.7630467,218.235232 105.106643,209.853705 Z" id="形状结合" fill="#6ED9BD" fill-rule="nonzero"></path>
        <g id="编组-37备份" transform="translate(105.242479, 196.688795)" fill="#6ED9BD" fill-rule="nonzero" opacity="0.5">
            <path d="M29.5129345,73.6361976 L29.1821242,74.0670862 C25.2346983,79.1199364 20.3370721,83.3944248 14.7579512,86.6218462 C9.02004671,83.3030696 4.00362493,78.8771104 9.76996262e-15,73.6361439 C5.86664444,71.6558708 10.9703424,68.0214232 14.7576498,63.2879237 C18.5445421,68.0212273 23.6479743,71.6555699 29.5129345,73.6361976 Z M29.5148176,12.9859733 L29.1678574,13.1049604 C23.447689,15.1102224 18.4699042,18.6943765 14.7571992,23.3347268 C10.9705152,18.6011099 5.86674372,14.9665728 0.00137842895,12.9859665 C4.00381179,7.74513483 9.02015356,3.3192787 14.75709,0.000563889299 C20.4948877,3.3192787 25.5112295,7.74513483 29.5148176,12.9859733 Z" id="形状结合"></path>
        </g>
    </g>
</svg>