<?xml version="1.0" encoding="UTF-8"?>
<svg width="240px" height="240px" viewBox="0 0 240 240" version="1.1" xmlns="http://www.w3.org/2000/svg" xmlns:xlink="http://www.w3.org/1999/xlink">
    <title>com.android.filemanager_b_s6_1x1_0_mc</title>
    <g id="com.android.filemanager" stroke="none" stroke-width="1" fill="none" fill-rule="evenodd">
        <path d="M192.861074,55.6027962 C194.81663,56.6486388 196.351361,58.1833702 197.397204,60.1389258 C198.443046,62.0944813 199,64.0341988 199,69.3833112 L199,188.616689 C199,193.965801 198.443046,195.905519 197.397204,197.861074 C196.351361,199.81663 194.81663,201.351361 192.861074,202.397204 C190.905519,203.443046 188.965801,204 183.616689,204 L56.3833112,204 C51.0341988,204 49.0944813,203.443046 47.1389258,202.397204 C45.1833702,201.351361 43.6486388,199.81663 42.6027962,197.861074 C41.5569537,195.905519 41,193.965801 41,188.616689 L41,69.3833112 C41,64.0341988 41.5569537,62.0944813 42.6027962,60.1389258 C43.6486388,58.1833702 45.1833702,56.6486388 47.1389258,55.6027962 C48.66764,54.7852309 50.1866755,54.2664256 53.3323158,54.0788959 L53.333,79.9996364 L113.80443,80 L114.084675,80.0038822 C118.74196,80.1330303 122.710365,83.4713591 123.615808,88.0669011 L123.615808,88.0669011 L124.224742,91.157525 L124.280968,91.4222922 C125.220289,95.5455218 128.891416,98.4910714 133.144176,98.4910714 L133.144176,98.4910714 L186.666,98.4906364 L186.667684,54.0788959 C189.813325,54.2664256 191.33236,54.7852309 192.861074,55.6027962 Z" id="形状结合" fill="#329071"></path>
    </g>
</svg>