<?xml version="1.0" encoding="UTF-8"?>
<svg width="240px" height="240px" viewBox="0 0 240 240" version="1.1" xmlns="http://www.w3.org/2000/svg" xmlns:xlink="http://www.w3.org/1999/xlink">
    <title>com.android.filemanager_b_s6_1x1_0_sc</title>
    <g id="com.android.filemanager" stroke="none" stroke-width="1" fill="none" fill-rule="evenodd">
        <path d="M179.393939,36.3636364 C183.410556,36.3636364 186.666667,39.6197473 186.666667,43.6363636 L186.666,98.4906364 L133.144176,98.4910714 C128.891416,98.4910714 125.220289,95.5455218 124.280968,91.4222922 L124.224742,91.157525 L123.615808,88.0669011 C122.710365,83.4713591 118.74196,80.1330303 114.084675,80.0038822 L113.80443,80 L53.333,79.9996364 L53.3333333,43.6363636 C53.3333333,39.6197473 56.5894442,36.3636364 60.6060606,36.3636364 L179.393939,36.3636364 Z M173.333333,67.8787879 L66.6666667,67.8787879 C65.3277945,67.8787879 64.2424242,68.9641582 64.2424242,70.3030303 C64.2424242,71.6419024 65.3277945,72.7272727 66.6666667,72.7272727 L66.6666667,72.7272727 L173.333333,72.7272727 C174.672205,72.7272727 175.757576,71.6419024 175.757576,70.3030303 C175.757576,68.9641582 174.672205,67.8787879 173.333333,67.8787879 L173.333333,67.8787879 Z M86.0385828,51.2351515 C85.1464616,51.2351515 84.390098,51.4266667 83.7694919,51.809697 C83.1488858,52.1927273 82.6834313,52.7115152 82.3731283,53.3660606 C82.0628252,54.0206061 81.9076737,54.7551515 81.9076737,55.569697 C81.9076737,56.4133333 82.0676737,57.1672727 82.3876737,57.8315152 C82.7076737,58.4957576 83.1876737,59.0193939 83.8276737,59.4024242 C84.4676737,59.7854545 85.2434313,59.9769697 86.1549464,59.9769697 C87.1440373,59.9769697 87.9585828,59.7733333 88.5985828,59.3660606 C89.180401,58.9958127 89.6219737,58.397165 89.9233011,57.5701177 L89.9233011,57.5701177 L90.0094919,57.3151515 L87.9876737,57.3151515 L87.9127242,57.4549495 C87.7760239,57.6785185 87.580401,57.8549495 87.3258555,57.9842424 C87.020401,58.1393939 86.630098,58.2169697 86.1549464,58.2169697 C85.7379767,58.2169697 85.3743404,58.1345455 85.0640373,57.969697 C84.7537343,57.8048485 84.5161586,57.5818182 84.3513101,57.3006061 C84.2139363,57.0662626 84.1371687,56.8150842 84.121007,56.5470707 L84.121007,56.5470707 L84.1185828,56.3842424 L90.1113101,56.3842424 L90.1113101,55.4824242 L90.1043783,55.1911742 C90.0720298,54.5192803 89.9264616,53.9012121 89.6676737,53.3369697 C89.3719161,52.6921212 88.9185828,52.1806061 88.3076737,51.8024242 C87.6967646,51.4242424 86.940401,51.2351515 86.0385828,51.2351515 Z M72.5554454,48.5006061 L64.3372636,48.5006061 L64.3372636,59.729697 L66.5627181,59.729697 L66.5627181,55.3224242 L71.8863545,55.3224242 L71.8863545,53.3587879 L66.5627181,53.3587879 L66.5627181,50.4787879 L72.5554454,50.4787879 L72.5554454,48.5006061 Z M76.4097724,51.569697 L74.2279542,51.569697 L74.2279542,59.729697 L76.4097724,59.729697 L76.4097724,51.569697 Z M80.3951222,48.5006061 L78.213304,48.5006061 L78.213304,59.729697 L80.3951222,59.729697 L80.3951222,48.5006061 Z M96.6336088,56.969697 L94.2093664,56.969697 L94.2093664,59.3939394 L96.6336088,59.3939394 L96.6336088,56.969697 Z M86.0385828,52.9951515 C86.4458555,52.9951515 86.7925222,53.0848485 87.0785828,53.2642424 C87.3646434,53.4436364 87.5755525,53.6666667 87.7113101,53.9333333 C87.8470676,54.2 87.9149464,54.4690909 87.9149464,54.7406061 L87.9149464,54.7406061 L84.1185828,54.7406061 L84.1270192,54.5779879 C84.1495161,54.3615515 84.217007,54.1466667 84.3294919,53.9333333 C84.470098,53.6666667 84.6834313,53.4436364 84.9694919,53.2642424 C85.2555525,53.0848485 85.6119161,52.9951515 86.0385828,52.9951515 Z M75.3188633,48.3115152 C74.9600755,48.3115152 74.6691664,48.4181818 74.4461361,48.6315152 C74.2231058,48.8448485 74.1115906,49.1309091 74.1115906,49.489697 C74.1115906,49.8193939 74.22553,50.0981818 74.4534088,50.3260606 C74.6812876,50.5539394 74.9697724,50.6678788 75.3188633,50.6678788 C75.6485603,50.6678788 75.9297724,50.5539394 76.1624997,50.3260606 C76.395227,50.0981818 76.5115906,49.8193939 76.5115906,49.489697 C76.5115906,49.1406061 76.3976512,48.8569697 76.1697724,48.6387879 C75.9418936,48.4206061 75.6582573,48.3115152 75.3188633,48.3115152 Z" id="形状结合" fill="#DFF2E9"></path>
    </g>
</svg>