<?xml version="1.0" encoding="UTF-8"?>
<svg width="480px" height="480px" viewBox="0 0 480 480" version="1.1" xmlns="http://www.w3.org/2000/svg" xmlns:xlink="http://www.w3.org/1999/xlink">
    <title>com.vivo.weather.fog_b_s5_2x2_mc</title>
    <g id="com.vivo.weather.fog" stroke="none" stroke-width="1" fill="none" fill-rule="evenodd" opacity="0.949999988">
        <path d="M214.6328,136.154167 C254.005875,136.154167 287.132463,162.902708 296.837281,199.221839 C297.559269,199.192077 298.287028,199.177404 299.0182,199.177404 C328.675781,199.177404 352.718,223.318157 352.718,253.097286 C352.718,282.876414 328.675781,307.017167 299.0182,307.017167 C298.316652,307.017167 297.618246,307.003659 296.923226,306.976887 L296.923532,307.017167 L216.203192,307.017167 L216.203314,307.003281 C215.691318,307.012525 215.178214,307.017167 214.664042,307.017167 C167.674109,307.017167 129.55,268.247406 129.55,221.250177 C129.55,174.252948 167.642867,136.154167 214.6328,136.154167 Z" id="形状结合" fill="#3B9576"></path>
    </g>
</svg>