<?xml version="1.0" encoding="UTF-8"?>
<svg width="240px" height="240px" viewBox="0 0 240 240" version="1.1" xmlns="http://www.w3.org/2000/svg" xmlns:xlink="http://www.w3.org/1999/xlink">
    <title>com.vivo.weather.fog_b_s5_1x1_mc</title>
    <g id="com.vivo.weather.fog" stroke="none" stroke-width="1" fill="none" fill-rule="evenodd" opacity="0.949999988">
        <path d="M103.1432,67 C127.736113,67 148.427351,83.707654 154.488783,106.393167 C154.939516,106.373838 155.394092,106.364672 155.8508,106.364672 C174.375093,106.364672 189.392,121.443124 189.392,140.043336 C189.392,158.643549 174.375093,173.722 155.8508,173.722 C155.412616,173.722 154.976395,173.713563 154.542289,173.696842 L154.542459,173.722 L104.124076,173.722 C103.80473,173.719097 103.484056,173.722 103.162714,173.722 C73.8125349,173.722 50,149.506187 50,120.151451 C50,90.7967152 73.7930211,67 103.1432,67 Z" id="形状结合" fill="#3B9576"></path>
    </g>
</svg>