<?xml version="1.0" encoding="UTF-8"?>
<svg width="480px" height="480px" viewBox="0 0 480 480" version="1.1" xmlns="http://www.w3.org/2000/svg" xmlns:xlink="http://www.w3.org/1999/xlink">
    <title>com.android.BBKClock_clock_dial_center_2x2_0_sc</title>
    <g id="com.android.BBKClock_clock_dial_center" stroke="none" stroke-width="1" fill="none" fill-rule="evenodd">
        <path d="M241.014124,71.0058198 C244.865901,71.002611 247.990985,74.1224924 247.994194,77.97427 C247.994197,77.9781388 247.994197,77.9820076 247.994194,77.9858763 L247.977559,98.0024841 C247.97435,101.862556 244.845948,104.990964 240.985876,104.99418 C237.134099,104.997389 234.009015,101.877508 234.005806,98.02573 C234.005803,98.0218612 234.005803,98.0179924 234.005806,98.0141237 L234.022441,77.9975159 C234.02565,74.1374438 237.154052,71.0090355 241.014124,71.0058198 Z" id="矩形" fill="#EE3A57"></path>
    </g>
</svg>