<?xml version="1.0" encoding="UTF-8"?>
<svg width="480px" height="480px" viewBox="0 0 480 480" version="1.1" xmlns="http://www.w3.org/2000/svg" xmlns:xlink="http://www.w3.org/1999/xlink">
    <title>com.android.BBKClock_clock_minute_2x2_0_mc</title>
    <g id="com.android.BBKClock_clock_minute" stroke="none" stroke-width="1" fill="none" fill-rule="evenodd">
        <path d="M240,129 C301.303607,129 351,178.696393 351,240 C351,301.303607 301.303607,351 240,351 C178.696393,351 129,301.303607 129,240 C129,178.696393 178.696393,129 240,129 Z M240,193 C214.042617,193 193,214.042617 193,240 C193,265.957383 214.042617,287 240,287 C265.957383,287 287,265.957383 287,240 C287,214.042617 265.957383,193 240,193 Z" id="形状结合" fill-opacity="0.04" fill="#000000"></path>
        <path d="M241.021347,71 C244.873969,71 247.997136,74.123167 247.997136,77.9757887 C247.997136,77.9767433 247.997136,77.9776979 247.997135,77.9786524 L247.960171,168.021348 C247.958588,171.876014 244.83332,175 240.978653,175 C237.126031,175 234.002864,171.876833 234.002864,168.024211 C234.002864,168.023257 234.002864,168.022302 234.002865,168.021348 L234.039829,77.9786524 C234.041412,74.1239858 237.16668,71 241.021347,71 Z" id="分针" fill="#565656" transform="translate(241.000000, 123.000000) rotate(-180.000000) translate(-241.000000, -123.000000) "></path>
        <path d="M240.392076,72.3434343 C244.154659,72.3434343 247.204835,75.3936104 247.204835,79.1561931 C247.204835,79.1571096 247.204835,79.158026 247.204835,79.1589424 L247.16864,168.851159 C247.16712,172.615705 244.114927,175.666667 240.350381,175.666667 C236.587798,175.666667 233.537622,172.616491 233.537622,168.853908 C233.537622,168.852991 233.537622,168.852075 233.537622,168.851159 L233.573817,79.1589424 C233.575337,75.3943964 236.62753,72.3434343 240.392076,72.3434343 Z" id="分针备份-2" fill="#565656" opacity="0" transform="translate(240.371228, 124.005051) rotate(-180.000000) translate(-240.371228, -124.005051) "></path>
    </g>
</svg>