<?xml version="1.0" encoding="UTF-8"?>
<svg width="240px" height="240px" viewBox="0 0 240 240" version="1.1" xmlns="http://www.w3.org/2000/svg" xmlns:xlink="http://www.w3.org/1999/xlink">
    <title>com.android.BBKClock_clock_minute_2x1_1_mc</title>
    <g id="com.android.BBKClock_clock_minute" stroke="none" stroke-width="1" fill="none" fill-rule="evenodd">
        <g id="编组-3" transform="translate(42.576923, 42.576923)"></g>
        <g id="编组" transform="translate(63.000000, 35.000000)">
            <path d="M57,30 C88.4802307,30 114,55.5197693 114,87 C114,118.480231 88.4802307,144 57,144 C25.5197693,144 0,118.480231 0,87 C0,55.5197693 25.5197693,30 57,30 Z M57,70 C47.6111593,70 40,77.6111593 40,87 C40,96.3888407 47.6111593,104 57,104 C66.3888407,104 74,96.3888407 74,87 C74,77.6111593 66.3888407,70 57,70 Z" id="轨迹" fill-opacity="0.04" fill="#000000" fill-rule="nonzero"></path>
            <path d="M57.0121983,0 C59.2136056,-4.04391958e-16 60.9981988,1.78459321 60.9981988,3.98600049 C60.9981988,3.98660077 60.9981986,3.98720104 60.9981984,3.98780132 L60.9774051,50.0121987 C60.9764099,52.2148919 59.1904952,54 56.9878017,54 C54.7863944,54 53.0018012,52.2154068 53.0018012,50.0139995 C53.0018012,50.0133992 53.0018014,50.012799 53.0018016,50.0121987 L53.0225949,3.98780132 C53.0235901,1.78510809 54.8095048,4.04628223e-16 57.0121983,0 Z" id="分针" fill="#565656" transform="translate(57.000000, 27.000000) rotate(-180.000000) translate(-57.000000, -27.000000) "></path>
        </g>
    </g>
</svg>